All steps,Reward,Episodes,Epsilon,Avg. loss,Memory size,Time
10000,"[1780.0, (0.0, 200.0)]",19,1.0,0.0,10000,7.322205543518066
20000,"[1720.0, (20.0, 200.0)]",17,1.0,0.0,20000,7.312180280685425
30000,"[1420.0, (20.0, 200.0)]",18,1.0,0.0,30000,7.364868402481079
40000,"[1720.0, (20.0, 280.0)]",17,1.0,0.0,40000,7.390231370925903
50000,"[1620.0, (0.0, 280.0)]",17,1.0,0.0,50000,7.333720684051514
60000,"[1780.0, (0.0, 360.0)]",19,0.9910000000002963,0.048111935164307944,60000,27.73600459098816
70000,"[1740.0, (0.0, 280.0)]",18,0.9820000000005926,0.043966461200398044,70000,26.40815782546997
80000,"[1620.0, (0.0, 240.0)]",18,0.9730000000008889,0.046797664672340034,80000,26.52777409553528
90000,"[1560.0, (0.0, 200.0)]",20,0.9640000000011852,0.04099603237310075,90000,26.433929443359375
100000,"[1560.0, (0.0, 240.0)]",19,0.9550000000014816,0.04207410296630697,100000,26.437936782836914
110000,"[2000.0, (20.0, 380.0)]",17,0.9460000000017779,0.04305887338643661,110000,26.540135860443115
120000,"[1780.0, (0.0, 180.0)]",18,0.9370000000020742,0.043580513043527024,120000,27.539856672286987
130000,"[2020.0, (0.0, 280.0)]",18,0.9280000000023705,0.041403574532456695,130000,27.119940757751465
140000,"[1740.0, (0.0, 320.0)]",19,0.9190000000026668,0.03748516042823903,140000,27.275346517562866
150000,"[2160.0, (20.0, 280.0)]",15,0.9100000000029631,0.0383918609892251,150000,27.304070711135864
160000,"[1940.0, (0.0, 260.0)]",17,0.9010000000032594,0.03776635122708976,160000,27.349827766418457
170000,"[2100.0, (0.0, 280.0)]",18,0.8920000000035557,0.03976909727607854,170000,27.36317491531372
180000,"[2140.0, (20.0, 260.0)]",16,0.883000000003852,0.03649990950189531,180000,27.600562810897827
190000,"[2480.0, (40.0, 320.0)]",17,0.8740000000041483,0.03805791167930001,190000,27.83163857460022
200000,"[2160.0, (0.0, 220.0)]",16,0.8650000000044447,0.0388018821086036,200000,27.933185815811157
210000,"[2400.0, (0.0, 280.0)]",14,0.856000000004741,0.037364766923547725,210000,28.0900399684906
220000,"[2200.0, (40.0, 320.0)]",16,0.8470000000050373,0.03933726406572387,220000,28.26995301246643
230000,"[2380.0, (60.0, 260.0)]",14,0.8380000000053336,0.040134853946627115,230000,29.07260298728943
240000,"[2560.0, (60.0, 380.0)]",16,0.8290000000056299,0.041900012835906816,240000,29.126851320266724
250000,"[2580.0, (80.0, 300.0)]",13,0.8200000000059262,0.04117148678833619,250000,28.90915584564209
260000,"[2820.0, (80.0, 360.0)]",14,0.8110000000062225,0.04138709641955793,260000,28.852992296218872
270000,"[2560.0, (40.0, 320.0)]",13,0.8020000000065188,0.04264865510202944,270000,29.209831714630127
280000,"[2740.0, (60.0, 440.0)]",13,0.7930000000068151,0.04263801870928146,280000,29.334335565567017
290000,"[2420.0, (80.0, 320.0)]",14,0.7840000000071115,0.046029419420287015,290000,29.438053369522095
300000,"[2720.0, (60.0, 580.0)]",14,0.7750000000074078,0.04342619703784585,300000,29.472532987594604
310000,"[2840.0, (140.0, 440.0)]",11,0.7660000000077041,0.04459278043997474,310000,29.64577031135559
320000,"[3020.0, (140.0, 440.0)]",11,0.7570000000080004,0.04638664820170961,320000,29.83519434928894
330000,"[2920.0, (100.0, 420.0)]",12,0.7480000000082967,0.048045762603962795,330000,29.932612657546997
340000,"[2980.0, (80.0, 400.0)]",12,0.739000000008593,0.050106910538766536,340000,31.128706216812134
350000,"[2620.0, (100.0, 580.0)]",12,0.7300000000088893,0.04976210753573105,350000,30.951038122177124
360000,"[2980.0, (240.0, 500.0)]",8,0.7210000000091856,0.05329287568600848,360000,30.563832998275757
370000,"[2880.0, (60.0, 480.0)]",12,0.7120000000094819,0.05123921953924,370000,30.677393436431885
380000,"[2800.0, (60.0, 360.0)]",12,0.7030000000097782,0.053468449408654126,380000,30.96290612220764
390000,"[3040.0, (80.0, 540.0)]",11,0.6940000000100746,0.05506191297909245,390000,30.914770126342773
400000,"[2820.0, (80.0, 460.0)]",11,0.6850000000103709,0.056783134621940554,400000,31.03885579109192
410000,"[2960.0, (160.0, 420.0)]",11,0.6760000000106672,0.0543778090310283,400000,31.22970223426819
420000,"[2840.0, (60.0, 420.0)]",10,0.6670000000109635,0.05643201398923993,400000,31.297264099121094
430000,"[2880.0, (100.0, 400.0)]",12,0.6580000000112598,0.05700136753218248,400000,31.460196256637573
440000,"[3160.0, (140.0, 480.0)]",10,0.6490000000115561,0.058789119193237274,400000,32.618159770965576
450000,"[2860.0, (80.0, 340.0)]",12,0.6400000000118524,0.06102123467819765,400000,32.169517278671265
460000,"[3040.0, (120.0, 600.0)]",10,0.6310000000121487,0.06349429840706289,400000,31.802064180374146
470000,"[2980.0, (160.0, 440.0)]",10,0.622000000012445,0.06322597518563271,400000,31.848639965057373
480000,"[2900.0, (100.0, 520.0)]",10,0.6130000000127414,0.06707351677939295,400000,31.880594968795776
490000,"[2820.0, (140.0, 460.0)]",11,0.6040000000130377,0.0632723641066812,400000,31.925227642059326
500000,"[2960.0, (160.0, 480.0)]",10,0.595000000013334,0.062322544560860844,400000,32.029677629470825
510000,"[2840.0, (140.0, 480.0)]",11,0.5860000000136303,0.06076085800249129,400000,32.38504600524902
520000,"[2860.0, (120.0, 440.0)]",9,0.5770000000139266,0.0592946276081726,400000,32.44172930717468
530000,"[2920.0, (100.0, 420.0)]",10,0.5680000000142229,0.06272344597997144,400000,32.79758906364441
540000,"[2880.0, (180.0, 440.0)]",9,0.5590000000145192,0.0639251368958503,400000,33.36637496948242
550000,"[2860.0, (160.0, 520.0)]",10,0.5500000000148155,0.058644857899472116,400000,32.340007305145264
560000,"[2920.0, (140.0, 440.0)]",11,0.5410000000151118,0.05835646235914901,400000,32.48165273666382
570000,"[2860.0, (140.0, 520.0)]",9,0.5320000000154081,0.059203725246898826,400000,32.53469133377075
580000,"[2920.0, (260.0, 540.0)]",8,0.5230000000157045,0.05665892451386899,400000,32.82471227645874
590000,"[3000.0, (140.0, 420.0)]",10,0.5140000000160008,0.06134012162964791,400000,33.06366848945618
600000,"[2920.0, (260.0, 480.0)]",8,0.5050000000162971,0.06475530541939661,400000,33.18588972091675
610000,"[2820.0, (100.0, 380.0)]",10,0.49600000001634664,0.057670564960408954,400000,33.13792109489441
620000,"[2980.0, (180.0, 400.0)]",11,0.48700000001608784,0.06088008886650205,400000,33.012099504470825
630000,"[2820.0, (140.0, 420.0)]",11,0.47800000001582904,0.06224365578852594,400000,34.718260288238525
640000,"[2920.0, (180.0, 480.0)]",10,0.46900000001557024,0.06151056093936786,400000,33.25780415534973
650000,"[2780.0, (100.0, 380.0)]",11,0.46000000001531144,0.058996243072208014,400000,33.33522009849548
660000,"[2660.0, (140.0, 400.0)]",11,0.45100000001505264,0.06699212337275967,400000,33.48462653160095
670000,"[2680.0, (160.0, 340.0)]",10,0.44200000001479384,0.06387997662574053,400000,33.37142205238342
680000,"[2880.0, (120.0, 460.0)]",11,0.43300000001453504,0.06291861272845417,400000,33.63371562957764
690000,"[2800.0, (200.0, 500.0)]",9,0.42400000001427623,0.06573160013994202,400000,33.80773878097534
700000,"[2820.0, (120.0, 400.0)]",11,0.41500000001401743,0.06360209920126945,400000,33.69724464416504
710000,"[2660.0, (140.0, 300.0)]",10,0.40600000001375863,0.0621632126936689,400000,33.680014848709106
720000,"[2900.0, (100.0, 500.0)]",10,0.39700000001349983,0.0628658369326964,400000,35.77875852584839
730000,"[2660.0, (100.0, 420.0)]",11,0.38800000001324103,0.0642081674172543,400000,33.978901863098145
740000,"[2840.0, (100.0, 440.0)]",10,0.37900000001298223,0.06264668166143819,400000,34.26492166519165
750000,"[2560.0, (100.0, 500.0)]",10,0.37000000001272343,0.06674072155207396,400000,34.29520034790039
760000,"[2680.0, (120.0, 400.0)]",13,0.36100000001246463,0.06746939542032779,400000,34.186278343200684
770000,"[2680.0, (160.0, 480.0)]",10,0.3520000000122058,0.061157039636280386,400000,34.21365690231323
780000,"[2740.0, (100.0, 600.0)]",10,0.343000000011947,0.061380663883686064,400000,34.25035071372986
790000,"[2760.0, (80.0, 500.0)]",11,0.3340000000116882,0.06539132268233225,400000,34.39876437187195
800000,"[2540.0, (60.0, 340.0)]",11,0.3250000000114294,0.06465759705295786,400000,34.81577444076538
810000,"[2540.0, (60.0, 440.0)]",11,0.3160000000111706,0.06836953734541312,400000,36.2282657623291
820000,"[2600.0, (160.0, 420.0)]",10,0.3070000000109118,0.06845941471233964,400000,35.82603335380554
830000,"[2700.0, (100.0, 440.0)]",11,0.298000000010653,0.06745425012195483,400000,34.89440941810608
840000,"[2560.0, (100.0, 480.0)]",12,0.2890000000103942,0.06494745234875009,400000,35.937705278396606
850000,"[2460.0, (80.0, 380.0)]",11,0.2800000000101354,0.06665939140673727,400000,38.84236264228821
860000,"[2720.0, (120.0, 380.0)]",11,0.2710000000098766,0.06740383890410885,400000,37.15666747093201
870000,"[2520.0, (120.0, 380.0)]",10,0.2620000000096178,0.06452817541733384,400000,35.36282229423523
880000,"[2480.0, (80.0, 360.0)]",11,0.253000000009359,0.06514513771133497,400000,35.157912254333496
890000,"[2520.0, (140.0, 340.0)]",11,0.24400000000928526,0.061736563975643366,400000,35.34203481674194
900000,"[2820.0, (160.0, 500.0)]",10,0.23500000000930402,0.06599162409696728,400000,41.09200930595398
910000,"[2600.0, (140.0, 340.0)]",11,0.22600000000932277,0.07016212269859388,400000,39.53868341445923
920000,"[2700.0, (160.0, 360.0)]",11,0.21700000000934153,0.061557599351275714,400000,39.76678943634033
930000,"[2400.0, (120.0, 380.0)]",10,0.20800000000936028,0.06244934790581465,400000,40.09656381607056
940000,"[2460.0, (140.0, 340.0)]",11,0.19900000000937904,0.0616828398569487,400000,40.26312041282654
950000,"[2600.0, (80.0, 460.0)]",10,0.1900000000093978,0.06121892288401723,400000,40.252460956573486
960000,"[2260.0, (100.0, 340.0)]",12,0.18100000000941655,0.06381034007514827,400000,40.13876748085022
970000,"[2380.0, (80.0, 440.0)]",11,0.1720000000094353,0.06461702343439683,400000,41.25362014770508
980000,"[2380.0, (80.0, 400.0)]",12,0.16300000000945405,0.0677242944621481,400000,40.5780508518219
990000,"[2180.0, (40.0, 360.0)]",12,0.1540000000094728,0.06409895947650075,400000,40.36556935310364
1000000,"[2300.0, (80.0, 380.0)]",10,0.14500000000949156,0.06832778203487397,400000,38.66096878051758
1010000,"[2440.0, (120.0, 340.0)]",11,0.13600000000951032,0.06386702835969627,400000,36.82939267158508
1020000,"[2240.0, (120.0, 320.0)]",11,0.12700000000952907,0.0611830654730089,400000,36.708964109420776
1030000,"[2560.0, (100.0, 460.0)]",11,0.11800000000954783,0.06309980662828311,400000,36.58249759674072
1040000,"[2500.0, (100.0, 320.0)]",13,0.10900000000956658,0.06104149975376204,400000,36.5905978679657
1050000,"[2320.0, (80.0, 320.0)]",12,0.10000000000958534,0.06387805597633123,400000,37.014147996902466
1060000,"[2120.0, (80.0, 280.0)]",12,0.09999910000958534,0.06342091625314206,400000,37.78072953224182
1070000,"[2140.0, (80.0, 380.0)]",14,0.09999910000958534,0.06245565589508042,400000,36.649817943573
1080000,"[1820.0, (60.0, 300.0)]",13,0.09999910000958534,0.06088204521620646,400000,36.4368999004364
1090000,"[2160.0, (80.0, 240.0)]",12,0.09999910000958534,0.0620266262804158,400000,36.31131291389465
1100000,"[2320.0, (120.0, 400.0)]",11,0.09999910000958534,0.0642037362431176,400000,36.23182249069214
1110000,"[2120.0, (100.0, 260.0)]",14,0.09999910000958534,0.06346208942569792,400000,36.36496305465698
1120000,"[2320.0, (80.0, 340.0)]",13,0.09999910000958534,0.06043009711070917,400000,37.294347286224365
1130000,"[2160.0, (40.0, 260.0)]",13,0.09999910000958534,0.0553527736117132,400000,37.098334312438965
1140000,"[2420.0, (80.0, 400.0)]",13,0.09999910000958534,0.05763768119998276,400000,38.26315522193909
1150000,"[2320.0, (100.0, 280.0)]",13,0.09999910000958534,0.052065292001049965,400000,36.50833249092102
1160000,"[2200.0, (60.0, 320.0)]",12,0.09999910000958534,0.057608130846079436,400000,36.41161775588989
1170000,"[2160.0, (80.0, 280.0)]",12,0.09999910000958534,0.055193649354949595,400000,36.23310565948486
1180000,"[2680.0, (80.0, 320.0)]",13,0.09999910000958534,0.05619586132466793,400000,36.4126923084259
1190000,"[2220.0, (100.0, 260.0)]",14,0.09999910000958534,0.05606173857036047,400000,36.35631442070007
1200000,"[2240.0, (80.0, 220.0)]",14,0.09999910000958534,0.05088901236564852,400000,36.56142711639404
1210000,"[2540.0, (100.0, 400.0)]",12,0.09999910000958534,0.05847948721493594,400000,36.52752470970154
1220000,"[2300.0, (80.0, 360.0)]",14,0.09999910000958534,0.05714821377727203,400000,37.37829327583313
1230000,"[2400.0, (40.0, 300.0)]",13,0.09999910000958534,0.05103495560614392,400000,37.30339431762695
1240000,"[2480.0, (80.0, 440.0)]",12,0.09999910000958534,0.05211315110642463,400000,36.456881284713745
1250000,"[2420.0, (60.0, 280.0)]",13,0.09999910000958534,0.052184873167052864,400000,36.32261538505554
1260000,"[2460.0, (80.0, 300.0)]",14,0.09999910000958534,0.05142155835814774,400000,36.37515592575073
1270000,"[2360.0, (80.0, 360.0)]",12,0.09999910000958534,0.053073911333363505,400000,36.36560535430908
1280000,"[2440.0, (80.0, 360.0)]",13,0.09999910000958534,0.055619664120394735,400000,36.4784882068634
1290000,"[2420.0, (80.0, 260.0)]",13,0.09999910000958534,0.05014731047046371,400000,36.66534185409546
1300000,"[2380.0, (100.0, 320.0)]",13,0.09999910000958534,0.04913600861700252,400000,36.97926211357117
1310000,"[2660.0, (60.0, 300.0)]",11,0.09999910000958534,0.045373712839046496,400000,37.528215169906616
1320000,"[2520.0, (80.0, 520.0)]",13,0.09999910000958534,0.049973453205265105,400000,36.55209183692932
1330000,"[2320.0, (60.0, 400.0)]",14,0.09999910000958534,0.050282575905881824,400000,36.425158739089966
1340000,"[2460.0, (80.0, 300.0)]",15,0.09999910000958534,0.049302824354870246,400000,36.381492137908936
1350000,"[2440.0, (60.0, 360.0)]",12,0.09999910000958534,0.05456478591877967,400000,36.56998062133789
1360000,"[2720.0, (80.0, 380.0)]",13,0.09999910000958534,0.05041511183935218,400000,36.58412957191467
1370000,"[2580.0, (80.0, 300.0)]",13,0.09999910000958534,0.049548709719162434,400000,36.576019525527954
1380000,"[2520.0, (80.0, 320.0)]",12,0.09999910000958534,0.04980636231875978,400000,36.50598692893982
1390000,"[2680.0, (40.0, 300.0)]",13,0.09999910000958534,0.051814400052605195,400000,37.575061321258545
1400000,"[2740.0, (100.0, 400.0)]",12,0.09999910000958534,0.05534032804621383,400000,36.895999908447266
1410000,"[2800.0, (140.0, 280.0)]",12,0.09999910000958534,0.05144833082794212,400000,36.455237865448
1420000,"[2740.0, (80.0, 380.0)]",14,0.09999910000958534,0.05002745498106815,400000,36.38386392593384
1430000,"[2560.0, (140.0, 400.0)]",12,0.09999910000958534,0.055342986778263,400000,36.7773642539978
1440000,"[2640.0, (100.0, 380.0)]",12,0.09999910000958534,0.05348586794906296,400000,36.774439096450806
1450000,"[2660.0, (80.0, 360.0)]",12,0.09999910000958534,0.05550904211960733,400000,36.674646854400635
1460000,"[2860.0, (140.0, 340.0)]",12,0.09999910000958534,0.0579144154259935,400000,36.3373589515686
1470000,"[2320.0, (80.0, 300.0)]",14,0.09999910000958534,0.056909309519361705,400000,37.07295083999634
1480000,"[2580.0, (120.0, 300.0)]",13,0.09999910000958534,0.058180763510987166,400000,37.48744869232178
1490000,"[2880.0, (100.0, 380.0)]",12,0.09999910000958534,0.05565422739330679,400000,36.50373339653015
1500000,"[2600.0, (100.0, 560.0)]",13,0.09999910000958534,0.06012243444956839,400000,36.547067165374756
1510000,"[2900.0, (120.0, 360.0)]",13,0.09999910000958534,0.05923111573588103,400000,36.51907920837402
1520000,"[2800.0, (140.0, 340.0)]",12,0.09999910000958534,0.06357309668590315,400000,36.32490682601929
1530000,"[3160.0, (120.0, 400.0)]",13,0.09999910000958534,0.060602248160727325,400000,36.32516622543335
1540000,"[2660.0, (120.0, 280.0)]",13,0.09999910000958534,0.062081302678212526,400000,36.50663876533508
1550000,"[2880.0, (120.0, 300.0)]",14,0.09999910000958534,0.06011846057306975,400000,37.21892023086548
1560000,"[2960.0, (100.0, 360.0)]",12,0.09999910000958534,0.06028522727410309,400000,37.37509369850159
1570000,"[2880.0, (120.0, 480.0)]",12,0.09999910000958534,0.06258646265571005,400000,36.921297550201416
1580000,"[2860.0, (120.0, 320.0)]",14,0.09999910000958534,0.06085010517425835,400000,36.72695565223694
1590000,"[3020.0, (80.0, 360.0)]",12,0.09999910000958534,0.06516879404708743,400000,36.72129964828491
1600000,"[3580.0, (120.0, 380.0)]",13,0.09999910000958534,0.05586728649009019,400000,36.56735920906067
1610000,"[3320.0, (120.0, 520.0)]",13,0.09999910000958534,0.05855097147226333,400000,36.442962408065796
1620000,"[3180.0, (60.0, 400.0)]",13,0.09999910000958534,0.05574675710266456,400000,36.49253177642822
1630000,"[3260.0, (80.0, 580.0)]",13,0.09999910000958534,0.056715416484512386,400000,36.788594007492065
1640000,"[3240.0, (100.0, 420.0)]",14,0.09999910000958534,0.05632174307270907,400000,37.047494411468506
1650000,"[3140.0, (140.0, 440.0)]",12,0.09999910000958534,0.053714819063711915,400000,37.68665266036987
1660000,"[3320.0, (120.0, 440.0)]",14,0.09999910000958534,0.05403987148348242,400000,36.62448740005493
1670000,"[3320.0, (120.0, 420.0)]",13,0.09999910000958534,0.04856408503316343,400000,36.70051908493042
1680000,"[2600.0, (100.0, 360.0)]",13,0.09999910000958534,0.0546505142474547,400000,36.47100281715393
1690000,"[3560.0, (160.0, 360.0)]",14,0.09999910000958534,0.05501372826658189,400000,36.2634379863739
1700000,"[3300.0, (180.0, 440.0)]",12,0.09999910000958534,0.056019456803938376,400000,36.26730394363403
1710000,"[3080.0, (100.0, 400.0)]",13,0.09999910000958534,0.04993778544790112,400000,36.39343810081482
1720000,"[3040.0, (120.0, 440.0)]",11,0.09999910000958534,0.054476667461870236,400000,37.09919881820679
1730000,"[3260.0, (120.0, 380.0)]",13,0.09999910000958534,0.05583020259467885,400000,37.395814180374146
1740000,"[3200.0, (140.0, 540.0)]",12,0.09999910000958534,0.05609067484475672,400000,36.159907817840576
1750000,"[3180.0, (140.0, 380.0)]",14,0.09999910000958534,0.05954985793605447,400000,36.13108158111572
1760000,"[3400.0, (180.0, 380.0)]",12,0.09999910000958534,0.06194246992683038,400000,36.41450023651123
1770000,"[3320.0, (140.0, 480.0)]",13,0.09999910000958534,0.057132320511480796,400000,36.6340126991272
1780000,"[3360.0, (180.0, 420.0)]",12,0.09999910000958534,0.06011783314575441,400000,36.14911723136902
1790000,"[3080.0, (100.0, 460.0)]",13,0.09999910000958534,0.05863915335913189,400000,36.38872671127319
1800000,"[3340.0, (120.0, 440.0)]",14,0.09999910000958534,0.05706432076469064,400000,37.270352602005005
1810000,"[3340.0, (100.0, 600.0)]",10,0.09999910000958534,0.050268390225060286,400000,36.722485303878784
1820000,"[3080.0, (80.0, 320.0)]",14,0.09999910000958534,0.05291962256794795,400000,37.5269513130188
1830000,"[3420.0, (140.0, 420.0)]",14,0.09999910000958534,0.04993784591527656,400000,36.77993392944336
1840000,"[3360.0, (120.0, 400.0)]",14,0.09999910000958534,0.05275751510895789,400000,36.43753123283386
1850000,"[3020.0, (60.0, 460.0)]",13,0.09999910000958534,0.05158120103469119,400000,36.29574131965637
1860000,"[3440.0, (100.0, 460.0)]",12,0.09999910000958534,0.0532062294731848,400000,36.50159025192261
1870000,"[3560.0, (140.0, 520.0)]",13,0.09999910000958534,0.06092696068994701,400000,36.53269696235657
1880000,"[3200.0, (100.0, 440.0)]",13,0.09999910000958534,0.06207484646672383,400000,36.794414043426514
1890000,"[3460.0, (140.0, 520.0)]",13,0.09999910000958534,0.05442603203505278,400000,37.05429458618164
1900000,"[3140.0, (80.0, 320.0)]",14,0.09999910000958534,0.05879784381156787,400000,37.6753044128418
1910000,"[3360.0, (80.0, 520.0)]",11,0.09999910000958534,0.05881371933612972,400000,36.638216972351074
1920000,"[3540.0, (120.0, 480.0)]",13,0.09999910000958534,0.05680255139162764,400000,36.43897747993469
1930000,"[3300.0, (180.0, 380.0)]",12,0.09999910000958534,0.0540621899840422,400000,36.5191113948822
1940000,"[3200.0, (100.0, 300.0)]",14,0.09999910000958534,0.05488860045913607,400000,36.57147550582886
1950000,"[3480.0, (180.0, 440.0)]",11,0.09999910000958534,0.05441353912334889,400000,36.47838044166565
1960000,"[3260.0, (140.0, 460.0)]",12,0.09999910000958534,0.053374652665201576,400000,36.49960970878601
1970000,"[3620.0, (120.0, 500.0)]",15,0.09999910000958534,0.05413261710871011,400000,37.073209047317505
1980000,"[3340.0, (160.0, 380.0)]",12,0.09999910000958534,0.05436520283529535,400000,36.42410731315613
1990000,"[3740.0, (80.0, 420.0)]",13,0.09999910000958534,0.05087402311079204,400000,37.44306683540344
2000000,"[3340.0, (100.0, 400.0)]",13,0.09999910000958534,0.056665710195899006,400000,36.53260922431946
2010000,"[3320.0, (180.0, 340.0)]",14,0.09999910000958534,0.05385240335343405,400000,36.51745128631592
2020000,"[3540.0, (160.0, 500.0)]",13,0.09999910000958534,0.05226210647756234,400000,36.58195233345032
2030000,"[3260.0, (120.0, 380.0)]",13,0.09999910000958534,0.05300935226753354,400000,36.58107018470764
2040000,"[3460.0, (140.0, 400.0)]",14,0.09999910000958534,0.05150147792864591,400000,36.61988854408264
2050000,"[3460.0, (180.0, 400.0)]",11,0.09999910000958534,0.04972871642629616,400000,37.2960638999939
2060000,"[3300.0, (180.0, 620.0)]",13,0.09999910000958534,0.04959525621235371,400000,36.85305452346802
2070000,"[3620.0, (180.0, 560.0)]",12,0.09999910000958534,0.04683572990335524,400000,37.78329873085022
2080000,"[3560.0, (120.0, 360.0)]",13,0.09999910000958534,0.047020297635812315,400000,36.40940451622009
2090000,"[3240.0, (100.0, 320.0)]",14,0.09999910000958534,0.04550917064957321,400000,36.463815689086914
2100000,"[3240.0, (140.0, 460.0)]",13,0.09999910000958534,0.043714875305630264,400000,36.47893929481506
2110000,"[3580.0, (100.0, 420.0)]",13,0.09999910000958534,0.045141587281785904,400000,36.58999943733215
2120000,"[3520.0, (140.0, 640.0)]",12,0.09999910000958534,0.045189474913850426,400000,36.692965030670166
2130000,"[3660.0, (140.0, 480.0)]",14,0.09999910000958534,0.04660017211139202,400000,37.04038190841675
2140000,"[3400.0, (120.0, 420.0)]",15,0.09999910000958534,0.04955909613147378,400000,36.82671332359314
2150000,"[3560.0, (140.0, 380.0)]",14,0.09999910000958534,0.04303889130987227,400000,36.68987488746643
2160000,"[3260.0, (160.0, 480.0)]",13,0.09999910000958534,0.049010306275449694,400000,37.436832427978516
2170000,"[3900.0, (120.0, 500.0)]",12,0.09999910000958534,0.045743204179406166,400000,36.37610912322998
2180000,"[3460.0, (180.0, 340.0)]",13,0.09999910000958534,0.042362752036191526,400000,36.302085876464844
2190000,"[3460.0, (100.0, 420.0)]",14,0.09999910000958534,0.04659308861009777,400000,36.20996594429016
2200000,"[3540.0, (140.0, 400.0)]",14,0.09999910000958534,0.04916713154660538,400000,36.452589988708496
2210000,"[3620.0, (160.0, 400.0)]",14,0.09999910000958534,0.04842249481389299,400000,36.51289701461792
2220000,"[3460.0, (140.0, 440.0)]",14,0.09999910000958534,0.04898531196936965,400000,37.18499541282654
2230000,"[3620.0, (200.0, 460.0)]",13,0.09999910000958534,0.0476366531053558,400000,36.587934732437134
2240000,"[3560.0, (140.0, 500.0)]",13,0.09999910000958534,0.04792062449194491,400000,37.40539526939392
2250000,"[3680.0, (160.0, 420.0)]",12,0.09999910000958534,0.052159077944606544,400000,36.43443202972412
2260000,"[3360.0, (120.0, 400.0)]",14,0.09999910000958534,0.05511490908423439,400000,36.72334432601929
2270000,"[3800.0, (240.0, 480.0)]",12,0.09999910000958534,0.05346152206072584,400000,36.65502953529358
2280000,"[3540.0, (160.0, 400.0)]",13,0.09999910000958534,0.04895843560630456,400000,36.75636005401611
2290000,"[3660.0, (140.0, 420.0)]",13,0.09999910000958534,0.05026478070858866,400000,36.547380685806274
2300000,"[3380.0, (220.0, 440.0)]",11,0.09999910000958534,0.04872997764702886,400000,37.04805088043213
2310000,"[3620.0, (120.0, 480.0)]",12,0.09999910000958534,0.0514138891578652,400000,36.22177243232727
2320000,"[3360.0, (120.0, 380.0)]",13,0.09999910000958534,0.049794198341388256,400000,36.79039788246155
2330000,"[3360.0, (140.0, 560.0)]",13,0.09999910000958534,0.05273935396037996,400000,37.005122661590576
2340000,"[3240.0, (200.0, 340.0)]",12,0.09999910000958534,0.050324848501104864,400000,36.32417869567871
2350000,"[3220.0, (160.0, 360.0)]",12,0.09999910000958534,0.0591665074698627,400000,36.59089779853821
2360000,"[3540.0, (160.0, 480.0)]",13,0.09999910000958534,0.05282508657099679,400000,36.65076661109924
2370000,"[3640.0, (160.0, 580.0)]",12,0.09999910000958534,0.05501939392182976,400000,36.496368646621704
2380000,"[3440.0, (80.0, 400.0)]",13,0.09999910000958534,0.050939792425278574,400000,36.715036392211914
2390000,"[3660.0, (180.0, 440.0)]",13,0.09999910000958534,0.04967965066619218,400000,36.372873306274414
2400000,"[3480.0, (160.0, 480.0)]",13,0.09999910000958534,0.050210383426677434,400000,36.28248476982117
2410000,"[3700.0, (160.0, 480.0)]",13,0.09999910000958534,0.048725742801837627,400000,37.38606786727905
2420000,"[3840.0, (140.0, 500.0)]",13,0.09999910000958534,0.04794622633522377,400000,36.23970818519592
2430000,"[3580.0, (140.0, 420.0)]",12,0.09999910000958534,0.049212203451711685,400000,36.44455337524414
2440000,"[3820.0, (160.0, 520.0)]",11,0.09999910000958534,0.051407685884460805,400000,36.52033543586731
2450000,"[3680.0, (160.0, 460.0)]",15,0.09999910000958534,0.05012154718693346,400000,36.46893930435181
2460000,"[3760.0, (200.0, 500.0)]",12,0.09999910000958534,0.05258439998244867,400000,36.71165323257446
2470000,"[3860.0, (140.0, 500.0)]",12,0.09999910000958534,0.051399222239945086,400000,37.08201766014099
2480000,"[3920.0, (160.0, 500.0)]",12,0.09999910000958534,0.0512192019706592,400000,36.65972089767456
2490000,"[3900.0, (200.0, 520.0)]",12,0.09999910000958534,0.047375294978171584,400000,37.44161605834961
2500000,"[3560.0, (160.0, 540.0)]",11,0.09999910000958534,0.05249520182944834,400000,37.0884964466095
2510000,"[3360.0, (100.0, 500.0)]",13,0.09999910000958534,0.055957453534658995,400000,36.81908178329468
2520000,"[3180.0, (120.0, 400.0)]",14,0.09999910000958534,0.05529052325435914,400000,36.4508330821991
2530000,"[3340.0, (100.0, 380.0)]",13,0.09999910000958534,0.05090024485448375,400000,36.338119983673096
2540000,"[3080.0, (120.0, 420.0)]",15,0.09999910000958534,0.04930238841855898,400000,36.563934087753296
2550000,"[3600.0, (180.0, 560.0)]",11,0.09999910000958534,0.05114457703223452,400000,37.02996754646301
2560000,"[3780.0, (140.0, 580.0)]",14,0.09999910000958534,0.05411253262115642,400000,36.50466203689575
2570000,"[3660.0, (180.0, 500.0)]",12,0.09999910000958534,0.05621182659557089,400000,36.663777112960815
2580000,"[3440.0, (80.0, 520.0)]",13,0.09999910000958534,0.05561498383088037,400000,37.832783699035645
2590000,"[3880.0, (160.0, 420.0)]",16,0.09999910000958534,0.05642012338964269,400000,36.62425398826599
2600000,"[4080.0, (180.0, 600.0)]",12,0.09999910000958534,0.05031774319130927,400000,36.29273962974548
2610000,"[3740.0, (120.0, 440.0)]",12,0.09999910000958534,0.05249117331895977,400000,36.449867248535156
2620000,"[4080.0, (220.0, 560.0)]",11,0.09999910000958534,0.048000882636941966,400000,36.52498173713684
2630000,"[3400.0, (100.0, 380.0)]",14,0.09999910000958534,0.05567821528213099,400000,37.0735137462616
2640000,"[3840.0, (200.0, 460.0)]",11,0.09999910000958534,0.056432155590178446,400000,36.713359117507935
2650000,"[3980.0, (180.0, 600.0)]",13,0.09999910000958534,0.061120823287963866,400000,36.722540616989136
2660000,"[3540.0, (160.0, 460.0)]",14,0.09999910000958534,0.06291820329297335,400000,37.47039818763733
2670000,"[3400.0, (80.0, 400.0)]",14,0.09999910000958534,0.05966974036237225,400000,36.54387450218201
2680000,"[4080.0, (200.0, 540.0)]",11,0.09999910000958534,0.061429023460857574,400000,36.45688247680664
2690000,"[3620.0, (160.0, 420.0)]",12,0.09999910000958534,0.08967783593256026,400000,36.61268162727356
2700000,"[4180.0, (180.0, 580.0)]",11,0.09999910000958534,0.08169192893225699,400000,36.4129421710968
2710000,"[3860.0, (180.0, 520.0)]",11,0.09999910000958534,0.08017128069950268,400000,37.38421392440796
2720000,"[3780.0, (260.0, 520.0)]",9,0.09999910000958534,0.07774562002299354,400000,37.231823444366455
2730000,"[3920.0, (220.0, 560.0)]",11,0.09999910000958534,0.07907107866667211,400000,36.724658727645874
2740000,"[3560.0, (140.0, 420.0)]",12,0.09999910000958534,0.08123548666303977,400000,36.37384629249573
2750000,"[3540.0, (140.0, 540.0)]",10,0.09999910000958534,0.07801165513843299,400000,37.44043159484863
2760000,"[3400.0, (140.0, 560.0)]",11,0.09999910000958534,0.07777145445588976,400000,36.507753133773804
2770000,"[3760.0, (140.0, 600.0)]",12,0.09999910000958534,0.08063195328693837,400000,36.36853766441345
2780000,"[3480.0, (140.0, 520.0)]",13,0.09999910000958534,0.07262439599744976,400000,36.46527624130249
2790000,"[3940.0, (160.0, 520.0)]",11,0.09999910000958534,0.07360310760801658,400000,37.35840177536011
2800000,"[3580.0, (200.0, 460.0)]",12,0.09999910000958534,0.07513185097910464,400000,37.23854374885559
2810000,"[3580.0, (220.0, 420.0)]",10,0.09999910000958534,0.0683904621087946,400000,36.44528555870056
2820000,"[3780.0, (160.0, 800.0)]",10,0.09999910000958534,0.06684596514618024,400000,36.42775893211365
2830000,"[3540.0, (180.0, 600.0)]",9,0.09999910000958534,0.06444322239430621,400000,37.40414619445801
2840000,"[3620.0, (160.0, 700.0)]",10,0.09999910000958534,0.06195249226456508,400000,36.571478843688965
2850000,"[4000.0, (200.0, 640.0)]",9,0.09999910000958534,0.0616557536075823,400000,36.4282112121582
2860000,"[3760.0, (160.0, 780.0)]",10,0.09999910000958534,0.060844293964654204,400000,36.43421816825867
2870000,"[3820.0, (160.0, 580.0)]",11,0.09999910000958534,0.0529043932502158,400000,36.479177951812744
2880000,"[4020.0, (220.0, 760.0)]",10,0.09999910000958534,0.05049921712921932,400000,37.10469341278076
2890000,"[3800.0, (180.0, 820.0)]",10,0.09999910000958534,0.04781524649420753,400000,36.56125545501709
2900000,"[4180.0, (180.0, 560.0)]",12,0.09999910000958534,0.047778787990286946,400000,37.08299231529236
2910000,"[4200.0, (300.0, 580.0)]",9,0.09999910000958534,0.04841317847743631,400000,39.949487924575806
2920000,"[4040.0, (200.0, 780.0)]",11,0.09999910000958534,0.04357327054804191,400000,38.58534097671509
2930000,"[4220.0, (280.0, 560.0)]",11,0.09999910000958534,0.04782417318783701,400000,40.86768579483032
2940000,"[4420.0, (200.0, 700.0)]",11,0.09999910000958534,0.045155406462401154,400000,40.49846959114075
2950000,"[4280.0, (200.0, 620.0)]",11,0.09999910000958534,0.04199412542320788,400000,40.4637553691864
2960000,"[3840.0, (120.0, 560.0)]",12,0.09999910000958534,0.04694771043276414,400000,41.291372537612915
2970000,"[4140.0, (220.0, 500.0)]",12,0.09999910000958534,0.0434048870545812,400000,38.94709801673889
2980000,"[4120.0, (140.0, 500.0)]",13,0.09999910000958534,0.04464307533018291,400000,37.38144016265869
2990000,"[4260.0, (140.0, 560.0)]",12,0.09999910000958534,0.04571114218235016,400000,38.448567390441895
3000000,"[3880.0, (160.0, 440.0)]",13,0.09999910000958534,0.04673221284933388,400000,38.50548052787781
