Approach,Score,,,
Non-visual input,560,,Non-visual Median,780
Non-visual input,900,,Visual Median,1620
Non-visual input,680,,,
Non-visual input,640,,,
Non-visual input,880,,,
Non-visual input,320,,,
Non-visual input,760,,,
Non-visual input,620,,,
Non-visual input,520,,,
Non-visual input,1080,,,
Non-visual input,1080,,,
Non-visual input,640,,,
Non-visual input,620,,,
Non-visual input,480,,,
Non-visual input,1240,,,
Non-visual input,340,,,
Non-visual input,780,,,
Non-visual input,1080,,,
Non-visual input,600,,,
Non-visual input,220,,,
Non-visual input,400,,,
Non-visual input,1080,,,
Non-visual input,600,,,
Non-visual input,700,,,
Non-visual input,900,,,
Non-visual input,1140,,,
Non-visual input,800,,,
Non-visual input,620,,,
Non-visual input,940,,,
Non-visual input,700,,,
Non-visual input,1140,,,
Non-visual input,900,,,
Non-visual input,1460,,,
Non-visual input,1400,,,
Non-visual input,680,,,
Non-visual input,1420,,,
Non-visual input,1280,,,
Non-visual input,980,,,
Non-visual input,780,,,
Non-visual input,820,,,
Non-visual input,1120,,,
Non-visual input,1000,,,
Non-visual input,560,,,
Non-visual input,440,,,
Non-visual input,720,,,
Non-visual input,1020,,,
Non-visual input,820,,,
Non-visual input,620,,,
Non-visual input,900,,,
Non-visual input,1020,,,
Non-visual input,260,,,
Non-visual input,480,,,
Non-visual input,1000,,,
Non-visual input,660,,,
Non-visual input,580,,,
Non-visual input,700,,,
Non-visual input,380,,,
Non-visual input,1220,,,
Non-visual input,960,,,
Non-visual input,600,,,
Non-visual input,400,,,
Non-visual input,580,,,
Non-visual input,1240,,,
Non-visual input,940,,,
Non-visual input,740,,,
Non-visual input,700,,,
Non-visual input,940,,,
Non-visual input,300,,,
Non-visual input,980,,,
Non-visual input,1300,,,
Non-visual input,940,,,
Non-visual input,640,,,
Non-visual input,720,,,
Non-visual input,940,,,
Non-visual input,440,,,
Non-visual input,640,,,
Non-visual input,1640,,,
Non-visual input,1100,,,
Non-visual input,580,,,
Non-visual input,940,,,
Non-visual input,1620,,,
Non-visual input,1100,,,
Non-visual input,380,,,
Non-visual input,760,,,
Non-visual input,840,,,
Non-visual input,1220,,,
Non-visual input,700,,,
Non-visual input,560,,,
Non-visual input,520,,,
Non-visual input,380,,,
Non-visual input,760,,,
Non-visual input,760,,,
Non-visual input,820,,,
Non-visual input,1000,,,
Non-visual input,880,,,
Non-visual input,1140,,,
Non-visual input,1300,,,
Non-visual input,940,,,
Non-visual input,460,,,
Non-visual input,620,,,
Non-visual input,540,,,
Non-visual input,1120,,,
Non-visual input,1200,,,
Non-visual input,840,,,
Non-visual input,720,,,
Non-visual input,1040,,,
Non-visual input,820,,,
Non-visual input,460,,,
Non-visual input,1000,,,
Non-visual input,820,,,
Non-visual input,520,,,
Non-visual input,1060,,,
Non-visual input,920,,,
Non-visual input,580,,,
Non-visual input,740,,,
Non-visual input,460,,,
Non-visual input,920,,,
Non-visual input,700,,,
Non-visual input,620,,,
Non-visual input,900,,,
Non-visual input,600,,,
Non-visual input,760,,,
Non-visual input,960,,,
Non-visual input,640,,,
Non-visual input,780,,,
Non-visual input,1040,,,
Non-visual input,580,,,
Non-visual input,660,,,
Non-visual input,420,,,
Non-visual input,660,,,
Non-visual input,720,,,
Non-visual input,800,,,
Non-visual input,420,,,
Non-visual input,840,,,
Non-visual input,960,,,
Non-visual input,700,,,
Non-visual input,640,,,
Non-visual input,340,,,
Non-visual input,440,,,
Non-visual input,700,,,
Non-visual input,720,,,
Non-visual input,780,,,
Non-visual input,580,,,
Non-visual input,520,,,
Non-visual input,1120,,,
Non-visual input,920,,,
Non-visual input,580,,,
Non-visual input,1280,,,
Non-visual input,580,,,
Non-visual input,840,,,
Non-visual input,980,,,
Non-visual input,660,,,
Non-visual input,360,,,
Non-visual input,1060,,,
Non-visual input,1180,,,
Non-visual input,820,,,
Non-visual input,960,,,
Non-visual input,620,,,
Non-visual input,620,,,
Non-visual input,380,,,
Non-visual input,780,,,
Non-visual input,720,,,
Non-visual input,680,,,
Non-visual input,1000,,,
Non-visual input,540,,,
Non-visual input,640,,,
Non-visual input,680,,,
Non-visual input,940,,,
Non-visual input,740,,,
Non-visual input,780,,,
Non-visual input,620,,,
Non-visual input,1040,,,
Non-visual input,760,,,
Non-visual input,960,,,
Non-visual input,1860,,,
Non-visual input,600,,,
Non-visual input,680,,,
Non-visual input,720,,,
Non-visual input,620,,,
Non-visual input,820,,,
Non-visual input,660,,,
Non-visual input,800,,,
Non-visual input,640,,,
Non-visual input,1220,,,
Non-visual input,760,,,
Non-visual input,940,,,
Non-visual input,1000,,,
Non-visual input,880,,,
Non-visual input,600,,,
Non-visual input,1140,,,
Non-visual input,600,,,
Non-visual input,520,,,
Non-visual input,440,,,
Non-visual input,820,,,
Non-visual input,760,,,
Non-visual input,760,,,
Non-visual input,600,,,
Non-visual input,840,,,
Non-visual input,560,,,
Non-visual input,560,,,
Non-visual input,240,,,
Non-visual input,560,,,
Non-visual input,640,,,
Non-visual input,0,,,
Non-visual input,320,,,
Non-visual input,80,,,
Non-visual input,0,,,
Non-visual input,400,,,
Non-visual input,420,,,
Non-visual input,400,,,
Non-visual input,340,,,
Non-visual input,620,,,
Non-visual input,1020,,,
Non-visual input,300,,,
Non-visual input,0,,,
Non-visual input,20,,,
Non-visual input,240,,,
Non-visual input,460,,,
Non-visual input,640,,,
Non-visual input,560,,,
Non-visual input,420,,,
Non-visual input,500,,,
Non-visual input,620,,,
Non-visual input,20,,,
Non-visual input,480,,,
Non-visual input,100,,,
Non-visual input,620,,,
Non-visual input,900,,,
Non-visual input,80,,,
Non-visual input,500,,,
Non-visual input,1080,,,
Non-visual input,640,,,
Non-visual input,800,,,
Non-visual input,360,,,
Non-visual input,0,,,
Non-visual input,420,,,
Non-visual input,1140,,,
Non-visual input,860,,,
Non-visual input,0,,,
Non-visual input,320,,,
Non-visual input,820,,,
Non-visual input,380,,,
Non-visual input,640,,,
Non-visual input,1180,,,
Non-visual input,340,,,
Non-visual input,720,,,
Non-visual input,320,,,
Non-visual input,240,,,
Non-visual input,1220,,,
Non-visual input,140,,,
Non-visual input,160,,,
Non-visual input,140,,,
Non-visual input,540,,,
Non-visual input,100,,,
Non-visual input,120,,,
Non-visual input,1160,,,
Non-visual input,0,,,
Non-visual input,680,,,
Non-visual input,400,,,
Non-visual input,600,,,
Non-visual input,940,,,
Non-visual input,680,,,
Non-visual input,580,,,
Non-visual input,660,,,
Non-visual input,1100,,,
Non-visual input,0,,,
Non-visual input,800,,,
Non-visual input,0,,,
Non-visual input,640,,,
Non-visual input,400,,,
Non-visual input,140,,,
Non-visual input,780,,,
Non-visual input,1080,,,
Non-visual input,860,,,
Non-visual input,260,,,
Non-visual input,560,,,
Non-visual input,140,,,
Non-visual input,900,,,
Non-visual input,20,,,
Non-visual input,1460,,,
Non-visual input,20,,,
Non-visual input,220,,,
Non-visual input,420,,,
Non-visual input,840,,,
Non-visual input,40,,,
Non-visual input,100,,,
Non-visual input,860,,,
Non-visual input,260,,,
Non-visual input,320,,,
Non-visual input,780,,,
Non-visual input,640,,,
Non-visual input,600,,,
Non-visual input,1080,,,
Non-visual input,1040,,,
Non-visual input,180,,,
Non-visual input,460,,,
Non-visual input,20,,,
Non-visual input,400,,,
Non-visual input,240,,,
Non-visual input,880,,,
Non-visual input,460,,,
Non-visual input,100,,,
Non-visual input,820,,,
Non-visual input,600,,,
Non-visual input,1020,,,
Non-visual input,1440,,,
Non-visual input,520,,,
Non-visual input,780,,,
Non-visual input,720,,,
Non-visual input,800,,,
Non-visual input,980,,,
Non-visual input,440,,,
Non-visual input,1380,,,
Non-visual input,1000,,,
Non-visual input,640,,,
Non-visual input,1300,,,
Non-visual input,760,,,
Non-visual input,1120,,,
Non-visual input,940,,,
Non-visual input,420,,,
Non-visual input,660,,,
Non-visual input,820,,,
Non-visual input,660,,,
Non-visual input,540,,,
Non-visual input,780,,,
Non-visual input,800,,,
Non-visual input,880,,,
Non-visual input,800,,,
Non-visual input,760,,,
Non-visual input,1040,,,
Non-visual input,1300,,,
Non-visual input,1000,,,
Non-visual input,480,,,
Non-visual input,1040,,,
Non-visual input,420,,,
Non-visual input,740,,,
Non-visual input,460,,,
Non-visual input,640,,,
Non-visual input,760,,,
Non-visual input,920,,,
Non-visual input,880,,,
Non-visual input,520,,,
Non-visual input,900,,,
Non-visual input,500,,,
Non-visual input,1040,,,
Non-visual input,1440,,,
Non-visual input,1460,,,
Non-visual input,680,,,
Non-visual input,340,,,
Non-visual input,620,,,
Non-visual input,980,,,
Non-visual input,740,,,
Non-visual input,1140,,,
Non-visual input,900,,,
Non-visual input,560,,,
Non-visual input,1060,,,
Non-visual input,780,,,
Non-visual input,1040,,,
Non-visual input,1440,,,
Non-visual input,900,,,
Non-visual input,1020,,,
Non-visual input,500,,,
Non-visual input,1180,,,
Non-visual input,760,,,
Non-visual input,320,,,
Non-visual input,820,,,
Non-visual input,740,,,
Non-visual input,300,,,
Non-visual input,900,,,
Non-visual input,620,,,
Non-visual input,860,,,
Non-visual input,1060,,,
Non-visual input,300,,,
Non-visual input,660,,,
Non-visual input,660,,,
Non-visual input,880,,,
Non-visual input,640,,,
Non-visual input,480,,,
Non-visual input,1000,,,
Non-visual input,600,,,
Non-visual input,800,,,
Non-visual input,720,,,
Non-visual input,740,,,
Non-visual input,500,,,
Non-visual input,740,,,
Non-visual input,640,,,
Non-visual input,580,,,
Non-visual input,280,,,
Non-visual input,1260,,,
Non-visual input,940,,,
Non-visual input,960,,,
Non-visual input,1040,,,
Non-visual input,1160,,,
Non-visual input,1300,,,
Non-visual input,1060,,,
Non-visual input,800,,,
Non-visual input,1400,,,
Non-visual input,660,,,
Non-visual input,260,,,
Non-visual input,480,,,
Non-visual input,1320,,,
Non-visual input,820,,,
Non-visual input,520,,,
Non-visual input,1240,,,
Non-visual input,1040,,,
Non-visual input,1220,,,
Non-visual input,1200,,,
Non-visual input,440,,,
Non-visual input,1000,,,
Non-visual input,1000,,,
Non-visual input,1180,,,
Non-visual input,820,,,
Non-visual input,1020,,,
Non-visual input,1160,,,
Non-visual input,220,,,
Non-visual input,1000,,,
Non-visual input,640,,,
Non-visual input,1120,,,
Non-visual input,1040,,,
Non-visual input,1160,,,
Non-visual input,920,,,
Non-visual input,860,,,
Non-visual input,1680,,,
Non-visual input,1080,,,
Non-visual input,1200,,,
Non-visual input,800,,,
Non-visual input,1020,,,
Non-visual input,1340,,,
Non-visual input,1280,,,
Non-visual input,1400,,,
Non-visual input,1180,,,
Non-visual input,1860,,,
Non-visual input,1160,,,
Non-visual input,1220,,,
Non-visual input,1300,,,
Non-visual input,1100,,,
Non-visual input,1280,,,
Non-visual input,660,,,
Non-visual input,920,,,
Non-visual input,920,,,
Non-visual input,1220,,,
Non-visual input,1440,,,
Non-visual input,440,,,
Non-visual input,940,,,
Non-visual input,1620,,,
Non-visual input,1400,,,
Non-visual input,1100,,,
Non-visual input,620,,,
Non-visual input,620,,,
Non-visual input,560,,,
Non-visual input,1540,,,
Non-visual input,760,,,
Non-visual input,1160,,,
Non-visual input,1020,,,
Non-visual input,780,,,
Non-visual input,1280,,,
Non-visual input,1000,,,
Non-visual input,800,,,
Non-visual input,1160,,,
Non-visual input,920,,,
Non-visual input,1220,,,
Non-visual input,1280,,,
Non-visual input,1540,,,
Non-visual input,440,,,
Non-visual input,1280,,,
Non-visual input,740,,,
Non-visual input,480,,,
Non-visual input,900,,,
Non-visual input,1620,,,
Non-visual input,800,,,
Non-visual input,520,,,
Non-visual input,1160,,,
Non-visual input,980,,,
Non-visual input,720,,,
Non-visual input,1320,,,
Non-visual input,1060,,,
Non-visual input,940,,,
Non-visual input,980,,,
Non-visual input,560,,,
Non-visual input,400,,,
Non-visual input,1120,,,
Non-visual input,940,,,
Non-visual input,1200,,,
Non-visual input,880,,,
Non-visual input,980,,,
Non-visual input,1380,,,
Non-visual input,1040,,,
Non-visual input,860,,,
Non-visual input,1200,,,
Non-visual input,1240,,,
Non-visual input,1000,,,
Non-visual input,980,,,
Non-visual input,340,,,
Non-visual input,1020,,,
Non-visual input,1120,,,
Non-visual input,820,,,
Non-visual input,1200,,,
Non-visual input,840,,,
Non-visual input,1100,,,
Non-visual input,1240,,,
Visual input,1420,,,
Visual input,820,,,
Visual input,920,,,
Visual input,1480,,,
Visual input,1940,,,
Visual input,1080,,,
Visual input,1140,,,
Visual input,720,,,
Visual input,1660,,,
Visual input,980,,,
Visual input,1500,,,
Visual input,1300,,,
Visual input,1480,,,
Visual input,1140,,,
Visual input,1200,,,
Visual input,1460,,,
Visual input,760,,,
Visual input,2060,,,
Visual input,1120,,,
Visual input,920,,,
Visual input,1080,,,
Visual input,880,,,
Visual input,2480,,,
Visual input,1540,,,
Visual input,1700,,,
Visual input,1760,,,
Visual input,1620,,,
Visual input,1600,,,
Visual input,1360,,,
Visual input,720,,,
Visual input,1360,,,
Visual input,2220,,,
Visual input,3120,,,
Visual input,2080,,,
Visual input,1100,,,
Visual input,1540,,,
Visual input,1680,,,
Visual input,620,,,
Visual input,1420,,,
Visual input,920,,,
Visual input,1840,,,
Visual input,1460,,,
Visual input,900,,,
Visual input,1720,,,
Visual input,1220,,,
Visual input,1420,,,
Visual input,1720,,,
Visual input,1840,,,
Visual input,1480,,,
Visual input,1560,,,
Visual input,1320,,,
Visual input,1280,,,
Visual input,1620,,,
Visual input,1040,,,
Visual input,1040,,,
Visual input,1620,,,
Visual input,1320,,,
Visual input,2500,,,
Visual input,600,,,
Visual input,1560,,,
Visual input,1300,,,
Visual input,1020,,,
Visual input,1100,,,
Visual input,1700,,,
Visual input,1700,,,
Visual input,1320,,,
Visual input,880,,,
Visual input,2000,,,
Visual input,1340,,,
Visual input,1400,,,
Visual input,1980,,,
Visual input,1360,,,
Visual input,1820,,,
Visual input,1160,,,
Visual input,2360,,,
Visual input,1640,,,
Visual input,1220,,,
Visual input,940,,,
Visual input,1880,,,
Visual input,1860,,,
Visual input,1220,,,
Visual input,1280,,,
Visual input,1140,,,
Visual input,1400,,,
Visual input,1520,,,
Visual input,1040,,,
Visual input,1760,,,
Visual input,960,,,
Visual input,800,,,
Visual input,880,,,
Visual input,1940,,,
Visual input,1900,,,
Visual input,1560,,,
Visual input,1980,,,
Visual input,860,,,
Visual input,3280,,,
Visual input,1180,,,
Visual input,1260,,,
Visual input,4420,,,
Visual input,1520,,,
Visual input,1840,,,
Visual input,1980,,,
Visual input,3540,,,
Visual input,3760,,,
Visual input,3420,,,
Visual input,2900,,,
Visual input,1440,,,
Visual input,2820,,,
Visual input,3840,,,
Visual input,1140,,,
Visual input,1880,,,
Visual input,3980,,,
Visual input,3080,,,
Visual input,3720,,,
Visual input,2780,,,
Visual input,2220,,,
Visual input,4960,,,
Visual input,4140,,,
Visual input,2860,,,
Visual input,1560,,,
Visual input,3770,,,
Visual input,3540,,,
Visual input,2740,,,
Visual input,3740,,,
Visual input,1460,,,
Visual input,3320,,,
Visual input,2820,,,
Visual input,4240,,,
Visual input,4630,,,
Visual input,5290,,,
Visual input,3160,,,
Visual input,4120,,,
Visual input,2920,,,
Visual input,2880,,,
Visual input,3580,,,
Visual input,2240,,,
Visual input,2500,,,
Visual input,5040,,,
Visual input,3080,,,
Visual input,3250,,,
Visual input,3460,,,
Visual input,1680,,,
Visual input,2500,,,
Visual input,2240,,,
Visual input,1780,,,
Visual input,4300,,,
Visual input,2880,,,
Visual input,4650,,,
Visual input,3220,,,
Visual input,2380,,,
Visual input,2280,,,
Visual input,1740,,,
Visual input,3860,,,
Visual input,2040,,,
Visual input,2990,,,
Visual input,4840,,,
Visual input,3400,,,
Visual input,3720,,,
Visual input,2200,,,
Visual input,2460,,,
Visual input,2180,,,
Visual input,3550,,,
Visual input,1960,,,
Visual input,2740,,,
Visual input,2100,,,
Visual input,5360,,,
Visual input,2560,,,
Visual input,2080,,,
Visual input,2320,,,
Visual input,2760,,,
Visual input,1820,,,
Visual input,3460,,,
Visual input,4290,,,
Visual input,2340,,,
Visual input,1960,,,
Visual input,3160,,,
Visual input,2880,,,
Visual input,2240,,,
Visual input,4910,,,
Visual input,2860,,,
Visual input,4640,,,
Visual input,3760,,,
Visual input,4550,,,
Visual input,3520,,,
Visual input,2280,,,
Visual input,4680,,,
Visual input,4150,,,
Visual input,3080,,,
Visual input,3500,,,
Visual input,2780,,,
Visual input,3360,,,
Visual input,3600,,,
Visual input,2540,,,
Visual input,2740,,,
Visual input,2440,,,
Visual input,1900,,,
Visual input,2360,,,
Visual input,2600,,,
Visual input,3080,,,
Visual input,4810,,,
Visual input,1940,,,
Visual input,2100,,,
Visual input,1620,,,
Visual input,1920,,,
Visual input,1020,,,
Visual input,2460,,,
Visual input,1140,,,
Visual input,2000,,,
Visual input,1280,,,
Visual input,1740,,,
Visual input,1820,,,
Visual input,2220,,,
Visual input,2000,,,
Visual input,2220,,,
Visual input,1660,,,
Visual input,1260,,,
Visual input,2740,,,
Visual input,2400,,,
Visual input,2400,,,
Visual input,1540,,,
Visual input,2420,,,
Visual input,2300,,,
Visual input,2200,,,
Visual input,1940,,,
Visual input,1780,,,
Visual input,2400,,,
Visual input,2400,,,
Visual input,2000,,,
Visual input,1840,,,
Visual input,1540,,,
Visual input,2100,,,
Visual input,4140,,,
Visual input,2160,,,
Visual input,2140,,,
Visual input,1500,,,
Visual input,1680,,,
Visual input,2360,,,
Visual input,1940,,,
Visual input,1880,,,
Visual input,1480,,,
Visual input,2380,,,
Visual input,2280,,,
Visual input,2620,,,
Visual input,1300,,,
Visual input,1680,,,
Visual input,2640,,,
Visual input,1580,,,
Visual input,1720,,,
Visual input,1980,,,
Visual input,2060,,,
Visual input,2440,,,
Visual input,1960,,,
Visual input,1940,,,
Visual input,1820,,,
Visual input,1680,,,
Visual input,1200,,,
Visual input,1140,,,
Visual input,2360,,,
Visual input,1680,,,
Visual input,1740,,,
Visual input,1800,,,
Visual input,1080,,,
Visual input,2120,,,
Visual input,2040,,,
Visual input,1000,,,
Visual input,1920,,,
Visual input,2180,,,
Visual input,2260,,,
Visual input,1440,,,
Visual input,1660,,,
Visual input,2100,,,
Visual input,1420,,,
Visual input,1500,,,
Visual input,2280,,,
Visual input,1380,,,
Visual input,2160,,,
Visual input,1700,,,
Visual input,1640,,,
Visual input,1500,,,
Visual input,1020,,,
Visual input,1380,,,
Visual input,2040,,,
Visual input,1960,,,
Visual input,1940,,,
Visual input,2060,,,
Visual input,1400,,,
Visual input,2060,,,
Visual input,2020,,,
Visual input,2200,,,
Visual input,2440,,,
Visual input,2780,,,
Visual input,1900,,,
Visual input,1220,,,
Visual input,1880,,,
Visual input,2640,,,
Visual input,1860,,,
Visual input,2400,,,
Visual input,2160,,,
Visual input,1920,,,
Visual input,1500,,,
Visual input,2260,,,
Visual input,1200,,,
Visual input,2080,,,
Visual input,3310,,,
Visual input,1320,,,
Visual input,3670,,,
Visual input,2520,,,
Visual input,1200,,,
Visual input,1680,,,
Visual input,1120,,,
Visual input,1060,,,
Visual input,1240,,,
Visual input,2080,,,
Visual input,1400,,,
Visual input,2240,,,
Visual input,2480,,,
Visual input,1740,,,
Visual input,1260,,,
Visual input,2100,,,
Visual input,740,,,
Visual input,1780,,,
Visual input,1240,,,
Visual input,1380,,,
Visual input,1480,,,
Visual input,1960,,,
Visual input,980,,,
Visual input,840,,,
Visual input,1660,,,
Visual input,2320,,,
Visual input,2120,,,
Visual input,1940,,,
Visual input,2000,,,
Visual input,1560,,,
Visual input,1180,,,
Visual input,4790,,,
Visual input,1220,,,
Visual input,1740,,,
Visual input,1940,,,
Visual input,1420,,,
Visual input,660,,,
Visual input,660,,,
Visual input,1280,,,
Visual input,1880,,,
Visual input,3550,,,
Visual input,2780,,,
Visual input,3810,,,
Visual input,940,,,
Visual input,1300,,,
Visual input,1560,,,
Visual input,3290,,,
Visual input,2940,,,
Visual input,700,,,
Visual input,2040,,,
Visual input,2800,,,
Visual input,1880,,,
Visual input,1700,,,
Visual input,2100,,,
Visual input,2880,,,
Visual input,1000,,,
Visual input,1000,,,
Visual input,2040,,,
Visual input,2320,,,
Visual input,1160,,,
Visual input,1000,,,
Visual input,1000,,,
Visual input,1580,,,
Visual input,1520,,,
Visual input,1980,,,
Visual input,3390,,,
Visual input,1380,,,
Visual input,1220,,,
Visual input,1360,,,
Visual input,940,,,
Visual input,1440,,,
Visual input,3480,,,
Visual input,1780,,,
Visual input,1900,,,
Visual input,1620,,,
Visual input,2940,,,
Visual input,1580,,,
Visual input,1500,,,
Visual input,1260,,,
Visual input,1300,,,
Visual input,1920,,,
Visual input,2160,,,
Visual input,1560,,,
Visual input,1020,,,
Visual input,1700,,,
Visual input,1180,,,
Visual input,2020,,,
Visual input,1420,,,
Visual input,2020,,,
Visual input,1440,,,
Visual input,1120,,,
Visual input,1020,,,
Visual input,1220,,,
Visual input,940,,,
Visual input,1540,,,
Visual input,2850,,,
Visual input,2060,,,
Visual input,720,,,
Visual input,340,,,
Visual input,680,,,
Visual input,420,,,
Visual input,680,,,
Visual input,540,,,
Visual input,220,,,
Visual input,640,,,
Visual input,560,,,
Visual input,1000,,,
Visual input,1240,,,
Visual input,540,,,
Visual input,600,,,
Visual input,640,,,
Visual input,480,,,
Visual input,660,,,
Visual input,480,,,
Visual input,480,,,
Visual input,620,,,
Visual input,300,,,
Visual input,680,,,
Visual input,440,,,
Visual input,440,,,
Visual input,280,,,
Visual input,600,,,
Visual input,760,,,
Visual input,540,,,
Visual input,580,,,
Visual input,500,,,
Visual input,740,,,
Visual input,360,,,
Visual input,940,,,
Visual input,480,,,
Visual input,380,,,
Visual input,640,,,
Visual input,440,,,
Visual input,200,,,
Visual input,640,,,
Visual input,340,,,
Visual input,500,,,
Visual input,260,,,
Visual input,600,,,
Visual input,380,,,
Visual input,500,,,
Visual input,480,,,
Visual input,540,,,
Visual input,240,,,
Visual input,200,,,
Visual input,540,,,
Visual input,740,,,
Visual input,380,,,
Visual input,460,,,
Visual input,700,,,
Visual input,20,,,
Visual input,480,,,
Visual input,300,,,
Visual input,420,,,
Visual input,840,,,
Visual input,740,,,
Visual input,560,,,
Visual input,380,,,
Visual input,360,,,
Visual input,700,,,
Visual input,240,,,
Visual input,320,,,
Visual input,600,,,
Visual input,400,,,
Visual input,640,,,
Visual input,640,,,
Visual input,380,,,
Visual input,340,,,
Visual input,360,,,
Visual input,300,,,
Visual input,400,,,
Visual input,740,,,
Visual input,800,,,
Visual input,660,,,
Visual input,540,,,
Visual input,340,,,
Visual input,420,,,
Visual input,1040,,,
Visual input,400,,,
Visual input,200,,,
Visual input,300,,,
Visual input,800,,,
Visual input,400,,,
Visual input,380,,,
Visual input,340,,,
Visual input,980,,,
Visual input,1020,,,
Visual input,320,,,
Visual input,680,,,
Visual input,520,,,
Visual input,660,,,
Visual input,540,,,
Visual input,500,,,
Visual input,240,,,
Visual input,640,,,
Visual input,320,,,
Visual input,240,,,
