All frames,Reward,Episodes,Epsilon,Avg. loss,Memory size,Time
10000,"[1200.0, (0.0, 180.0)]",21,1.0,0.0,10000,7.261712074279785
20000,"[1340.0, (0.0, 240.0)]",20,1.0,0.0,20000,7.395449161529541
30000,"[1600.0, (0.0, 360.0)]",18,1.0,0.0,30000,7.39817214012146
40000,"[1600.0, (0.0, 200.0)]",18,1.0,0.0,40000,7.453314781188965
50000,"[1440.0, (0.0, 260.0)]",18,1.0,0.0,50000,7.323959827423096
60000,"[1660.0, (0.0, 260.0)]",19,0.9910000000002963,0.15515546706976238,60000,117.82096099853516
70000,"[1640.0, (0.0, 260.0)]",18,0.9820000000005926,0.12814305920528712,70000,115.10307788848877
80000,"[1700.0, (0.0, 180.0)]",18,0.9730000000008889,0.13580552747962066,80000,115.88624000549316
90000,"[1700.0, (0.0, 220.0)]",18,0.9640000000011852,0.1560078907996882,90000,115.54354000091553
100000,"[1820.0, (0.0, 240.0)]",18,0.9550000000014816,0.19170208362340926,100000,116.44660997390747
110000,"[1800.0, (0.0, 280.0)]",18,0.9460000000017779,0.2126083215387538,110000,116.21543192863464
120000,"[2260.0, (20.0, 340.0)]",15,0.9370000000020742,0.2644056184105575,120000,116.3591639995575
130000,"[1760.0, (20.0, 240.0)]",19,0.9280000000023705,0.29413390971831976,130000,117.1414201259613
140000,"[1660.0, (0.0, 220.0)]",18,0.9190000000026668,0.3501253884475678,140000,117.63377594947815
150000,"[2000.0, (40.0, 280.0)]",15,0.9100000000029631,0.40978974044397476,150000,118.06068396568298
160000,"[2120.0, (60.0, 300.0)]",14,0.9010000000032594,0.48345063340589406,160000,118.31098079681396
170000,"[1860.0, (0.0, 280.0)]",17,0.8920000000035557,0.5600181250661611,170000,120.0611629486084
180000,"[2060.0, (0.0, 320.0)]",16,0.883000000003852,0.6274833084143698,180000,120.4200828075409
190000,"[2260.0, (0.0, 320.0)]",15,0.8740000000041483,0.7136629273578524,190000,121.9004418849945
200000,"[2440.0, (20.0, 400.0)]",14,0.8650000000044447,0.8124245099343359,200000,120.67401194572449
210000,"[1940.0, (40.0, 320.0)]",16,0.856000000004741,0.882439818610996,210000,120.7664749622345
220000,"[1760.0, (40.0, 220.0)]",19,0.8470000000050373,0.9251559091344476,220000,119.97496294975281
230000,"[2200.0, (0.0, 340.0)]",15,0.8380000000053336,1.0528862730309367,230000,122.06658291816711
240000,"[2700.0, (60.0, 440.0)]",15,0.8290000000056299,1.1304073544874786,240000,123.01242780685425
250000,"[2180.0, (20.0, 240.0)]",15,0.8200000000059262,1.311628043089807,250000,124.60313582420349
260000,"[2020.0, (20.0, 480.0)]",17,0.8110000000062225,1.4022199701488018,260000,124.4006609916687
270000,"[2080.0, (0.0, 280.0)]",17,0.8020000000065188,1.5884354415997863,270000,124.72590517997742
280000,"[2000.0, (40.0, 240.0)]",17,0.7930000000068151,1.7955221831649542,280000,125.3753571510315
290000,"[2040.0, (60.0, 280.0)]",17,0.7840000000071115,1.8576090349435805,290000,127.159738779068
300000,"[1460.0, (20.0, 180.0)]",20,0.7750000000074078,2.03056927780509,300000,126.57948207855225
310000,"[1780.0, (0.0, 260.0)]",16,0.7660000000077041,2.1852147430121898,310000,127.160315990448
320000,"[1960.0, (0.0, 260.0)]",16,0.7570000000080004,2.332461710050702,320000,128.37903690338135
330000,"[2120.0, (20.0, 280.0)]",18,0.7480000000082967,2.4641402657806872,330000,128.48549699783325
340000,"[1940.0, (40.0, 260.0)]",15,0.739000000008593,2.477104411962628,340000,129.14534497261047
350000,"[1760.0, (20.0, 220.0)]",16,0.7300000000088893,2.6973194188565017,350000,130.18422102928162
360000,"[2180.0, (20.0, 300.0)]",14,0.7210000000091856,2.9157515196204185,360000,131.71534395217896
370000,"[2020.0, (0.0, 320.0)]",17,0.7120000000094819,3.2695207087397575,370000,132.36260509490967
380000,"[2220.0, (40.0, 280.0)]",16,0.7030000000097782,3.1821001016139983,380000,134.5229709148407
390000,"[2160.0, (20.0, 260.0)]",15,0.6940000000100746,3.6427243519961836,390000,133.87955498695374
400000,"[1680.0, (40.0, 220.0)]",14,0.6850000000103709,3.909026356163621,400000,132.47805500030518
410000,"[1780.0, (0.0, 320.0)]",17,0.6760000000106672,4.268362656781077,400000,131.13707995414734
420000,"[1920.0, (40.0, 340.0)]",15,0.6670000000109635,4.61837105255425,400000,130.52616500854492
430000,"[1960.0, (0.0, 280.0)]",16,0.6580000000112598,5.069821646368504,400000,130.59233593940735
440000,"[1740.0, (40.0, 200.0)]",16,0.6490000000115561,5.211598466789723,400000,129.17548394203186
450000,"[1840.0, (0.0, 300.0)]",15,0.6400000000118524,5.587328054493666,400000,128.5709900856018
460000,"[1860.0, (0.0, 340.0)]",16,0.6310000000121487,5.588863675147295,400000,128.13564014434814
470000,"[1780.0, (20.0, 260.0)]",14,0.622000000012445,6.249468556588888,400000,126.28719305992126
480000,"[1920.0, (40.0, 580.0)]",15,0.6130000000127414,6.668991360473632,400000,125.1541440486908
490000,"[1920.0, (0.0, 260.0)]",16,0.6040000000130377,7.142217336565256,400000,125.57053279876709
500000,"[1600.0, (0.0, 240.0)]",17,0.595000000013334,7.613452591490746,400000,125.65337991714478
510000,"[1800.0, (0.0, 260.0)]",13,0.5860000000136303,7.932785061216355,400000,125.78482389450073
520000,"[1680.0, (40.0, 220.0)]",15,0.5770000000139266,8.505064436483384,400000,125.72090911865234
530000,"[1960.0, (20.0, 360.0)]",16,0.5680000000142229,8.527465867465734,400000,125.8956081867218
540000,"[1900.0, (0.0, 320.0)]",12,0.5590000000145192,8.980373045098782,400000,125.71498584747314
550000,"[2200.0, (80.0, 240.0)]",14,0.5500000000148155,9.256354512107372,400000,127.22130799293518
560000,"[2180.0, (80.0, 340.0)]",12,0.5410000000151118,9.602979487365484,400000,126.82451295852661
570000,"[2720.0, (100.0, 460.0)]",12,0.5320000000154081,9.872353909146785,400000,126.95818591117859
580000,"[2020.0, (20.0, 400.0)]",14,0.5230000000157045,10.257506897699832,400000,126.39576506614685
590000,"[2080.0, (40.0, 260.0)]",15,0.5140000000160008,10.66117050794363,400000,126.30446100234985
600000,"[2480.0, (80.0, 280.0)]",13,0.5050000000162971,10.706246474969387,400000,126.43103909492493
610000,"[2360.0, (20.0, 280.0)]",13,0.49600000001634664,11.615845250713825,400000,126.76648902893066
620000,"[2740.0, (100.0, 440.0)]",12,0.48700000001608784,11.927669775474072,400000,127.23520302772522
630000,"[2380.0, (80.0, 320.0)]",13,0.47800000001582904,13.028429113066196,400000,126.48867702484131
640000,"[2260.0, (80.0, 400.0)]",11,0.46900000001557024,12.931354270362855,400000,127.47040796279907
650000,"[2520.0, (80.0, 320.0)]",12,0.46000000001531144,13.760296370112895,400000,127.27179980278015
660000,"[2460.0, (100.0, 460.0)]",9,0.45100000001505264,14.47437081272602,400000,126.76832699775696
670000,"[2800.0, (100.0, 500.0)]",10,0.44200000001479384,14.401246627032757,400000,126.80128812789917
680000,"[2720.0, (120.0, 380.0)]",10,0.43300000001453504,15.375848892247676,400000,127.75471806526184
690000,"[2700.0, (180.0, 520.0)]",9,0.42400000001427623,15.198323824644088,400000,127.5743420124054
700000,"[2580.0, (120.0, 400.0)]",9,0.41500000001401743,14.997417391717434,400000,127.14139699935913
710000,"[2580.0, (80.0, 480.0)]",9,0.40600000001375863,15.58020969568491,400000,126.8185350894928
720000,"[2400.0, (100.0, 420.0)]",10,0.39700000001349983,15.387191505873203,400000,127.09119606018066
730000,"[2360.0, (120.0, 420.0)]",10,0.38800000001324103,15.93702360471487,400000,126.48810315132141
740000,"[2200.0, (60.0, 360.0)]",10,0.37900000001298223,15.81376077823639,400000,127.04615092277527
750000,"[2260.0, (100.0, 360.0)]",10,0.37000000001272343,16.309712753510475,400000,127.62278294563293
760000,"[2340.0, (140.0, 340.0)]",10,0.36100000001246463,16.832408672451972,400000,127.0795521736145
770000,"[2740.0, (160.0, 540.0)]",11,0.3520000000122058,16.7738531824708,400000,126.5795259475708
780000,"[2760.0, (120.0, 380.0)]",9,0.343000000011947,18.286777351927757,400000,127.88222002983093
790000,"[2820.0, (160.0, 520.0)]",9,0.3340000000116882,17.098387702322007,400000,127.2417950630188
800000,"[2820.0, (200.0, 440.0)]",9,0.3250000000114294,17.125909155011175,400000,127.3747489452362
810000,"[2500.0, (80.0, 400.0)]",8,0.3160000000111706,16.98828799273968,400000,127.28561782836914
820000,"[2200.0, (100.0, 440.0)]",10,0.3070000000109118,17.705169713675975,400000,127.58888912200928
830000,"[2500.0, (200.0, 400.0)]",8,0.298000000010653,17.85957188130617,400000,127.33832597732544
840000,"[2680.0, (120.0, 500.0)]",9,0.2890000000103942,16.48669286862612,400000,127.31036901473999
850000,"[2180.0, (80.0, 540.0)]",10,0.2800000000101354,16.723136486530304,400000,127.23385787010193
860000,"[1460.0, (40.0, 240.0)]",14,0.2710000000098766,16.422386188006403,400000,127.46370506286621
870000,"[1140.0, (0.0, 180.0)]",16,0.2620000000096178,16.09062172458172,400000,127.8978259563446
880000,"[2220.0, (140.0, 440.0)]",9,0.253000000009359,16.190172854709626,400000,127.871022939682
890000,"[1400.0, (40.0, 260.0)]",13,0.24400000000928526,17.12075296292305,400000,128.02494597434998
900000,"[1560.0, (40.0, 320.0)]",13,0.23500000000930402,15.999233962380886,400000,127.78097009658813
910000,"[1280.0, (0.0, 360.0)]",15,0.22600000000932277,15.852018952083588,400000,127.55609202384949
920000,"[2180.0, (20.0, 360.0)]",12,0.21700000000934153,16.560263366556168,400000,127.548415184021
930000,"[2320.0, (160.0, 300.0)]",10,0.20800000000936028,16.367834340047835,400000,128.26928687095642
940000,"[1980.0, (0.0, 320.0)]",11,0.19900000000937904,16.500408114361765,400000,128.36083483695984
950000,"[2200.0, (100.0, 420.0)]",10,0.1900000000093978,16.361216717255115,400000,127.6572961807251
960000,"[2480.0, (100.0, 360.0)]",10,0.18100000000941655,16.903476926851273,400000,127.98792099952698
970000,"[2300.0, (80.0, 400.0)]",12,0.1720000000094353,17.035564371085165,400000,128.15282106399536
980000,"[2180.0, (100.0, 360.0)]",11,0.16300000000945405,17.321920375072956,400000,128.45567798614502
990000,"[2700.0, (120.0, 580.0)]",9,0.1540000000094728,17.252636682999135,400000,128.50819206237793
1000000,"[2260.0, (80.0, 420.0)]",9,0.14500000000949156,17.252748428726196,400000,128.22840905189514
1010000,"[2300.0, (100.0, 380.0)]",11,0.13600000000951032,16.825293530154227,400000,128.3804440498352
1020000,"[2380.0, (120.0, 360.0)]",9,0.12700000000952907,16.9568414837718,400000,128.66486883163452
1030000,"[2440.0, (120.0, 480.0)]",9,0.11800000000954783,16.193592873585224,400000,128.4759030342102
1040000,"[2500.0, (180.0, 380.0)]",10,0.10900000000956658,16.42310424541235,400000,128.5212278366089
1050000,"[2020.0, (160.0, 340.0)]",8,0.10000000000958534,16.714789300322533,400000,128.22689414024353
1060000,"[2620.0, (200.0, 420.0)]",7,0.09999910000958534,16.627347132360935,400000,128.46844291687012
1070000,"[2500.0, (120.0, 400.0)]",9,0.09999910000958534,15.941038071656227,400000,128.41068196296692
1080000,"[2060.0, (100.0, 340.0)]",8,0.09999910000958534,16.384618178653717,400000,127.9322280883789
1090000,"[2460.0, (100.0, 440.0)]",9,0.09999910000958534,16.02018535659313,400000,128.2842378616333
1100000,"[1940.0, (60.0, 340.0)]",9,0.09999910000958534,16.651397080636023,400000,127.79091095924377
1110000,"[1760.0, (60.0, 380.0)]",10,0.09999910000958534,15.930091150164603,400000,128.12099289894104
1120000,"[1900.0, (20.0, 340.0)]",12,0.09999910000958534,16.129311068594454,400000,128.0787079334259
1130000,"[1540.0, (0.0, 280.0)]",12,0.09999910000958534,16.24673550875187,400000,127.39779901504517
1140000,"[1780.0, (40.0, 300.0)]",9,0.09999910000958534,15.932243559384347,400000,127.72963500022888
1150000,"[2180.0, (120.0, 380.0)]",9,0.09999910000958534,16.078710740089416,400000,127.71433687210083
1160000,"[2300.0, (60.0, 560.0)]",7,0.09999910000958534,16.76803908046484,400000,127.82107591629028
1170000,"[2120.0, (160.0, 420.0)]",9,0.09999910000958534,15.741272743558884,400000,127.60885095596313
1180000,"[1820.0, (60.0, 320.0)]",9,0.09999910000958534,15.718460951328277,400000,127.7623541355133
1190000,"[1420.0, (40.0, 320.0)]",10,0.09999910000958534,15.367552623462677,400000,127.71176099777222
1200000,"[1880.0, (80.0, 260.0)]",10,0.09999910000958534,15.57957714368105,400000,127.75273203849792
1210000,"[2080.0, (120.0, 340.0)]",8,0.09999910000958534,16.133405450880527,400000,127.76493000984192
1220000,"[1820.0, (40.0, 800.0)]",8,0.09999910000958534,15.52732321240902,400000,127.48510193824768
1230000,"[1200.0, (0.0, 240.0)]",11,0.09999910000958534,16.022268899059295,400000,127.63010716438293
1240000,"[2140.0, (40.0, 460.0)]",10,0.09999910000958534,15.630740954101086,400000,127.72691988945007
1250000,"[1500.0, (40.0, 260.0)]",11,0.09999910000958534,15.32284190337658,400000,127.69283413887024
1260000,"[1760.0, (0.0, 240.0)]",12,0.09999910000958534,14.77394244992733,400000,127.68246102333069
1270000,"[2340.0, (80.0, 360.0)]",10,0.09999910000958534,15.004287485289574,400000,127.68586206436157
1280000,"[1600.0, (40.0, 500.0)]",12,0.09999910000958534,14.741845881021023,400000,127.5446629524231
1290000,"[1880.0, (60.0, 400.0)]",11,0.09999910000958534,15.059019641458988,400000,127.54720211029053
1300000,"[1960.0, (20.0, 280.0)]",11,0.09999910000958534,14.565616849589349,400000,127.72325491905212
1310000,"[2200.0, (60.0, 480.0)]",10,0.09999910000958534,14.736396012818814,400000,127.36099195480347
1320000,"[2220.0, (60.0, 480.0)]",10,0.09999910000958534,14.701737263476849,400000,127.67610597610474
1330000,"[2380.0, (60.0, 380.0)]",9,0.09999910000958534,14.657586295759678,400000,127.37240099906921
1340000,"[2220.0, (120.0, 480.0)]",10,0.09999910000958534,13.91279317048788,400000,127.76740503311157
1350000,"[2060.0, (120.0, 340.0)]",11,0.09999910000958534,15.172395393455028,400000,127.60059213638306
1360000,"[2400.0, (120.0, 420.0)]",9,0.09999910000958534,15.070528521299362,400000,127.86797499656677
1370000,"[1940.0, (20.0, 380.0)]",12,0.09999910000958534,15.112266912913322,400000,127.61547493934631
1380000,"[2260.0, (120.0, 420.0)]",10,0.09999910000958534,13.680236946713924,400000,127.84746718406677
1390000,"[2220.0, (120.0, 400.0)]",11,0.09999910000958534,14.411751644814014,400000,127.83645606040955
1400000,"[2360.0, (100.0, 520.0)]",10,0.09999910000958534,13.357218947041035,400000,127.65240597724915
1410000,"[2280.0, (60.0, 400.0)]",11,0.09999910000958534,13.392480618166923,400000,127.6999979019165
1420000,"[1500.0, (40.0, 200.0)]",14,0.09999910000958534,13.158017282879353,400000,127.58675003051758
1430000,"[2480.0, (60.0, 460.0)]",12,0.09999910000958534,14.064772506153583,400000,127.80870199203491
1440000,"[1900.0, (20.0, 360.0)]",13,0.09999910000958534,14.53323822453022,400000,127.26303791999817
1450000,"[2520.0, (60.0, 360.0)]",13,0.09999910000958534,14.735359509396552,400000,127.88692307472229
1460000,"[2480.0, (140.0, 440.0)]",8,0.09999910000958534,14.176001553881168,400000,127.88907599449158
1470000,"[2420.0, (40.0, 420.0)]",13,0.09999910000958534,14.090862647867203,400000,127.71302604675293
1480000,"[2100.0, (120.0, 240.0)]",11,0.09999910000958534,14.221106843709945,400000,127.63351011276245
1490000,"[2420.0, (80.0, 440.0)]",11,0.09999910000958534,13.875489018154145,400000,127.66653609275818
1500000,"[1860.0, (0.0, 340.0)]",13,0.09999910000958534,14.481174799084663,400000,127.59193396568298
1510000,"[2300.0, (80.0, 540.0)]",10,0.09999910000958534,14.790303223109245,400000,127.69003009796143
1520000,"[1920.0, (80.0, 280.0)]",13,0.09999910000958534,14.535021647715569,400000,127.66427803039551
1530000,"[2060.0, (120.0, 260.0)]",11,0.09999910000958534,14.612004531645775,400000,127.70622992515564
1540000,"[2440.0, (120.0, 380.0)]",11,0.09999910000958534,14.500575818300247,400000,127.47607183456421
1550000,"[2480.0, (160.0, 400.0)]",10,0.09999910000958534,13.762797856569291,400000,127.61175298690796
1560000,"[2180.0, (20.0, 360.0)]",10,0.09999910000958534,13.958545714056491,400000,127.575119972229
1570000,"[2080.0, (100.0, 360.0)]",11,0.09999910000958534,14.472025771844388,400000,127.63912391662598
1580000,"[2620.0, (160.0, 500.0)]",10,0.09999910000958534,14.614221421265603,400000,127.62218713760376
1590000,"[2520.0, (120.0, 360.0)]",11,0.09999910000958534,14.119431334286928,400000,127.61023497581482
1600000,"[2180.0, (100.0, 320.0)]",11,0.09999910000958534,15.618634601652623,400000,127.52093982696533
1610000,"[2420.0, (140.0, 380.0)]",10,0.09999910000958534,14.568968731814623,400000,127.56047797203064
1620000,"[2660.0, (80.0, 560.0)]",13,0.09999910000958534,14.234369855034352,400000,127.64049506187439
1630000,"[2500.0, (80.0, 420.0)]",12,0.09999910000958534,14.098411752963067,400000,127.78292202949524
1640000,"[2400.0, (100.0, 260.0)]",13,0.09999910000958534,14.567648617911338,400000,127.74591612815857
1650000,"[2740.0, (140.0, 420.0)]",12,0.09999910000958534,14.404380133187772,400000,127.6648211479187
1660000,"[2340.0, (40.0, 320.0)]",14,0.09999910000958534,15.18181025301218,400000,127.61160802841187
1670000,"[3020.0, (120.0, 380.0)]",11,0.09999910000958534,14.28932626901865,400000,127.85198998451233
1680000,"[2700.0, (120.0, 480.0)]",11,0.09999910000958534,13.474101094835996,400000,127.44109106063843
1690000,"[2700.0, (120.0, 440.0)]",10,0.09999910000958534,13.84963364892006,400000,126.96259808540344
1700000,"[2520.0, (100.0, 320.0)]",14,0.09999910000958534,14.226608273375035,400000,127.95004916191101
1710000,"[2420.0, (100.0, 340.0)]",12,0.09999910000958534,14.003417582798004,400000,127.4950008392334
1720000,"[2920.0, (140.0, 500.0)]",10,0.09999910000958534,14.093035279726982,400000,127.64271187782288
1730000,"[2900.0, (140.0, 600.0)]",9,0.09999910000958534,14.156163316041232,400000,127.860435962677
1740000,"[2840.0, (160.0, 480.0)]",10,0.09999910000958534,13.141696515792608,400000,127.7502830028534
1750000,"[3000.0, (120.0, 620.0)]",9,0.09999910000958534,13.566959097063542,400000,127.27326798439026
1760000,"[2720.0, (80.0, 440.0)]",10,0.09999910000958534,13.585241275799275,400000,127.71239399909973
1770000,"[2740.0, (120.0, 460.0)]",12,0.09999910000958534,12.916902715855837,400000,128.05054807662964
1780000,"[2500.0, (100.0, 360.0)]",12,0.09999910000958534,12.547492549109458,400000,127.69047808647156
1790000,"[2820.0, (140.0, 400.0)]",11,0.09999910000958534,12.386539521956443,400000,127.72656893730164
1800000,"[2800.0, (120.0, 480.0)]",12,0.09999910000958534,12.74155600425005,400000,127.66128087043762
1810000,"[2780.0, (120.0, 340.0)]",11,0.09999910000958534,13.362350389444828,400000,127.26730489730835
1820000,"[2780.0, (100.0, 440.0)]",11,0.09999910000958534,12.033996615737676,400000,127.86227297782898
1830000,"[2900.0, (120.0, 420.0)]",11,0.09999910000958534,12.374271989488602,400000,127.73192095756531
1840000,"[2800.0, (120.0, 400.0)]",11,0.09999910000958534,11.745712583750487,400000,127.69049215316772
1850000,"[3100.0, (100.0, 380.0)]",11,0.09999910000958534,12.19229004893303,400000,127.65106105804443
1860000,"[2800.0, (120.0, 360.0)]",11,0.09999910000958534,12.642949836665393,400000,127.89643883705139
1870000,"[2960.0, (140.0, 400.0)]",11,0.09999910000958534,13.892117118942737,400000,127.70340299606323
1880000,"[3000.0, (140.0, 480.0)]",10,0.09999910000958534,12.505242151749133,400000,127.68756890296936
1890000,"[2800.0, (80.0, 380.0)]",12,0.09999910000958534,12.961619265532494,400000,127.56239700317383
1900000,"[2800.0, (80.0, 480.0)]",12,0.09999910000958534,13.172737577438355,400000,127.47554898262024
1910000,"[2900.0, (100.0, 400.0)]",13,0.09999910000958534,13.27752713124156,400000,127.21198010444641
1920000,"[3000.0, (100.0, 420.0)]",11,0.09999910000958534,14.07432584913373,400000,127.53906989097595
1930000,"[2680.0, (140.0, 440.0)]",11,0.09999910000958534,13.161273157793284,400000,127.70222091674805
1940000,"[2760.0, (60.0, 420.0)]",13,0.09999910000958534,13.916060509067774,400000,127.46177196502686
1950000,"[2760.0, (120.0, 420.0)]",12,0.09999910000958534,13.687251828753949,400000,127.8188419342041
1960000,"[2640.0, (100.0, 320.0)]",14,0.09999910000958534,13.10779781217575,400000,127.67553997039795
1970000,"[2660.0, (100.0, 480.0)]",12,0.09999910000958534,13.172274262213707,400000,127.81274509429932
1980000,"[2620.0, (100.0, 340.0)]",13,0.09999910000958534,13.227084054380656,400000,126.6459801197052
1990000,"[2380.0, (100.0, 300.0)]",14,0.09999910000958534,12.934235218697786,400000,127.58059597015381
2000000,"[2660.0, (80.0, 340.0)]",13,0.09999910000958534,13.308938685667515,400000,127.39769291877747
2010000,"[2660.0, (80.0, 440.0)]",14,0.09999910000958534,13.83341456475854,400000,127.67054581642151
2020000,"[2600.0, (80.0, 320.0)]",15,0.09999910000958534,13.142823535180092,400000,127.70946502685547
2030000,"[2940.0, (120.0, 380.0)]",14,0.09999910000958534,12.34187272465825,400000,127.59625482559204
2040000,"[2880.0, (100.0, 300.0)]",14,0.09999910000958534,12.439838863170147,400000,127.7692289352417
2050000,"[2680.0, (80.0, 340.0)]",15,0.09999910000958534,13.352311425560712,400000,127.67683005332947
2060000,"[2700.0, (120.0, 400.0)]",12,0.09999910000958534,12.433770160621405,400000,127.80826497077942
2070000,"[2780.0, (100.0, 440.0)]",12,0.09999910000958534,12.365824876457452,400000,127.82346487045288
2080000,"[2780.0, (140.0, 320.0)]",13,0.09999910000958534,13.04640422835946,400000,127.81063890457153
2090000,"[2900.0, (120.0, 300.0)]",15,0.09999910000958534,12.73019291999936,400000,127.77067804336548
2100000,"[2940.0, (100.0, 360.0)]",15,0.09999910000958534,14.10488932595253,400000,127.98118209838867
2110000,"[2880.0, (120.0, 420.0)]",15,0.09999910000958534,12.71896996498704,400000,127.98056387901306
2120000,"[2860.0, (120.0, 420.0)]",14,0.09999910000958534,12.110629528295993,400000,127.54503393173218
2130000,"[2960.0, (100.0, 560.0)]",13,0.09999910000958534,12.078533498436213,400000,127.8650689125061
2140000,"[3080.0, (120.0, 500.0)]",11,0.09999910000958534,11.71721070638299,400000,127.55154585838318
2150000,"[2660.0, (120.0, 380.0)]",14,0.09999910000958534,12.7277609103024,400000,128.2323830127716
2160000,"[2580.0, (100.0, 220.0)]",15,0.09999910000958534,12.286461932265759,400000,127.72006297111511
2170000,"[2420.0, (80.0, 340.0)]",14,0.09999910000958534,12.340560204064847,400000,127.57429814338684
2180000,"[2620.0, (100.0, 320.0)]",13,0.09999910000958534,12.529870985519887,400000,127.32498598098755
2190000,"[2600.0, (100.0, 400.0)]",13,0.09999910000958534,12.878750772947074,400000,127.74627685546875
2200000,"[2480.0, (80.0, 320.0)]",15,0.09999910000958534,12.740682695382834,400000,127.64478898048401
2210000,"[2620.0, (100.0, 300.0)]",16,0.09999910000958534,12.210275938147307,400000,127.73288583755493
2220000,"[2660.0, (100.0, 280.0)]",14,0.09999910000958534,12.548049378478527,400000,127.7386429309845
2230000,"[2640.0, (100.0, 260.0)]",15,0.09999910000958534,11.527748357594014,400000,127.67016506195068
2240000,"[2620.0, (100.0, 220.0)]",16,0.09999910000958534,11.582531193870306,400000,128.1847279071808
2250000,"[2400.0, (60.0, 260.0)]",16,0.09999910000958534,12.290468903166056,400000,127.61882901191711
2260000,"[2580.0, (120.0, 280.0)]",14,0.09999910000958534,12.27370876854062,400000,128.00052094459534
2270000,"[2700.0, (100.0, 480.0)]",14,0.09999910000958534,12.095500462311506,400000,127.86264896392822
2280000,"[2560.0, (100.0, 240.0)]",14,0.09999910000958534,12.991806182086467,400000,127.80589199066162
2290000,"[2620.0, (60.0, 300.0)]",15,0.09999910000958534,11.702086977314949,400000,127.55603194236755
2300000,"[2820.0, (80.0, 340.0)]",14,0.09999910000958534,12.098511368453503,400000,127.7310311794281
2310000,"[2840.0, (100.0, 380.0)]",11,0.09999910000958534,12.183120650535821,400000,127.1034688949585
2320000,"[2760.0, (140.0, 440.0)]",11,0.09999910000958534,12.214933403116465,400000,127.6456868648529
2330000,"[2500.0, (80.0, 280.0)]",15,0.09999910000958534,11.820093618839978,400000,127.45367693901062
2340000,"[2460.0, (80.0, 260.0)]",16,0.09999910000958534,12.223198208630086,400000,127.55188608169556
2350000,"[2880.0, (140.0, 360.0)]",13,0.09999910000958534,11.775322581571341,400000,127.56162309646606
2360000,"[2960.0, (120.0, 360.0)]",14,0.09999910000958534,12.255665565347671,400000,127.6188440322876
2370000,"[2820.0, (120.0, 340.0)]",14,0.09999910000958534,11.579510494101047,400000,127.76948094367981
2380000,"[2840.0, (80.0, 440.0)]",12,0.09999910000958534,11.768842328125238,400000,127.75048804283142
2390000,"[2600.0, (120.0, 460.0)]",12,0.09999910000958534,12.65740599553585,400000,127.73502898216248
2400000,"[2840.0, (100.0, 340.0)]",14,0.09999910000958534,12.361518161374331,400000,127.73294591903687
2410000,"[2680.0, (80.0, 300.0)]",15,0.09999910000958534,12.040168201857805,400000,127.77761006355286
2420000,"[2580.0, (120.0, 340.0)]",13,0.09999910000958534,12.250905196762085,400000,127.57225704193115
2430000,"[2740.0, (160.0, 440.0)]",11,0.09999910000958534,12.123717502123117,400000,127.54780793190002
2440000,"[2480.0, (100.0, 320.0)]",15,0.09999910000958534,12.423700231319666,400000,127.46705508232117
2450000,"[2580.0, (80.0, 320.0)]",12,0.09999910000958534,11.954184818381071,400000,127.66021800041199
2460000,"[2920.0, (80.0, 360.0)]",12,0.09999910000958534,12.000859614378214,400000,127.61190509796143
2470000,"[2720.0, (120.0, 300.0)]",14,0.09999910000958534,11.252687295377255,400000,127.89734411239624
2480000,"[2680.0, (100.0, 460.0)]",12,0.09999910000958534,11.920721582108737,400000,127.92708992958069
2490000,"[2760.0, (140.0, 320.0)]",13,0.09999910000958534,11.94069421736598,400000,127.81022381782532
2500000,"[2600.0, (100.0, 400.0)]",13,0.09999910000958534,11.972192947471141,400000,127.92920517921448
2510000,"[2240.0, (80.0, 320.0)]",14,0.09999910000958534,11.881571913987399,400000,127.86089420318604
2520000,"[2900.0, (100.0, 360.0)]",13,0.09999910000958534,11.650110012245179,400000,127.94613003730774
2530000,"[2560.0, (80.0, 300.0)]",15,0.09999910000958534,12.249544656980037,400000,127.75199890136719
2540000,"[2740.0, (100.0, 300.0)]",14,0.09999910000958534,11.413765130668878,400000,127.86415910720825
2550000,"[2680.0, (100.0, 300.0)]",14,0.09999910000958534,11.462322201424836,400000,127.73427200317383
2560000,"[2580.0, (100.0, 280.0)]",15,0.09999910000958534,11.516839398896694,400000,127.16107201576233
2570000,"[2420.0, (100.0, 380.0)]",13,0.09999910000958534,11.594445565241575,400000,127.43308401107788
2580000,"[2800.0, (80.0, 320.0)]",14,0.09999910000958534,12.29062059739828,400000,127.3952648639679
2590000,"[2800.0, (140.0, 320.0)]",13,0.09999910000958534,12.360048885443806,400000,127.82996106147766
2600000,"[2880.0, (120.0, 340.0)]",13,0.09999910000958534,12.186182322978974,400000,127.73513507843018
2610000,"[2600.0, (80.0, 340.0)]",11,0.09999910000958534,11.421367502772808,400000,127.4716579914093
2620000,"[2840.0, (140.0, 340.0)]",12,0.09999910000958534,11.833279442739487,400000,127.65038704872131
2630000,"[2860.0, (140.0, 420.0)]",13,0.09999910000958534,12.060664916402102,400000,127.73495602607727
2640000,"[2480.0, (60.0, 240.0)]",17,0.09999910000958534,11.992936643266678,400000,127.88666105270386
2650000,"[2760.0, (100.0, 380.0)]",14,0.09999910000958534,11.58372989243269,400000,127.90652298927307
2660000,"[2560.0, (100.0, 280.0)]",15,0.09999910000958534,11.068280797433854,400000,127.95921492576599
2670000,"[2660.0, (100.0, 320.0)]",15,0.09999910000958534,10.68405242022276,400000,127.85500407218933
2680000,"[2820.0, (100.0, 320.0)]",15,0.09999910000958534,10.57963164536953,400000,127.65520000457764
2690000,"[2820.0, (80.0, 380.0)]",14,0.09999910000958534,10.515239362710714,400000,127.65189599990845
2700000,"[2520.0, (100.0, 260.0)]",14,0.09999910000958534,10.466621547424793,400000,127.76419115066528
2710000,"[2640.0, (60.0, 280.0)]",16,0.09999910000958534,10.063587196663022,400000,127.78592801094055
2720000,"[2280.0, (80.0, 200.0)]",16,0.09999910000958534,10.234264201009273,400000,127.54361391067505
2730000,"[2360.0, (60.0, 300.0)]",16,0.09999910000958534,10.403744802123308,400000,127.67285203933716
2740000,"[2240.0, (60.0, 220.0)]",17,0.09999910000958534,10.361045541229844,400000,127.57098984718323
2750000,"[2140.0, (60.0, 280.0)]",17,0.09999910000958534,10.030635150811076,400000,127.90356802940369
2760000,"[2000.0, (60.0, 240.0)]",16,0.09999910000958534,11.221294518995284,400000,127.12608909606934
2770000,"[2060.0, (0.0, 260.0)]",15,0.09999910000958534,11.306213170015813,400000,127.5979208946228
2780000,"[2320.0, (80.0, 320.0)]",13,0.09999910000958534,10.896241917297244,400000,127.66332387924194
2790000,"[2100.0, (60.0, 240.0)]",15,0.09999910000958534,10.701289587813616,400000,127.71944212913513
2800000,"[1980.0, (40.0, 220.0)]",18,0.09999910000958534,11.435107279074192,400000,127.40280079841614
2810000,"[1800.0, (20.0, 220.0)]",16,0.09999910000958534,11.400070847195387,400000,127.55511403083801
2820000,"[1920.0, (60.0, 240.0)]",15,0.09999910000958534,11.212183380395174,400000,127.64451217651367
2830000,"[1820.0, (60.0, 200.0)]",15,0.09999910000958534,11.691446210509538,400000,127.5409209728241
2840000,"[2060.0, (60.0, 280.0)]",15,0.09999910000958534,10.98362041155696,400000,127.64730095863342
2850000,"[1880.0, (40.0, 220.0)]",14,0.09999910000958534,11.155637594020366,400000,127.55610203742981
2860000,"[2400.0, (60.0, 300.0)]",12,0.09999910000958534,11.779025805747509,400000,127.53556895256042
2870000,"[2460.0, (60.0, 360.0)]",11,0.09999910000958534,11.787113487005234,400000,127.60503196716309
2880000,"[2500.0, (80.0, 400.0)]",12,0.09999910000958534,11.218577060550452,400000,127.81801509857178
2890000,"[2640.0, (120.0, 380.0)]",12,0.09999910000958534,11.400982417798042,400000,127.88941502571106
2900000,"[2120.0, (40.0, 320.0)]",15,0.09999910000958534,11.442334452021122,400000,127.58868885040283
2910000,"[1920.0, (60.0, 280.0)]",13,0.09999910000958534,10.967399339574575,400000,127.98181080818176
2920000,"[2520.0, (60.0, 440.0)]",13,0.09999910000958534,11.0214574180305,400000,127.878751039505
2930000,"[2040.0, (20.0, 340.0)]",12,0.09999910000958534,11.430257126283646,400000,127.64779496192932
2940000,"[2200.0, (60.0, 300.0)]",13,0.09999910000958534,11.063932536053658,400000,127.8443009853363
2950000,"[2000.0, (40.0, 340.0)]",12,0.09999910000958534,11.61474178380072,400000,127.66183590888977
2960000,"[2160.0, (40.0, 280.0)]",13,0.09999910000958534,11.745894210895896,400000,127.64006996154785
2970000,"[1900.0, (40.0, 220.0)]",15,0.09999910000958534,10.928109151107073,400000,127.59671401977539
2980000,"[2160.0, (60.0, 400.0)]",10,0.09999910000958534,11.372691169443726,400000,127.77289319038391
2990000,"[2020.0, (60.0, 280.0)]",12,0.09999910000958534,10.754404923522472,400000,127.68292117118835
3000000,"[2020.0, (20.0, 220.0)]",13,0.09999910000958534,10.469343009334803,400000,127.73575711250305
