All steps,Reward,Episodes,Epsilon,Avg. loss,Memory size,Time
10000,"[60.0, (0.0, 4.0)]",57,1.0,0.0,10000,7.849728345870972
20000,"[77.0, (0.0, 6.0)]",52,1.0,0.0,20000,7.676821947097778
30000,"[79.0, (0.0, 4.0)]",51,1.0,0.0,30000,7.696303367614746
40000,"[75.0, (0.0, 6.0)]",52,1.0,0.0,40000,7.642573356628418
50000,"[69.0, (0.0, 4.0)]",54,1.0,0.0,50000,7.717511415481567
60000,"[62.0, (0.0, 3.0)]",56,0.9910000000002963,0.04369022184760906,60000,79.65459132194519
70000,"[70.0, (0.0, 5.0)]",53,0.9820000000005926,0.012323750524047864,70000,77.72760534286499
80000,"[73.0, (0.0, 5.0)]",53,0.9730000000008889,0.004736558980501468,80000,77.44004917144775
90000,"[78.0, (0.0, 5.0)]",51,0.9640000000011852,0.003626289237041965,90000,78.05184888839722
100000,"[79.0, (0.0, 7.0)]",50,0.9550000000014816,0.013702532530034296,100000,78.63927125930786
110000,"[84.0, (0.0, 5.0)]",49,0.9460000000017779,0.015134496711786778,110000,77.50435423851013
120000,"[73.0, (0.0, 7.0)]",53,0.9370000000020742,0.013457875408772088,120000,77.80037808418274
130000,"[82.0, (0.0, 6.0)]",50,0.9280000000023705,0.0054788743573426476,130000,78.5292432308197
140000,"[73.0, (0.0, 5.0)]",52,0.9190000000026668,0.005158422680403601,140000,81.09735298156738
150000,"[82.0, (0.0, 5.0)]",51,0.9100000000029631,0.004790061543618867,150000,78.87481760978699
160000,"[92.0, (0.0, 6.0)]",47,0.9010000000032594,0.0038030642792786238,160000,80.18519186973572
170000,"[83.0, (0.0, 5.0)]",50,0.8920000000035557,0.004714606538346925,170000,82.69250130653381
180000,"[105.0, (0.0, 8.0)]",45,0.883000000003852,0.004607980980058346,180000,83.1729781627655
190000,"[116.0, (0.0, 6.0)]",41,0.8740000000041483,0.007656409780700051,190000,82.29643535614014
200000,"[97.0, (0.0, 9.0)]",47,0.8650000000044447,0.004424696796830176,200000,82.89894151687622
210000,"[101.0, (0.0, 7.0)]",45,0.856000000004741,0.0027926902436316596,210000,84.13493180274963
220000,"[117.0, (0.0, 11.0)]",44,0.8470000000050373,0.003218036705878694,220000,83.48177552223206
230000,"[129.0, (0.0, 13.0)]",40,0.8380000000053336,0.003581031918181543,230000,83.5393717288971
240000,"[119.0, (0.0, 7.0)]",42,0.8290000000056299,0.00573915607443123,240000,83.74373769760132
250000,"[106.0, (0.0, 6.0)]",44,0.8200000000059262,0.003956450570065863,250000,85.2162218093872
260000,"[128.0, (0.0, 12.0)]",40,0.8110000000062225,0.003151264607139092,260000,84.45594549179077
270000,"[120.0, (0.0, 8.0)]",43,0.8020000000065188,0.0028419672481504676,270000,84.36731457710266
280000,"[117.0, (0.0, 7.0)]",43,0.7930000000068151,0.005362665558347726,280000,84.63054203987122
290000,"[128.0, (0.0, 8.0)]",39,0.7840000000071115,0.0029713522023357654,290000,86.45908451080322
300000,"[130.0, (0.0, 8.0)]",39,0.7750000000074078,0.002589826612105753,300000,85.52293491363525
310000,"[141.0, (1.0, 8.0)]",36,0.7660000000077041,0.002373389245321232,310000,85.68244075775146
320000,"[124.0, (0.0, 8.0)]",41,0.7570000000080004,0.0025002784041589622,320000,87.19111585617065
330000,"[137.0, (0.0, 8.0)]",37,0.7480000000082967,0.0025233384237682913,330000,86.39546322822571
340000,"[138.0, (0.0, 11.0)]",36,0.739000000008593,0.0023979726370653223,340000,87.69386005401611
350000,"[131.0, (0.0, 9.0)]",38,0.7300000000088893,0.002400331107628517,350000,89.39289927482605
360000,"[154.0, (1.0, 13.0)]",36,0.7210000000091856,0.002796729933523602,360000,90.45451021194458
370000,"[141.0, (0.0, 11.0)]",37,0.7120000000094819,0.0022837785913088736,370000,89.89297342300415
380000,"[154.0, (2.0, 10.0)]",30,0.7030000000097782,0.002327150363165856,380000,89.81619095802307
390000,"[151.0, (0.0, 10.0)]",33,0.6940000000100746,0.0023601456133616012,390000,90.69346475601196
400000,"[158.0, (0.0, 10.0)]",33,0.6850000000103709,0.002146807474258094,400000,90.08273816108704
410000,"[161.0, (1.0, 16.0)]",33,0.6760000000106672,0.0023278961086540223,400000,90.35570073127747
420000,"[159.0, (1.0, 20.0)]",34,0.6670000000109635,0.0024545925635953607,400000,90.36865901947021
430000,"[163.0, (0.0, 13.0)]",31,0.6580000000112598,0.0021344359811198955,400000,90.31820487976074
440000,"[151.0, (1.0, 10.0)]",35,0.6490000000115561,0.002576051904907945,400000,90.66943025588989
450000,"[163.0, (1.0, 11.0)]",32,0.6400000000118524,0.0025257233186315718,400000,91.19780540466309
460000,"[171.0, (0.0, 15.0)]",32,0.6310000000121487,0.00288166174922917,400000,91.59156966209412
470000,"[155.0, (0.0, 9.0)]",32,0.622000000012445,0.0023464047792444037,400000,90.76027822494507
480000,"[164.0, (1.0, 12.0)]",32,0.6130000000127414,0.0028078335753505598,400000,89.96364450454712
490000,"[157.0, (1.0, 9.0)]",33,0.6040000000130377,0.006732102240270251,400000,90.04153537750244
500000,"[163.0, (2.0, 11.0)]",30,0.595000000013334,0.003488158260826458,400000,90.79791331291199
510000,"[176.0, (2.0, 16.0)]",29,0.5860000000136303,0.0023280850239469145,400000,91.7892632484436
520000,"[171.0, (2.0, 12.0)]",27,0.5770000000139266,0.002300700173153746,400000,91.1906406879425
530000,"[199.0, (2.0, 21.0)]",24,0.5680000000142229,0.0023766107540068335,400000,91.55168509483337
540000,"[185.0, (3.0, 17.0)]",26,0.5590000000145192,0.002490284460441762,400000,91.3086473941803
550000,"[175.0, (2.0, 15.0)]",28,0.5500000000148155,0.002295492634436596,400000,92.64135241508484
560000,"[206.0, (3.0, 22.0)]",27,0.5410000000151118,0.002516439778195854,400000,92.6424195766449
570000,"[204.0, (2.0, 20.0)]",26,0.5320000000154081,0.0026066808917523305,400000,92.46397161483765
580000,"[191.0, (3.0, 16.0)]",28,0.5230000000157045,0.002741006389274844,400000,92.35220956802368
590000,"[186.0, (2.0, 15.0)]",27,0.5140000000160008,0.002589531859326962,400000,92.70413136482239
600000,"[200.0, (3.0, 14.0)]",24,0.5050000000162971,0.002789740326819083,400000,93.09473609924316
610000,"[202.0, (3.0, 20.0)]",25,0.49600000001634664,0.002741705684452245,400000,92.45798802375793
620000,"[203.0, (3.0, 15.0)]",25,0.48700000001608784,0.0026651232131895087,400000,92.66242361068726
630000,"[201.0, (2.0, 14.0)]",27,0.47800000001582904,0.002588492864087675,400000,93.0401132106781
640000,"[196.0, (3.0, 13.0)]",25,0.46900000001557024,0.003023089094576062,400000,92.57684874534607
650000,"[190.0, (3.0, 14.0)]",25,0.46000000001531144,0.0027952065788758775,400000,93.16168117523193
660000,"[230.0, (3.0, 23.0)]",25,0.45100000001505264,0.002648312516704391,400000,92.51987171173096
670000,"[221.0, (3.0, 22.0)]",23,0.44200000001479384,0.002837332490134213,400000,93.50904107093811
680000,"[259.0, (2.0, 22.0)]",25,0.43300000001453504,0.0030377748703496765,400000,91.13153505325317
690000,"[217.0, (3.0, 17.0)]",23,0.42400000001427623,0.0031740788770348444,400000,92.88603734970093
700000,"[207.0, (3.0, 18.0)]",23,0.41500000001401743,0.0033757484762903913,400000,92.29208874702454
710000,"[226.0, (3.0, 21.0)]",21,0.40600000001375863,0.0036292785915986313,400000,92.9734058380127
720000,"[210.0, (4.0, 15.0)]",24,0.39700000001349983,0.0037704752048095544,400000,91.61923027038574
730000,"[225.0, (4.0, 23.0)]",21,0.38800000001324103,0.0038543001877082133,400000,92.04943418502808
740000,"[220.0, (3.0, 18.0)]",25,0.37900000001298223,0.0036753801560033025,400000,91.22321271896362
750000,"[225.0, (5.0, 24.0)]",23,0.37000000001272343,0.004430968833348015,400000,92.54975652694702
760000,"[241.0, (2.0, 25.0)]",21,0.36100000001246463,0.003973908371427387,400000,91.81996178627014
770000,"[260.0, (5.0, 21.0)]",21,0.3520000000122058,0.004358343080036138,400000,93.48026847839355
780000,"[229.0, (3.0, 19.0)]",22,0.343000000011947,0.004246923114903257,400000,94.72485375404358
790000,"[216.0, (4.0, 19.0)]",22,0.3340000000116882,0.00450019341788502,400000,95.01266050338745
800000,"[257.0, (4.0, 36.0)]",25,0.3250000000114294,0.004767351236877948,400000,95.72504734992981
810000,"[204.0, (4.0, 16.0)]",21,0.3160000000111706,0.004868583277759535,400000,94.86483502388
820000,"[247.0, (3.0, 20.0)]",24,0.3070000000109118,0.004774379955234872,400000,95.50885200500488
830000,"[241.0, (6.0, 19.0)]",21,0.298000000010653,0.004997954114395907,400000,96.15226435661316
840000,"[220.0, (5.0, 19.0)]",21,0.2890000000103942,0.004538330252015294,400000,95.51690888404846
850000,"[243.0, (4.0, 19.0)]",23,0.2800000000101354,0.005399506258166366,400000,95.8699562549591
860000,"[252.0, (3.0, 21.0)]",23,0.2710000000098766,0.005198561910862918,400000,95.99138975143433
870000,"[240.0, (6.0, 21.0)]",24,0.2620000000096178,0.005335729331237599,400000,92.64495253562927
880000,"[250.0, (6.0, 21.0)]",22,0.253000000009359,0.005368788576225416,400000,94.26657700538635
890000,"[226.0, (4.0, 17.0)]",21,0.24400000000928526,0.005335840887398081,400000,93.42939329147339
900000,"[244.0, (3.0, 18.0)]",25,0.23500000000930402,0.006091944339145266,400000,94.69186234474182
910000,"[241.0, (3.0, 23.0)]",21,0.22600000000932277,0.005513119811209617,400000,92.877690076828
920000,"[266.0, (4.0, 32.0)]",20,0.21700000000934153,0.005624816767246375,400000,92.44341945648193
930000,"[300.0, (8.0, 20.0)]",22,0.20800000000936028,0.006247466572324629,400000,93.58037734031677
940000,"[262.0, (4.0, 19.0)]",22,0.19900000000937904,0.0061700343129410615,400000,93.2399513721466
950000,"[244.0, (4.0, 22.0)]",20,0.1900000000093978,0.005465079534860342,400000,93.15182518959045
960000,"[267.0, (4.0, 20.0)]",23,0.18100000000941655,0.005859873258373773,400000,94.01158690452576
970000,"[257.0, (3.0, 25.0)]",19,0.1720000000094353,0.005965089451100357,400000,96.17531871795654
980000,"[239.0, (5.0, 22.0)]",22,0.16300000000945405,0.006561201369905757,400000,96.76374506950378
990000,"[250.0, (5.0, 20.0)]",21,0.1540000000094728,0.005938995130103285,400000,96.84060168266296
1000000,"[257.0, (7.0, 23.0)]",19,0.14500000000949156,0.00630814804597976,400000,97.72289967536926
1010000,"[285.0, (5.0, 29.0)]",20,0.13600000000951032,0.00649932538258945,400000,97.14725494384766
1020000,"[253.0, (5.0, 27.0)]",20,0.12700000000952907,0.0062720444426115135,400000,96.98261594772339
1030000,"[270.0, (6.0, 27.0)]",21,0.11800000000954783,0.006558724249163788,400000,98.10471987724304
1040000,"[259.0, (6.0, 24.0)]",19,0.10900000000956658,0.006458523836359382,400000,97.55458164215088
1050000,"[285.0, (6.0, 24.0)]",20,0.10000000000958534,0.006263127617957435,400000,96.88212513923645
1060000,"[260.0, (2.0, 27.0)]",21,0.09999910000958534,0.006773648760301149,400000,95.05671834945679
1070000,"[260.0, (7.0, 25.0)]",19,0.09999910000958534,0.006892573855965748,400000,97.45255422592163
1080000,"[287.0, (5.0, 25.0)]",21,0.09999910000958534,0.006962407050281036,400000,95.04014015197754
1090000,"[264.0, (7.0, 33.0)]",19,0.09999910000958534,0.0064900007333973915,400000,97.18971085548401
1100000,"[287.0, (5.0, 24.0)]",20,0.09999910000958534,0.0067279298599089085,400000,94.2307481765747
1110000,"[270.0, (6.0, 36.0)]",20,0.09999910000958534,0.006737058699329646,400000,95.45671558380127
1120000,"[279.0, (4.0, 24.0)]",21,0.09999910000958534,0.007488930064468878,400000,94.59885048866272
1130000,"[266.0, (5.0, 27.0)]",20,0.09999910000958534,0.006932187831004558,400000,95.24995684623718
1140000,"[267.0, (4.0, 23.0)]",20,0.09999910000958534,0.007202421039269757,400000,94.9631495475769
1150000,"[262.0, (5.0, 22.0)]",22,0.09999910000958534,0.007025426625747059,400000,95.19341039657593
1160000,"[285.0, (4.0, 31.0)]",21,0.09999910000958534,0.006996908785487176,400000,98.61569237709045
1170000,"[250.0, (1.0, 25.0)]",24,0.09999910000958534,0.006968897912234024,400000,98.38780117034912
1180000,"[282.0, (8.0, 40.0)]",21,0.09999910000958534,0.007084557638938349,400000,97.85995149612427
1190000,"[275.0, (3.0, 20.0)]",26,0.09999910000958534,0.007015876021443182,400000,98.1865701675415
1200000,"[298.0, (2.0, 35.0)]",21,0.09999910000958534,0.007108495058188419,400000,96.65232729911804
1210000,"[258.0, (6.0, 24.0)]",20,0.09999910000958534,0.007413973162100592,400000,94.9561095237732
1220000,"[229.0, (2.0, 18.0)]",29,0.09999910000958534,0.007720181469090312,400000,96.02717781066895
1230000,"[270.0, (4.0, 24.0)]",21,0.09999910000958534,0.007523289178428968,400000,94.7186381816864
1240000,"[274.0, (4.0, 26.0)]",23,0.09999910000958534,0.00720394711911722,400000,93.91429996490479
1250000,"[276.0, (3.0, 29.0)]",21,0.09999910000958534,0.007394329055905473,400000,95.77797770500183
1260000,"[278.0, (3.0, 30.0)]",19,0.09999910000958534,0.008024100544002067,400000,97.99062776565552
1270000,"[254.0, (7.0, 18.0)]",23,0.09999910000958534,0.007638489505100006,400000,97.01871371269226
1280000,"[273.0, (3.0, 26.0)]",21,0.09999910000958534,0.007661054072597472,400000,97.12847828865051
1290000,"[272.0, (3.0, 28.0)]",21,0.09999910000958534,0.007407703218253301,400000,98.10838103294373
1300000,"[257.0, (4.0, 22.0)]",22,0.09999910000958534,0.0077796825724879455,400000,97.39961695671082
1310000,"[271.0, (3.0, 23.0)]",23,0.09999910000958534,0.007776743692616583,400000,97.1048731803894
1320000,"[262.0, (2.0, 21.0)]",23,0.09999910000958534,0.007701984117681422,400000,97.89086151123047
1330000,"[286.0, (5.0, 35.0)]",22,0.09999910000958534,0.007542650321073234,400000,98.0384829044342
1340000,"[270.0, (2.0, 28.0)]",23,0.09999910000958534,0.007623807914108329,400000,97.71978998184204
1350000,"[270.0, (3.0, 23.0)]",23,0.09999910000958534,0.008012157485881471,400000,98.48450708389282
1360000,"[247.0, (4.0, 19.0)]",22,0.09999910000958534,0.007263761391160369,400000,98.45036363601685
1370000,"[241.0, (2.0, 24.0)]",24,0.09999910000958534,0.00787679730957534,400000,97.76847910881042
1380000,"[291.0, (2.0, 35.0)]",21,0.09999910000958534,0.008721608120384918,400000,98.88031244277954
1390000,"[265.0, (8.0, 20.0)]",20,0.09999910000958534,0.007664505744406051,400000,99.08832883834839
1400000,"[289.0, (3.0, 43.0)]",23,0.09999910000958534,0.008641045020147066,400000,98.26084899902344
1410000,"[229.0, (3.0, 21.0)]",22,0.09999910000958534,0.0089209146079098,400000,98.8219850063324
1420000,"[282.0, (3.0, 39.0)]",21,0.09999910000958534,0.00791760262321186,400000,98.99811744689941
1430000,"[253.0, (5.0, 23.0)]",22,0.09999910000958534,0.007839319843201884,400000,98.46582007408142
1440000,"[277.0, (4.0, 40.0)]",20,0.09999910000958534,0.00878959847964652,400000,98.79387021064758
1450000,"[280.0, (3.0, 26.0)]",22,0.09999910000958534,0.008975353143075335,400000,98.58931255340576
1460000,"[304.0, (4.0, 32.0)]",20,0.09999910000958534,0.008070523957009936,400000,97.54363918304443
1470000,"[283.0, (5.0, 33.0)]",21,0.09999910000958534,0.008969362956855548,400000,97.40558362007141
1480000,"[279.0, (5.0, 40.0)]",19,0.09999910000958534,0.008878494489486183,400000,98.09700155258179
1490000,"[262.0, (5.0, 32.0)]",21,0.09999910000958534,0.009013053913662953,400000,97.15417718887329
1500000,"[256.0, (4.0, 23.0)]",23,0.09999910000958534,0.008811729250577265,400000,96.17439031600952
1510000,"[289.0, (1.0, 23.0)]",24,0.09999910000958534,0.008370890372998475,400000,97.89638686180115
1520000,"[300.0, (8.0, 39.0)]",19,0.09999910000958534,0.0078017053800638675,400000,96.37149119377136
1530000,"[272.0, (3.0, 27.0)]",20,0.09999910000958534,0.00828056987105374,400000,96.50078892707825
1540000,"[295.0, (7.0, 32.0)]",20,0.09999910000958534,0.00831483030482632,400000,97.22762751579285
1550000,"[285.0, (6.0, 31.0)]",22,0.09999910000958534,0.008180903214342106,400000,96.78112006187439
1560000,"[274.0, (3.0, 23.0)]",18,0.09999910000958534,0.008715941123497032,400000,96.25952553749084
1570000,"[265.0, (3.0, 24.0)]",20,0.09999910000958534,0.00897822000906017,400000,97.43171381950378
1580000,"[280.0, (6.0, 27.0)]",21,0.09999910000958534,0.008512323348969949,400000,97.24752855300903
1590000,"[245.0, (3.0, 17.0)]",25,0.09999910000958534,0.00922732848266678,400000,97.40396428108215
1600000,"[256.0, (3.0, 29.0)]",23,0.09999910000958534,0.009026400573261343,400000,96.63958191871643
1610000,"[280.0, (3.0, 29.0)]",23,0.09999910000958534,0.008958860617577375,400000,96.04416942596436
1620000,"[258.0, (6.0, 17.0)]",22,0.09999910000958534,0.008873772398068105,400000,97.47437787055969
1630000,"[273.0, (1.0, 19.0)]",24,0.09999910000958534,0.008118454980356547,400000,95.79674291610718
1640000,"[263.0, (3.0, 20.0)]",24,0.09999910000958534,0.0085171368387033,400000,98.90860652923584
1650000,"[261.0, (3.0, 35.0)]",22,0.09999910000958534,0.008877048824495432,400000,97.8055648803711
1660000,"[262.0, (4.0, 27.0)]",24,0.09999910000958534,0.008639336709685448,400000,96.9082407951355
1670000,"[262.0, (5.0, 31.0)]",21,0.09999910000958534,0.0088789895899361,400000,99.38846230506897
1680000,"[235.0, (1.0, 17.0)]",24,0.09999910000958534,0.009317345670256327,400000,97.85648703575134
1690000,"[238.0, (5.0, 20.0)]",22,0.09999910000958534,0.008390496393416833,400000,97.73539662361145
1700000,"[278.0, (3.0, 23.0)]",26,0.09999910000958534,0.009098626692819016,400000,98.7838945388794
1710000,"[274.0, (3.0, 26.0)]",24,0.09999910000958534,0.008774709563891156,400000,97.42368388175964
1720000,"[268.0, (6.0, 22.0)]",21,0.09999910000958534,0.008161978601681039,400000,97.06866574287415
1730000,"[267.0, (4.0, 20.0)]",24,0.09999910000958534,0.00886857197305435,400000,98.69827198982239
1740000,"[258.0, (2.0, 32.0)]",22,0.09999910000958534,0.008212089199811817,400000,97.54066681861877
1750000,"[270.0, (3.0, 32.0)]",21,0.09999910000958534,0.008200297272939496,400000,97.25472593307495
1760000,"[270.0, (3.0, 24.0)]",22,0.09999910000958534,0.008948512910197314,400000,97.85814213752747
1770000,"[266.0, (4.0, 22.0)]",24,0.09999910000958534,0.008538729405660707,400000,98.64239573478699
1780000,"[239.0, (2.0, 25.0)]",25,0.09999910000958534,0.008498948954861408,400000,97.73555827140808
1790000,"[270.0, (5.0, 20.0)]",24,0.09999910000958534,0.008443473848847133,400000,98.23923063278198
1800000,"[257.0, (4.0, 21.0)]",22,0.09999910000958534,0.008126423752337724,400000,100.43727803230286
1810000,"[257.0, (3.0, 40.0)]",20,0.09999910000958534,0.008298276748065108,400000,99.78972339630127
1820000,"[248.0, (4.0, 25.0)]",26,0.09999910000958534,0.00815206928054904,400000,99.67509603500366
1830000,"[251.0, (3.0, 24.0)]",22,0.09999910000958534,0.008048053277278085,400000,100.2907645702362
1840000,"[260.0, (3.0, 18.0)]",25,0.09999910000958534,0.009028343558943743,400000,99.43133211135864
1850000,"[244.0, (3.0, 23.0)]",23,0.09999910000958534,0.008017245552133682,400000,99.31743502616882
1860000,"[266.0, (5.0, 25.0)]",21,0.09999910000958534,0.007197411254376857,400000,101.24955034255981
1870000,"[276.0, (4.0, 28.0)]",20,0.09999910000958534,0.007472817756651784,400000,99.54031109809875
1880000,"[272.0, (5.0, 26.0)]",22,0.09999910000958534,0.007722536364726693,400000,99.77020525932312
1890000,"[311.0, (6.0, 23.0)]",22,0.09999910000958534,0.0077581970273033225,400000,100.78647184371948
1900000,"[289.0, (5.0, 34.0)]",22,0.09999910000958534,0.00806097502752964,400000,99.73765873908997
1910000,"[267.0, (1.0, 33.0)]",23,0.09999910000958534,0.007953350504445553,400000,99.15960907936096
1920000,"[222.0, (2.0, 17.0)]",29,0.09999910000958534,0.008598995578048925,400000,100.52293539047241
1930000,"[262.0, (0.0, 29.0)]",24,0.09999910000958534,0.007565700681424641,400000,99.34155344963074
1940000,"[270.0, (4.0, 17.0)]",25,0.09999910000958534,0.007835985142125355,400000,98.97597074508667
1950000,"[252.0, (5.0, 20.0)]",21,0.09999910000958534,0.007902874910062382,400000,100.0565824508667
1960000,"[288.0, (5.0, 25.0)]",20,0.09999910000958534,0.007563284022698644,400000,98.0921938419342
1970000,"[278.0, (5.0, 26.0)]",22,0.09999910000958534,0.007365568159631949,400000,97.98180341720581
1980000,"[275.0, (3.0, 25.0)]",22,0.09999910000958534,0.007453270192973286,400000,99.0984137058258
1990000,"[274.0, (3.0, 20.0)]",23,0.09999910000958534,0.007276841814159707,400000,97.97126865386963
2000000,"[253.0, (3.0, 27.0)]",22,0.09999910000958534,0.007949407022703235,400000,97.98143076896667
2010000,"[274.0, (5.0, 33.0)]",18,0.09999910000958534,0.0075717555122828345,400000,99.09275770187378
2020000,"[303.0, (7.0, 32.0)]",19,0.09999910000958534,0.0073097948938677295,400000,97.58273959159851
2030000,"[271.0, (3.0, 33.0)]",22,0.09999910000958534,0.007661215364118834,400000,97.8825855255127
2040000,"[290.0, (3.0, 38.0)]",22,0.09999910000958534,0.0077492624337159215,400000,98.53861546516418
2050000,"[287.0, (6.0, 30.0)]",20,0.09999910000958534,0.008398215409370096,400000,98.63818788528442
2060000,"[276.0, (7.0, 30.0)]",21,0.09999910000958534,0.007821160907508238,400000,99.39824414253235
2070000,"[237.0, (2.0, 20.0)]",23,0.09999910000958534,0.007904938051831414,400000,98.93376350402832
2080000,"[311.0, (5.0, 25.0)]",22,0.09999910000958534,0.007789007601712729,400000,99.00033497810364
2090000,"[258.0, (5.0, 23.0)]",21,0.09999910000958534,0.007526670910495704,400000,97.99740219116211
2100000,"[280.0, (6.0, 34.0)]",23,0.09999910000958534,0.007713148520826507,400000,98.75688219070435
2110000,"[268.0, (4.0, 18.0)]",23,0.09999910000958534,0.008149142788585596,400000,99.12134099006653
2120000,"[264.0, (3.0, 25.0)]",21,0.09999910000958534,0.007109068358199147,400000,98.08990168571472
2130000,"[261.0, (6.0, 19.0)]",23,0.09999910000958534,0.007463353290720988,400000,98.14710974693298
2140000,"[276.0, (6.0, 32.0)]",21,0.09999910000958534,0.007619246169225516,400000,99.35839056968689
2150000,"[292.0, (5.0, 28.0)]",22,0.09999910000958534,0.0074952706434349235,400000,98.14971852302551
2160000,"[307.0, (3.0, 40.0)]",22,0.09999910000958534,0.007364677050603495,400000,98.49107837677002
2170000,"[246.0, (3.0, 21.0)]",22,0.09999910000958534,0.00729512739264901,400000,101.07094430923462
2180000,"[250.0, (3.0, 24.0)]",20,0.09999910000958534,0.007118026940476921,400000,98.89525079727173
2190000,"[311.0, (3.0, 36.0)]",22,0.09999910000958534,0.007813606734836867,400000,99.63796091079712
2200000,"[249.0, (5.0, 17.0)]",24,0.09999910000958534,0.007690957299919683,400000,100.60503911972046
2210000,"[286.0, (3.0, 52.0)]",23,0.09999910000958534,0.00815814476254236,400000,99.08064770698547
2220000,"[224.0, (1.0, 19.0)]",29,0.09999910000958534,0.007575436710919166,400000,99.3608877658844
2230000,"[278.0, (4.0, 28.0)]",21,0.09999910000958534,0.007629636369313084,400000,100.6417191028595
2240000,"[284.0, (2.0, 30.0)]",23,0.09999910000958534,0.0079780188774821,400000,99.11646795272827
2250000,"[240.0, (1.0, 22.0)]",26,0.09999910000958534,0.008458580837105182,400000,99.56807851791382
2260000,"[246.0, (2.0, 23.0)]",23,0.09999910000958534,0.008445057381594961,400000,100.68941879272461
2270000,"[289.0, (2.0, 38.0)]",20,0.09999910000958534,0.0074650030413758945,400000,99.66614270210266
2280000,"[284.0, (1.0, 38.0)]",23,0.09999910000958534,0.0076867805545436565,400000,100.08403182029724
2290000,"[268.0, (3.0, 27.0)]",26,0.09999910000958534,0.008192862654908822,400000,100.84215426445007
2300000,"[253.0, (1.0, 23.0)]",27,0.09999910000958534,0.008710113740027009,400000,101.34095478057861
2310000,"[295.0, (5.0, 22.0)]",23,0.09999910000958534,0.008052542162489044,400000,100.25238919258118
2320000,"[273.0, (4.0, 19.0)]",24,0.09999910000958534,0.007466528250140618,400000,100.41626310348511
2330000,"[274.0, (5.0, 30.0)]",21,0.09999910000958534,0.008561534904040309,400000,101.00116872787476
2340000,"[246.0, (1.0, 30.0)]",27,0.09999910000958534,0.008198164889878172,400000,100.15235185623169
2350000,"[273.0, (5.0, 22.0)]",22,0.09999910000958534,0.008019894222270523,400000,100.72047829627991
2360000,"[251.0, (3.0, 16.0)]",28,0.09999910000958534,0.008692875646286484,400000,100.56679153442383
2370000,"[281.0, (4.0, 31.0)]",24,0.09999910000958534,0.007566441792642945,400000,98.99196076393127
2380000,"[263.0, (5.0, 19.0)]",22,0.09999910000958534,0.0075701808832214735,400000,98.91402649879456
2390000,"[257.0, (3.0, 24.0)]",22,0.09999910000958534,0.008428025506964332,400000,99.2191698551178
2400000,"[269.0, (2.0, 31.0)]",23,0.09999910000958534,0.008240289856617164,400000,98.23008728027344
2410000,"[259.0, (3.0, 35.0)]",23,0.09999910000958534,0.008258574585386669,400000,98.25171399116516
2420000,"[279.0, (3.0, 31.0)]",25,0.09999910000958534,0.008621956755408246,400000,98.71439933776855
2430000,"[238.0, (3.0, 18.0)]",25,0.09999910000958534,0.009019596619452569,400000,97.54622077941895
2440000,"[236.0, (4.0, 29.0)]",21,0.09999910000958534,0.008203172154814456,400000,97.84192371368408
2450000,"[252.0, (1.0, 21.0)]",23,0.09999910000958534,0.007672008338935848,400000,98.21515464782715
2460000,"[278.0, (4.0, 30.0)]",21,0.09999910000958534,0.00773726159319267,400000,97.30613088607788
2470000,"[264.0, (2.0, 32.0)]",23,0.09999910000958534,0.007893657179321962,400000,97.66832756996155
2480000,"[256.0, (3.0, 20.0)]",20,0.09999910000958534,0.007613773121579288,400000,98.48848700523376
2490000,"[300.0, (2.0, 31.0)]",23,0.09999910000958534,0.007633394400951875,400000,97.92444396018982
2500000,"[240.0, (1.0, 19.0)]",28,0.09999910000958534,0.007961667424950792,400000,98.10148310661316
2510000,"[207.0, (2.0, 14.0)]",32,0.09999910000958534,0.0075887409642266,400000,98.55208492279053
2520000,"[232.0, (3.0, 24.0)]",24,0.09999910000958534,0.007272388184541342,400000,98.86432433128357
2530000,"[269.0, (3.0, 19.0)]",24,0.09999910000958534,0.006984128778709419,400000,96.58923745155334
2540000,"[250.0, (2.0, 21.0)]",23,0.09999910000958534,0.006934537714538237,400000,96.38785815238953
2550000,"[264.0, (4.0, 31.0)]",20,0.09999910000958534,0.007332612463748228,400000,97.50586938858032
2560000,"[277.0, (5.0, 31.0)]",20,0.09999910000958534,0.007664120814342823,400000,95.67106103897095
2570000,"[260.0, (0.0, 23.0)]",21,0.09999910000958534,0.007938519383441962,400000,96.50000190734863
2580000,"[248.0, (2.0, 28.0)]",24,0.09999910000958534,0.007783299709596394,400000,95.8283634185791
2590000,"[236.0, (2.0, 22.0)]",26,0.09999910000958534,0.0075369777286337925,400000,97.59195947647095
2600000,"[236.0, (4.0, 32.0)]",21,0.09999910000958534,0.0072288705776110875,400000,99.36017942428589
2610000,"[255.0, (2.0, 15.0)]",25,0.09999910000958534,0.006765986519179932,400000,99.24541664123535
2620000,"[292.0, (3.0, 24.0)]",26,0.09999910000958534,0.007059948016269846,400000,98.31995439529419
2630000,"[272.0, (5.0, 24.0)]",24,0.09999910000958534,0.007033002349000162,400000,98.26255917549133
2640000,"[291.0, (4.0, 30.0)]",19,0.09999910000958534,0.007268999091421574,400000,98.99484944343567
2650000,"[233.0, (2.0, 28.0)]",27,0.09999910000958534,0.008065430376060976,400000,98.07157349586487
2660000,"[266.0, (3.0, 34.0)]",21,0.09999910000958534,0.007033662262106736,400000,98.24324584007263
2670000,"[282.0, (7.0, 20.0)]",21,0.09999910000958534,0.006091634216464081,400000,98.75608015060425
2680000,"[286.0, (5.0, 35.0)]",22,0.09999910000958534,0.006913504591851961,400000,97.7073426246643
2690000,"[249.0, (3.0, 27.0)]",26,0.09999910000958534,0.007300408159707512,400000,98.17526268959045
2700000,"[231.0, (1.0, 17.0)]",25,0.09999910000958534,0.006770053788991208,400000,97.81199526786804
2710000,"[285.0, (7.0, 25.0)]",20,0.09999910000958534,0.005945653459441019,400000,97.56178855895996
2720000,"[236.0, (4.0, 21.0)]",22,0.09999910000958534,0.005952205653773126,400000,98.2544162273407
2730000,"[302.0, (5.0, 31.0)]",23,0.09999910000958534,0.006318026267813547,400000,97.26167106628418
2740000,"[317.0, (5.0, 33.0)]",22,0.09999910000958534,0.0065149994858231365,400000,97.55789089202881
2750000,"[257.0, (4.0, 20.0)]",23,0.09999910000958534,0.006832555226465775,400000,96.75938582420349
2760000,"[265.0, (6.0, 33.0)]",16,0.09999910000958534,0.006551859598863666,400000,97.07626700401306
2770000,"[265.0, (0.0, 26.0)]",22,0.09999910000958534,0.007050149166868505,400000,97.59513545036316
2780000,"[235.0, (3.0, 15.0)]",29,0.09999910000958534,0.008316237686834939,400000,96.9595468044281
2790000,"[252.0, (3.0, 17.0)]",25,0.09999910000958534,0.007037237713364447,400000,98.08199644088745
2800000,"[283.0, (5.0, 39.0)]",19,0.09999910000958534,0.006329385301441653,400000,99.33366465568542
2810000,"[289.0, (4.0, 24.0)]",19,0.09999910000958534,0.006680143743057124,400000,98.57646656036377
2820000,"[272.0, (5.0, 21.0)]",20,0.09999910000958534,0.006158290001730711,400000,99.07992100715637
2830000,"[257.0, (1.0, 22.0)]",22,0.09999910000958534,0.00754641410266413,400000,99.48960614204407
2840000,"[247.0, (4.0, 23.0)]",22,0.09999910000958534,0.006764626937841604,400000,98.81539058685303
2850000,"[274.0, (7.0, 31.0)]",19,0.09999910000958534,0.006224411726925246,400000,99.00754380226135
2860000,"[282.0, (3.0, 31.0)]",21,0.09999910000958534,0.0068386460012858155,400000,99.09618473052979
2870000,"[283.0, (3.0, 46.0)]",21,0.09999910000958534,0.0072918495147314384,400000,98.63480639457703
2880000,"[190.0, (2.0, 16.0)]",28,0.09999910000958534,0.007990371709869213,400000,99.16476464271545
2890000,"[220.0, (2.0, 17.0)]",28,0.09999910000958534,0.006943601814691646,400000,97.04885745048523
2900000,"[236.0, (4.0, 14.0)]",25,0.09999910000958534,0.006286257559310616,400000,97.46992111206055
2910000,"[219.0, (2.0, 16.0)]",27,0.09999910000958534,0.006562795850016846,400000,98.65318250656128
2920000,"[229.0, (3.0, 17.0)]",24,0.09999910000958534,0.006336319521944096,400000,98.31300902366638
2930000,"[283.0, (5.0, 26.0)]",23,0.09999910000958534,0.006711468584281102,400000,99.42941045761108
2940000,"[277.0, (3.0, 25.0)]",20,0.09999910000958534,0.006925476440722559,400000,99.24766516685486
2950000,"[256.0, (0.0, 21.0)]",26,0.09999910000958534,0.0071720823565839965,400000,98.05872106552124
2960000,"[270.0, (5.0, 35.0)]",20,0.09999910000958534,0.006809421631141595,400000,98.51827073097229
2970000,"[237.0, (2.0, 20.0)]",23,0.09999910000958534,0.0071130235743410595,400000,99.13604164123535
2980000,"[295.0, (2.0, 47.0)]",23,0.09999910000958534,0.006933341992739224,400000,99.02948307991028
2990000,"[254.0, (2.0, 28.0)]",26,0.09999910000958534,0.007740075704439369,400000,100.06539297103882
3000000,"[257.0, (4.0, 20.0)]",22,0.09999910000958534,0.007108983758812974,400000,99.59311366081238
