All frames,Reward,Episodes,Epsilon,Avg. loss,Memory size,Time
10000,"[1440.0, (0.0, 260.0)]",19,1.0,0.0,10000,8.741474390029907
20000,"[1440.0, (0.0, 160.0)]",20,1.0,0.0,20000,8.723438501358032
30000,"[1480.0, (0.0, 220.0)]",18,1.0,0.0,30000,8.716727018356323
40000,"[1620.0, (40.0, 160.0)]",20,1.0,0.0,40000,8.736708879470825
50000,"[1680.0, (0.0, 200.0)]",18,1.0,0.0,50000,8.739168405532837
60000,"[1860.0, (0.0, 200.0)]",18,0.9910000000002963,0.17501550131678886,60000,250.5241503715515
70000,"[1660.0, (20.0, 300.0)]",18,0.9820000000005926,0.17613825417553453,70000,245.82860445976257
80000,"[1600.0, (20.0, 240.0)]",17,0.9730000000008889,0.17698493928432,80000,247.0046534538269
90000,"[1560.0, (20.0, 240.0)]",17,0.9640000000011852,0.17014136758204548,90000,247.705500125885
100000,"[1680.0, (0.0, 240.0)]",17,0.9550000000014816,0.17321601647830104,100000,221.15690350532532
110000,"[1880.0, (20.0, 260.0)]",16,0.9460000000017779,0.17238903740199749,110000,222.1887331008911
120000,"[2080.0, (0.0, 340.0)]",15,0.9370000000020742,0.17840542795858347,120000,221.77448630332947
130000,"[1920.0, (20.0, 280.0)]",16,0.9280000000023705,0.1858119211517973,130000,223.00072073936462
140000,"[2100.0, (60.0, 300.0)]",15,0.9190000000026668,0.1869041410913691,140000,223.76009464263916
150000,"[2360.0, (60.0, 380.0)]",16,0.9100000000029631,0.1945910717259161,150000,224.53870582580566
160000,"[2100.0, (40.0, 220.0)]",15,0.9010000000032594,0.20365074791745283,160000,223.81340408325195
170000,"[1960.0, (20.0, 300.0)]",17,0.8920000000035557,0.21112751876036637,170000,224.82240462303162
180000,"[2100.0, (20.0, 260.0)]",15,0.883000000003852,0.21492992055527865,180000,224.58870649337769
190000,"[2200.0, (0.0, 240.0)]",17,0.8740000000041483,0.22613271221863107,190000,224.6440064907074
200000,"[2180.0, (0.0, 280.0)]",16,0.8650000000044447,0.23721677160095422,200000,224.8952021598816
210000,"[2160.0, (20.0, 320.0)]",17,0.856000000004741,0.23842399820843713,210000,225.59624338150024
220000,"[2380.0, (60.0, 280.0)]",15,0.8470000000050373,0.24386176302256063,220000,225.46959400177002
230000,"[2600.0, (40.0, 320.0)]",14,0.8380000000053336,0.24945711185261607,230000,224.997985124588
240000,"[2160.0, (40.0, 220.0)]",15,0.8290000000056299,0.26141179423788563,240000,225.987318277359
250000,"[2420.0, (80.0, 300.0)]",14,0.8200000000059262,0.26665587080391123,250000,225.9497091770172
260000,"[2880.0, (100.0, 460.0)]",12,0.8110000000062225,0.274138742076233,260000,226.59825992584229
270000,"[2540.0, (80.0, 400.0)]",13,0.8020000000065188,0.2849855446971953,270000,226.51495218276978
280000,"[2520.0, (100.0, 420.0)]",12,0.7930000000068151,0.29386775716999547,280000,228.49683570861816
290000,"[3000.0, (120.0, 640.0)]",11,0.7840000000071115,0.29727641325201837,290000,229.19584679603577
300000,"[2640.0, (60.0, 360.0)]",13,0.7750000000074078,0.30517676399853083,300000,229.21385383605957
310000,"[2760.0, (80.0, 480.0)]",13,0.7660000000077041,0.318709583180584,310000,228.80060648918152
320000,"[2800.0, (140.0, 360.0)]",12,0.7570000000080004,0.32092863367423413,320000,229.58475375175476
330000,"[2840.0, (120.0, 460.0)]",10,0.7480000000082967,0.33629274201989173,330000,230.5190601348877
340000,"[2840.0, (60.0, 440.0)]",12,0.739000000008593,0.3484794833943248,340000,230.41808485984802
350000,"[2740.0, (80.0, 320.0)]",13,0.7300000000088893,0.35792430008072407,350000,231.45179057121277
360000,"[2800.0, (120.0, 340.0)]",13,0.7210000000091856,0.36527899109255524,360000,232.17766046524048
370000,"[3160.0, (120.0, 500.0)]",10,0.7120000000094819,0.37147666160706433,370000,232.93641328811646
380000,"[2800.0, (60.0, 400.0)]",13,0.7030000000097782,0.38386643943600357,380000,233.24004697799683
390000,"[2800.0, (100.0, 380.0)]",12,0.6940000000100746,0.3985220801975578,390000,233.50307440757751
400000,"[2860.0, (80.0, 280.0)]",13,0.6850000000103709,0.4028598474904895,400000,235.1264362335205
410000,"[2660.0, (20.0, 520.0)]",14,0.6760000000106672,0.41200568157248196,400000,235.43997716903687
420000,"[2720.0, (60.0, 380.0)]",12,0.6670000000109635,0.43653283995985986,400000,233.09881258010864
430000,"[2640.0, (40.0, 380.0)]",13,0.6580000000112598,0.4350311241544783,400000,236.07897686958313
440000,"[2740.0, (140.0, 360.0)]",12,0.6490000000115561,0.44570319627970456,400000,234.04433798789978
450000,"[2980.0, (100.0, 520.0)]",12,0.6400000000118524,0.455880580188334,400000,234.34817671775818
460000,"[3020.0, (160.0, 520.0)]",11,0.6310000000121487,0.4674191484324634,400000,234.01477122306824
470000,"[2740.0, (140.0, 500.0)]",9,0.622000000012445,0.4707961901009083,400000,234.0089132785797
480000,"[3080.0, (160.0, 560.0)]",9,0.6130000000127414,0.48448980336152014,400000,235.71128273010254
490000,"[3000.0, (120.0, 440.0)]",12,0.6040000000130377,0.47840305458046495,400000,239.37631750106812
500000,"[2960.0, (160.0, 520.0)]",11,0.595000000013334,0.4855825361404568,400000,238.58956170082092
510000,"[2980.0, (120.0, 500.0)]",11,0.5860000000136303,0.49038768816702066,400000,236.94810032844543
520000,"[3180.0, (120.0, 500.0)]",11,0.5770000000139266,0.5006316178683191,400000,238.03076648712158
530000,"[2760.0, (160.0, 420.0)]",10,0.5680000000142229,0.5049685134764761,400000,237.60899829864502
540000,"[3040.0, (80.0, 460.0)]",11,0.5590000000145192,0.4999673775818199,400000,237.88314056396484
550000,"[2920.0, (160.0, 380.0)]",12,0.5500000000148155,0.5089139737308025,400000,237.399760723114
560000,"[3120.0, (140.0, 380.0)]",12,0.5410000000151118,0.49819816134311257,400000,237.53164267539978
570000,"[2960.0, (160.0, 480.0)]",10,0.5320000000154081,0.5114834000915289,400000,238.56765341758728
580000,"[3000.0, (80.0, 380.0)]",12,0.5230000000157045,0.5246091850586235,400000,239.14657330513
590000,"[3060.0, (220.0, 380.0)]",11,0.5140000000160008,0.5194424399420619,400000,238.1362144947052
600000,"[3020.0, (200.0, 400.0)]",11,0.5050000000162971,0.5141524246770889,400000,239.2504003047943
610000,"[3040.0, (180.0, 420.0)]",10,0.49600000001634664,0.5195851710081101,400000,237.99456977844238
620000,"[3380.0, (260.0, 620.0)]",8,0.48700000001608784,0.4995667385533452,400000,237.3145158290863
630000,"[3120.0, (100.0, 500.0)]",10,0.47800000001582904,0.5143885719873011,400000,237.83109593391418
640000,"[3280.0, (200.0, 480.0)]",10,0.46900000001557024,0.5153149865418672,400000,239.49212503433228
650000,"[3200.0, (180.0, 520.0)]",11,0.46000000001531144,0.5114598671529442,400000,238.50753831863403
660000,"[3080.0, (140.0, 400.0)]",11,0.45100000001505264,0.5146504329614341,400000,237.90427017211914
670000,"[3040.0, (120.0, 460.0)]",12,0.44200000001479384,0.5253668026935309,400000,237.17780470848083
680000,"[3100.0, (120.0, 460.0)]",11,0.43300000001453504,0.5334476763017476,400000,237.6291151046753
690000,"[3120.0, (160.0, 440.0)]",11,0.42400000001427623,0.5277529985509812,400000,238.72249293327332
700000,"[3120.0, (120.0, 400.0)]",11,0.41500000001401743,0.5138753753587604,400000,244.06534242630005
710000,"[3120.0, (140.0, 440.0)]",10,0.40600000001375863,0.5348302912630141,400000,247.98729062080383
720000,"[3240.0, (200.0, 460.0)]",12,0.39700000001349983,0.5466734083220363,400000,247.28943705558777
730000,"[3240.0, (120.0, 620.0)]",10,0.38800000001324103,0.5598916483040899,400000,247.17403650283813
740000,"[3280.0, (180.0, 420.0)]",10,0.37900000001298223,0.5710797565273941,400000,242.82438254356384
750000,"[3080.0, (180.0, 420.0)]",10,0.37000000001272343,0.5865932860221714,400000,241.5244722366333
760000,"[3340.0, (160.0, 540.0)]",10,0.36100000001246463,0.5686636988356709,400000,241.87908220291138
770000,"[3260.0, (220.0, 460.0)]",10,0.3520000000122058,0.5700367046829313,400000,242.92285561561584
780000,"[3260.0, (220.0, 540.0)]",9,0.343000000011947,0.5730873533517122,400000,249.45431280136108
790000,"[3180.0, (120.0, 600.0)]",8,0.3340000000116882,0.59163443884179,400000,247.3297951221466
800000,"[3180.0, (100.0, 680.0)]",9,0.3250000000114294,0.5992437792189419,400000,245.70350217819214
810000,"[2880.0, (200.0, 400.0)]",9,0.3160000000111706,0.5852663137808443,400000,240.46579003334045
820000,"[3260.0, (180.0, 520.0)]",10,0.3070000000109118,0.601922316993773,400000,242.41597199440002
830000,"[3060.0, (180.0, 480.0)]",11,0.298000000010653,0.5998579972177744,400000,244.40589833259583
840000,"[3240.0, (160.0, 600.0)]",8,0.2890000000103942,0.5874853392135352,400000,250.88036561012268
850000,"[3340.0, (160.0, 600.0)]",9,0.2800000000101354,0.5966112775921821,400000,255.78847122192383
860000,"[3400.0, (220.0, 560.0)]",8,0.2710000000098766,0.6108551279172302,400000,239.48920845985413
870000,"[3440.0, (220.0, 660.0)]",9,0.2620000000096178,0.6027507205843925,400000,244.6560080051422
880000,"[3600.0, (300.0, 640.0)]",8,0.253000000009359,0.6039935335926712,400000,241.83036303520203
890000,"[3460.0, (300.0, 560.0)]",8,0.24400000000928526,0.5915190755940973,400000,240.7171835899353
900000,"[3360.0, (220.0, 620.0)]",8,0.23500000000930402,0.572358160853386,400000,241.79616451263428
910000,"[3420.0, (240.0, 540.0)]",8,0.22600000000932277,0.574463724097237,400000,241.56644558906555
920000,"[3700.0, (240.0, 680.0)]",8,0.21700000000934153,0.5800769710168242,400000,240.65788912773132
930000,"[3380.0, (160.0, 600.0)]",9,0.20800000000936028,0.5817375317063183,400000,244.74756240844727
940000,"[3240.0, (140.0, 420.0)]",11,0.19900000000937904,0.5892992594700307,400000,256.1723268032074
950000,"[3400.0, (240.0, 460.0)]",10,0.1900000000093978,0.5804448094222695,400000,260.53217816352844
960000,"[3640.0, (240.0, 640.0)]",8,0.18100000000941655,0.5864701736595481,400000,261.74129247665405
970000,"[3480.0, (320.0, 660.0)]",9,0.1720000000094353,0.5672729023881257,400000,257.2339491844177
980000,"[3580.0, (220.0, 660.0)]",8,0.16300000000945405,0.5600613311745226,400000,260.31226110458374
990000,"[3560.0, (260.0, 520.0)]",9,0.1540000000094728,0.5652785473372787,400000,259.03654861450195
