VERSION,/usr/local/lib/python3.6/dist-packages/ipykernel_launcher.py
ENVIRONMENT_NAME,SeaquestDeterministic-v0
MEMORY_MAX_SIZE,400000
MEMORY_MIN_SIZE,50000
BATCH_SIZE,32
GAMMA,0.99
EPSILON,1.0
EPSILON_MIN,0.1
EPSILON_DELTA,9e-07
LEARNING_RATE,1e-05
NUM_FRAMES,4
FRAME_WIDTH,84
FRAME_HEIGHT,84
INPUT_SHAPE,"(84, 84)"
ITERATIONS,1500000
REFRESH_TARGET_MODEL,10000
TRAIN_EVERY_N_STEPS,1
TOTAL_TEST_EPISODES,100
FILE_OUTPUT,True
SEED,2
TESTING_SEED,7
