EPSILON_DELTA,9e-07
TRAIN_EVERY_N_STEPS,1
FRAME_HEIGHT,84
NUM_FRAMES,4
EPSILON,1.0
LEARNING_RATE,0.0001
ENVIRONMENT_NAME,SeaquestDeterministic-v0
TOTAL_TEST_EPISODES,100
FRAME_WIDTH,84
BATCH_SIZE,32
INPUT_SHAPE,"(84, 84)"
VERSION,./DQN_with_CNN_without_target_network_3000000_frames_1_action_frequncy_update.py
MEMORY_MAX_SIZE,400000
ITERATIONS,3000000
TESTING_SEED,5
EPSILON_MIN,0.1
FILE_OUTPUT,True
MEMORY_MIN_SIZE,50000
SEED,0
REFRESH_TARGET_MODEL,10000
GAMMA,0.99
