All steps,Reward,Episodes,Epsilon,Avg. loss,Memory size,Time
10000,"[1200.0, (0.0, 180.0)]",21,1.0,0.0,10000,5.3611900806427
20000,"[1340.0, (0.0, 240.0)]",20,1.0,0.0,20000,5.314723968505859
30000,"[1540.0, (0.0, 360.0)]",18,1.0,0.0,30000,5.397497892379761
40000,"[1620.0, (0.0, 200.0)]",17,1.0,0.0,40000,5.3441948890686035
50000,"[1400.0, (0.0, 260.0)]",19,1.0,0.0,50000,5.442603826522827
60000,"[1600.0, (0.0, 240.0)]",18,0.9910000000002963,0.1547016276121314,60000,70.15850710868835
70000,"[1420.0, (20.0, 200.0)]",19,0.9820000000005926,0.1444456809090887,70000,68.466068983078
80000,"[1540.0, (0.0, 320.0)]",19,0.9730000000008889,0.1410614556998713,80000,68.91041111946106
90000,"[2040.0, (0.0, 280.0)]",17,0.9640000000011852,0.14533086410681717,90000,69.19020891189575
100000,"[1940.0, (0.0, 280.0)]",18,0.9550000000014816,0.13743321090638055,100000,69.1759729385376
110000,"[1740.0, (20.0, 320.0)]",19,0.9460000000017779,0.13258794592255727,110000,69.93434500694275
120000,"[2120.0, (0.0, 320.0)]",17,0.9370000000020742,0.1378946454104269,120000,70.24404907226562
130000,"[2320.0, (40.0, 340.0)]",15,0.9280000000023705,0.14103639188420494,130000,70.53327488899231
140000,"[2060.0, (0.0, 320.0)]",17,0.9190000000026668,0.13481324805693,140000,70.93301892280579
150000,"[2060.0, (0.0, 220.0)]",18,0.9100000000029631,0.13109773403855507,150000,71.25180697441101
160000,"[2500.0, (60.0, 360.0)]",14,0.9010000000032594,0.12958093487273437,160000,71.52956581115723
170000,"[2560.0, (40.0, 360.0)]",14,0.8920000000035557,0.14302156227298546,170000,72.18357396125793
180000,"[2620.0, (40.0, 360.0)]",13,0.883000000003852,0.1348355308661703,180000,72.52675604820251
190000,"[2360.0, (20.0, 360.0)]",14,0.8740000000041483,0.13475331554072909,190000,73.06949281692505
200000,"[2600.0, (20.0, 440.0)]",14,0.8650000000044447,0.14714845562982373,200000,73.36151695251465
210000,"[2240.0, (40.0, 340.0)]",16,0.856000000004741,0.13878857016395776,210000,73.97131109237671
220000,"[2600.0, (60.0, 460.0)]",14,0.8470000000050373,0.14748590267356484,220000,74.70095705986023
230000,"[2620.0, (40.0, 420.0)]",14,0.8380000000053336,0.14199531251185107,230000,74.31985592842102
240000,"[2740.0, (100.0, 280.0)]",14,0.8290000000056299,0.14862174144037998,240000,75.05100107192993
250000,"[2500.0, (40.0, 320.0)]",16,0.8200000000059262,0.1511184296943713,250000,75.87031078338623
260000,"[2900.0, (100.0, 380.0)]",12,0.8110000000062225,0.1594643478140235,260000,76.48256492614746
270000,"[3140.0, (160.0, 440.0)]",14,0.8020000000065188,0.16409243371952326,270000,76.9877860546112
280000,"[2840.0, (120.0, 340.0)]",13,0.7930000000068151,0.16765411304924638,280000,77.23812580108643
290000,"[2880.0, (80.0, 420.0)]",12,0.7840000000071115,0.16169535660911352,290000,77.73084592819214
300000,"[2920.0, (120.0, 420.0)]",14,0.7750000000074078,0.16723434057696723,300000,78.171865940094
310000,"[2820.0, (40.0, 460.0)]",14,0.7660000000077041,0.17134713065726684,310000,78.72105002403259
320000,"[2880.0, (100.0, 400.0)]",13,0.7570000000080004,0.18728940126760862,320000,79.17851996421814
330000,"[2860.0, (100.0, 360.0)]",13,0.7480000000082967,0.18173808179032058,330000,79.71346497535706
340000,"[2880.0, (80.0, 300.0)]",15,0.739000000008593,0.18606258883471602,340000,80.2245180606842
350000,"[2840.0, (100.0, 480.0)]",13,0.7300000000088893,0.193583203697484,350000,80.76700210571289
360000,"[2780.0, (120.0, 460.0)]",14,0.7210000000091856,0.188494341991283,360000,81.40995812416077
370000,"[2960.0, (80.0, 300.0)]",16,0.7120000000094819,0.19111581872580574,370000,81.90374112129211
380000,"[2900.0, (100.0, 280.0)]",16,0.7030000000097782,0.19524246702217496,380000,82.50055503845215
390000,"[3100.0, (140.0, 400.0)]",14,0.6940000000100746,0.19573176830867306,390000,82.74374794960022
400000,"[2880.0, (120.0, 300.0)]",16,0.6850000000103709,0.19431510514924302,400000,83.20554399490356
410000,"[3260.0, (100.0, 360.0)]",14,0.6760000000106672,0.19628759779129176,400000,83.80845785140991
420000,"[3180.0, (120.0, 440.0)]",15,0.6670000000109635,0.1993067112314515,400000,83.99176716804504
430000,"[3100.0, (160.0, 300.0)]",13,0.6580000000112598,0.19413754371888936,400000,83.465980052948
440000,"[3140.0, (120.0, 380.0)]",15,0.6490000000115561,0.19604313461277634,400000,84.19504904747009
450000,"[2960.0, (100.0, 340.0)]",14,0.6400000000118524,0.20520645884452388,400000,84.25472712516785
460000,"[3260.0, (120.0, 360.0)]",12,0.6310000000121487,0.20274236519895494,400000,84.05441904067993
470000,"[3220.0, (140.0, 320.0)]",14,0.622000000012445,0.20302658817330374,400000,84.30410289764404
480000,"[3060.0, (100.0, 520.0)]",12,0.6130000000127414,0.20556266454383731,400000,84.15393710136414
490000,"[2900.0, (100.0, 420.0)]",13,0.6040000000130377,0.1976470502711367,400000,84.13150095939636
500000,"[2700.0, (100.0, 260.0)]",16,0.595000000013334,0.1918002150178887,400000,84.62950992584229
510000,"[3240.0, (140.0, 400.0)]",13,0.5860000000136303,0.1851647270171903,400000,84.594309091568
520000,"[3300.0, (160.0, 400.0)]",13,0.5770000000139266,0.1926366408840753,400000,84.65526103973389
530000,"[3180.0, (100.0, 500.0)]",14,0.5680000000142229,0.1888755151304882,400000,84.56511497497559
540000,"[2960.0, (80.0, 360.0)]",14,0.5590000000145192,0.18495267024850473,400000,85.04271602630615
550000,"[3260.0, (140.0, 400.0)]",15,0.5500000000148155,0.179103732404951,400000,84.82644081115723
560000,"[3140.0, (160.0, 360.0)]",13,0.5410000000151118,0.17688841815358028,400000,84.84784889221191
570000,"[3060.0, (80.0, 380.0)]",14,0.5320000000154081,0.18169420738127082,400000,84.98131489753723
580000,"[3360.0, (140.0, 420.0)]",13,0.5230000000157045,0.1812477171863895,400000,84.63449001312256
590000,"[3540.0, (160.0, 400.0)]",13,0.5140000000160008,0.19283571926010773,400000,85.03554010391235
600000,"[3480.0, (80.0, 420.0)]",13,0.5050000000162971,0.18895564794042147,400000,85.11454486846924
610000,"[3200.0, (180.0, 420.0)]",13,0.49600000001634664,0.18226642101481558,400000,85.26262593269348
620000,"[3340.0, (100.0, 620.0)]",11,0.48700000001608784,0.18803747362922876,400000,85.14499402046204
630000,"[3280.0, (120.0, 340.0)]",14,0.47800000001582904,0.19442637614244596,400000,85.43569707870483
640000,"[3400.0, (120.0, 420.0)]",15,0.46900000001557024,0.1889702102508396,400000,85.5751440525055
650000,"[3280.0, (140.0, 320.0)]",14,0.46000000001531144,0.19177415018891916,400000,85.537672996521
660000,"[3460.0, (140.0, 560.0)]",14,0.45100000001505264,0.19892653302773833,400000,85.35201597213745
670000,"[3080.0, (140.0, 300.0)]",14,0.44200000001479384,0.1908109641541727,400000,85.5610921382904
680000,"[3620.0, (140.0, 400.0)]",13,0.43300000001453504,0.20257819762062282,400000,85.43361711502075
690000,"[3440.0, (140.0, 420.0)]",13,0.42400000001427623,0.19994423039332032,400000,85.69238615036011
700000,"[3820.0, (160.0, 480.0)]",14,0.41500000001401743,0.1983142910329625,400000,85.85608100891113
710000,"[3580.0, (140.0, 500.0)]",12,0.40600000001375863,0.20258283867845311,400000,85.94408392906189
720000,"[3640.0, (140.0, 540.0)]",14,0.39700000001349983,0.201836587177217,400000,85.91250801086426
730000,"[3520.0, (180.0, 400.0)]",15,0.38800000001324103,0.2047748855778016,400000,85.77432799339294
740000,"[3320.0, (120.0, 380.0)]",13,0.37900000001298223,0.19954387435335666,400000,86.12255001068115
750000,"[4100.0, (160.0, 540.0)]",13,0.37000000001272343,0.20725019661942498,400000,86.04752898216248
760000,"[3420.0, (220.0, 380.0)]",13,0.36100000001246463,0.20680873651262371,400000,85.9328818321228
770000,"[3520.0, (140.0, 480.0)]",14,0.3520000000122058,0.20086841210825368,400000,84.86894202232361
780000,"[3220.0, (100.0, 360.0)]",15,0.343000000011947,0.20276646397025325,400000,83.52263522148132
790000,"[3380.0, (140.0, 340.0)]",15,0.3340000000116882,0.20060594294276088,400000,78.73578000068665
800000,"[3640.0, (120.0, 440.0)]",13,0.3250000000114294,0.21138290689019487,400000,78.25149583816528
810000,"[3960.0, (180.0, 440.0)]",14,0.3160000000111706,0.20382403965443371,400000,78.23394393920898
820000,"[3620.0, (140.0, 460.0)]",16,0.3070000000109118,0.2032143651753664,400000,77.92847609519958
830000,"[3960.0, (180.0, 360.0)]",14,0.298000000010653,0.20325958481738343,400000,77.98393511772156
840000,"[4000.0, (140.0, 560.0)]",15,0.2890000000103942,0.20352241720333694,400000,78.10402488708496
850000,"[3820.0, (100.0, 340.0)]",14,0.2800000000101354,0.20210548401651904,400000,78.41598296165466
860000,"[4240.0, (140.0, 440.0)]",16,0.2710000000098766,0.20768420691275968,400000,78.47671794891357
870000,"[4220.0, (180.0, 540.0)]",14,0.2620000000096178,0.21024687817376106,400000,78.45981884002686
880000,"[4220.0, (140.0, 360.0)]",18,0.253000000009359,0.20756623539989813,400000,78.45416498184204
890000,"[4260.0, (200.0, 420.0)]",14,0.24400000000928526,0.20517366514536553,400000,78.36646604537964
900000,"[4080.0, (140.0, 500.0)]",16,0.23500000000930402,0.2151169367757626,400000,78.2319848537445
910000,"[4300.0, (140.0, 360.0)]",16,0.22600000000932277,0.21579163218461908,400000,78.16683101654053
920000,"[3980.0, (140.0, 420.0)]",16,0.21700000000934153,0.22694218785329723,400000,78.45292687416077
930000,"[4080.0, (140.0, 420.0)]",15,0.20800000000936028,0.22062901765219867,400000,78.35274195671082
940000,"[4320.0, (140.0, 520.0)]",16,0.19900000000937904,0.21443438504924997,400000,78.57565903663635
950000,"[4000.0, (140.0, 500.0)]",15,0.1900000000093978,0.22516576810311525,400000,78.47149395942688
960000,"[4600.0, (160.0, 540.0)]",16,0.18100000000941655,0.22519351557083428,400000,78.30086398124695
970000,"[4220.0, (120.0, 460.0)]",16,0.1720000000094353,0.22508400394739583,400000,78.46993589401245
980000,"[4580.0, (140.0, 600.0)]",14,0.16300000000945405,0.22104121876857244,400000,78.8416850566864
990000,"[4440.0, (160.0, 560.0)]",16,0.1540000000094728,0.2253020956958644,400000,78.7749490737915
1000000,"[4360.0, (160.0, 380.0)]",16,0.14500000000949156,0.23078969895727933,400000,78.84691381454468
1010000,"[4320.0, (180.0, 400.0)]",16,0.13600000000951032,0.2256884170310572,400000,78.84852504730225
1020000,"[4480.0, (120.0, 640.0)]",14,0.12700000000952907,0.22838435535309837,400000,78.90049409866333
1030000,"[4500.0, (180.0, 560.0)]",15,0.11800000000954783,0.22701580675216393,400000,78.40117192268372
1040000,"[4660.0, (220.0, 480.0)]",13,0.10900000000956658,0.24431891674231737,400000,78.86206603050232
1050000,"[4460.0, (160.0, 440.0)]",16,0.10000000000958534,0.2411796220655553,400000,78.90365195274353
1060000,"[4440.0, (180.0, 420.0)]",15,0.09999910000958534,0.25192305282326416,400000,79.0234580039978
1070000,"[4360.0, (160.0, 620.0)]",15,0.09999910000958534,0.249771169688832,400000,78.8727879524231
1080000,"[4860.0, (200.0, 460.0)]",15,0.09999910000958534,0.24455803240537644,400000,79.03388690948486
1090000,"[4540.0, (180.0, 660.0)]",15,0.09999910000958534,0.24341494165929034,400000,78.22389006614685
1100000,"[4860.0, (180.0, 600.0)]",15,0.09999910000958534,0.23242310937978328,400000,79.12061810493469
1110000,"[4300.0, (180.0, 500.0)]",16,0.09999910000958534,0.23919569251956418,400000,79.21238613128662
1120000,"[4660.0, (160.0, 460.0)]",15,0.09999910000958534,0.24152682456132024,400000,79.10190200805664
1130000,"[4640.0, (180.0, 580.0)]",16,0.09999910000958534,0.246428014722839,400000,79.21616411209106
1140000,"[4440.0, (180.0, 520.0)]",16,0.09999910000958534,0.24331234800470994,400000,79.30731415748596
1150000,"[4460.0, (180.0, 540.0)]",15,0.09999910000958534,0.24649751111990773,400000,78.90110206604004
1160000,"[4540.0, (200.0, 400.0)]",16,0.09999910000958534,0.2462801922813989,400000,79.29698204994202
1170000,"[4960.0, (200.0, 500.0)]",15,0.09999910000958534,0.24874838380832226,400000,79.21696186065674
1180000,"[4380.0, (180.0, 580.0)]",15,0.09999910000958534,0.24942943865563721,400000,79.06164884567261
1190000,"[4840.0, (180.0, 640.0)]",15,0.09999910000958534,0.25413144472790883,400000,79.2803909778595
1200000,"[4800.0, (180.0, 520.0)]",14,0.09999910000958534,0.24901946286242455,400000,79.09400391578674
1210000,"[5020.0, (220.0, 600.0)]",14,0.09999910000958534,0.2476534944234416,400000,79.39710807800293
1220000,"[4960.0, (180.0, 580.0)]",14,0.09999910000958534,0.2567886181227863,400000,78.72201204299927
1230000,"[4660.0, (200.0, 700.0)]",13,0.09999910000958534,0.24008834591293707,400000,79.3690710067749
1240000,"[4600.0, (200.0, 600.0)]",13,0.09999910000958534,0.23999283880740405,400000,79.14757895469666
1250000,"[4980.0, (200.0, 560.0)]",14,0.09999910000958534,0.24185999435177072,400000,79.36954092979431
1260000,"[4760.0, (200.0, 360.0)]",15,0.09999910000958534,0.24250719255954029,400000,79.00598311424255
1270000,"[4660.0, (160.0, 520.0)]",15,0.09999910000958534,0.24127222430920228,400000,78.97255897521973
1280000,"[5040.0, (200.0, 480.0)]",16,0.09999910000958534,0.24035184395937248,400000,79.07421112060547
1290000,"[5060.0, (220.0, 600.0)]",14,0.09999910000958534,0.23068208371624352,400000,79.04091596603394
1300000,"[5140.0, (240.0, 580.0)]",15,0.09999910000958534,0.2317514816412702,400000,79.10687398910522
1310000,"[5160.0, (180.0, 580.0)]",14,0.09999910000958534,0.2408689671169035,400000,79.29416394233704
1320000,"[5040.0, (180.0, 480.0)]",14,0.09999910000958534,0.23734059164458884,400000,79.12909698486328
1330000,"[5540.0, (240.0, 600.0)]",15,0.09999910000958534,0.24398235118491576,400000,79.20109987258911
1340000,"[5120.0, (220.0, 640.0)]",14,0.09999910000958534,0.22401932109044864,400000,79.09563398361206
1350000,"[4900.0, (180.0, 500.0)]",16,0.09999910000958534,0.23037918199868873,400000,78.88231897354126
1360000,"[5080.0, (220.0, 520.0)]",15,0.09999910000958534,0.22548978469688447,400000,79.26566410064697
1370000,"[5060.0, (220.0, 620.0)]",14,0.09999910000958534,0.23680903605371714,400000,79.32463693618774
1380000,"[5360.0, (200.0, 520.0)]",14,0.09999910000958534,0.2331930592929013,400000,79.20059418678284
1390000,"[4780.0, (200.0, 500.0)]",15,0.09999910000958534,0.2305866178846918,400000,78.99165606498718
1400000,"[5080.0, (240.0, 580.0)]",13,0.09999910000958534,0.2350306761952117,400000,79.17690205574036
1410000,"[5340.0, (160.0, 740.0)]",13,0.09999910000958534,0.2367800080901012,400000,79.07673192024231
1420000,"[5060.0, (260.0, 680.0)]",13,0.09999910000958534,0.23475995652955026,400000,79.17820811271667
1430000,"[5460.0, (200.0, 760.0)]",12,0.09999910000958534,0.24240095182061194,400000,79.17351794242859
1440000,"[4800.0, (240.0, 540.0)]",13,0.09999910000958534,0.24168079065633938,400000,79.27467393875122
1450000,"[5120.0, (200.0, 540.0)]",15,0.09999910000958534,0.24970979954628275,400000,79.18114995956421
1460000,"[5340.0, (160.0, 760.0)]",12,0.09999910000958534,0.23914844384156167,400000,79.29831886291504
1470000,"[5060.0, (240.0, 600.0)]",14,0.09999910000958534,0.233504788958095,400000,78.97728204727173
1480000,"[5340.0, (180.0, 660.0)]",12,0.09999910000958534,0.24347799104135484,400000,79.00718688964844
1490000,"[5300.0, (200.0, 740.0)]",11,0.09999910000958534,0.23583968643844128,400000,79.15487885475159
1500000,"[5160.0, (340.0, 620.0)]",12,0.09999910000958534,0.2391934145960957,400000,79.0691249370575
1510000,"[5340.0, (340.0, 940.0)]",12,0.09999910000958534,0.2427294929358177,400000,78.87078404426575
1520000,"[5620.0, (180.0, 620.0)]",13,0.09999910000958534,0.24317182162497192,400000,78.99691915512085
1530000,"[5440.0, (200.0, 760.0)]",12,0.09999910000958534,0.23501685734521596,400000,78.97283101081848
1540000,"[5180.0, (220.0, 720.0)]",12,0.09999910000958534,0.230686817606166,400000,79.35436701774597
1550000,"[5320.0, (220.0, 580.0)]",14,0.09999910000958534,0.232774755028449,400000,79.53487992286682
1560000,"[4680.0, (200.0, 580.0)]",14,0.09999910000958534,0.22639157016538083,400000,79.21664214134216
1570000,"[5280.0, (280.0, 540.0)]",12,0.09999910000958534,0.2188432394565083,400000,79.4008948802948
1580000,"[5860.0, (200.0, 740.0)]",13,0.09999910000958534,0.23148442331226543,400000,79.13846206665039
1590000,"[5200.0, (260.0, 660.0)]",13,0.09999910000958534,0.2300908527505584,400000,79.18186902999878
1600000,"[5940.0, (220.0, 940.0)]",13,0.09999910000958534,0.21996317386655137,400000,79.26842784881592
1610000,"[5760.0, (240.0, 800.0)]",12,0.09999910000958534,0.22282353345640005,400000,79.2777738571167
1620000,"[5680.0, (280.0, 700.0)]",12,0.09999910000958534,0.22671694699395448,400000,79.2971179485321
1630000,"[5540.0, (240.0, 620.0)]",12,0.09999910000958534,0.21896026377649977,400000,79.14637088775635
1640000,"[6460.0, (300.0, 980.0)]",10,0.09999910000958534,0.22491370207099243,400000,79.18901491165161
1650000,"[5780.0, (320.0, 780.0)]",11,0.09999910000958534,0.23364796826671808,400000,79.22607088088989
1660000,"[5560.0, (340.0, 880.0)]",10,0.09999910000958534,0.23464273875821381,400000,79.01308107376099
1670000,"[5680.0, (400.0, 920.0)]",10,0.09999910000958534,0.2246092705710791,400000,78.94903802871704
1680000,"[5820.0, (260.0, 760.0)]",11,0.09999910000958534,0.23084255029447376,400000,79.10761308670044
1690000,"[5600.0, (280.0, 920.0)]",11,0.09999910000958534,0.2391098038728349,400000,79.35561323165894
1700000,"[5500.0, (300.0, 680.0)]",12,0.09999910000958534,0.24203161825425923,400000,78.5538649559021
1710000,"[6060.0, (300.0, 800.0)]",11,0.09999910000958534,0.2508052598051727,400000,77.31439208984375
1720000,"[5900.0, (300.0, 840.0)]",12,0.09999910000958534,0.2501295824281871,400000,77.5707540512085
1730000,"[5620.0, (240.0, 740.0)]",12,0.09999910000958534,0.251035640232265,400000,79.2242419719696
1740000,"[5940.0, (320.0, 740.0)]",12,0.09999910000958534,0.24542642280543223,400000,79.32523798942566
1750000,"[5480.0, (240.0, 680.0)]",13,0.09999910000958534,0.2560964309264906,400000,78.4016010761261
1760000,"[5620.0, (360.0, 1060.0)]",11,0.09999910000958534,0.25955941359475254,400000,78.96794390678406
1770000,"[5380.0, (340.0, 800.0)]",11,0.09999910000958534,0.262961624481529,400000,78.70747804641724
1780000,"[5740.0, (340.0, 740.0)]",10,0.09999910000958534,0.25987487582741303,400000,78.95651292800903
1790000,"[5300.0, (320.0, 800.0)]",12,0.09999910000958534,0.2636606793928891,400000,79.22865104675293
1800000,"[5980.0, (200.0, 860.0)]",10,0.09999910000958534,0.26239070088211447,400000,79.20665383338928
1810000,"[6040.0, (460.0, 720.0)]",10,0.09999910000958534,0.26899571878071876,400000,79.28169989585876
1820000,"[5680.0, (440.0, 900.0)]",9,0.09999910000958534,0.2805503124888986,400000,79.19982099533081
1830000,"[5980.0, (320.0, 980.0)]",12,0.09999910000958534,0.2719821358011104,400000,79.19259691238403
1840000,"[6020.0, (400.0, 920.0)]",10,0.09999910000958534,0.2691808360736817,400000,78.8945848941803
1850000,"[5740.0, (360.0, 760.0)]",10,0.09999910000958534,0.2802084100300446,400000,79.06457996368408
1860000,"[5520.0, (340.0, 780.0)]",11,0.09999910000958534,0.27690010464675724,400000,78.89440608024597
1870000,"[6040.0, (340.0, 720.0)]",11,0.09999910000958534,0.2716553069198504,400000,79.09714913368225
1880000,"[6100.0, (340.0, 760.0)]",11,0.09999910000958534,0.2745656886909157,400000,78.95478320121765
1890000,"[5540.0, (280.0, 780.0)]",10,0.09999910000958534,0.2800674225209281,400000,78.7777509689331
1900000,"[5700.0, (340.0, 740.0)]",11,0.09999910000958534,0.277563572463952,400000,79.00212502479553
1910000,"[5840.0, (180.0, 1120.0)]",9,0.09999910000958534,0.27990100435372445,400000,79.27205801010132
1920000,"[5600.0, (320.0, 740.0)]",11,0.09999910000958534,0.2799226099152118,400000,78.9816370010376
1930000,"[6220.0, (400.0, 1000.0)]",10,0.09999910000958534,0.27723161393608897,400000,79.27091598510742
1940000,"[5920.0, (380.0, 740.0)]",10,0.09999910000958534,0.2768357049420476,400000,78.94353795051575
1950000,"[5740.0, (340.0, 980.0)]",10,0.09999910000958534,0.27877275413554164,400000,79.29899096488953
1960000,"[5540.0, (340.0, 820.0)]",10,0.09999910000958534,0.26972058817017824,400000,78.9250259399414
1970000,"[5780.0, (440.0, 940.0)]",8,0.09999910000958534,0.2880425442365929,400000,79.14213991165161
1980000,"[6300.0, (380.0, 720.0)]",10,0.09999910000958534,0.29067573850099,400000,79.3601930141449
1990000,"[6060.0, (340.0, 920.0)]",10,0.09999910000958534,0.29860472144652156,400000,79.06862998008728
2000000,"[5920.0, (320.0, 1040.0)]",10,0.09999910000958534,0.30161550281532107,400000,79.08320903778076
2010000,"[6100.0, (600.0, 1040.0)]",8,0.09999910000958534,0.3073109700154513,400000,79.34932613372803
2020000,"[7580.0, (300.0, 1900.0)]",9,0.09999910000958534,0.3264147384043783,400000,79.26638603210449
2030000,"[5960.0, (240.0, 1060.0)]",11,0.09999910000958534,0.33151720503065735,400000,79.40653705596924
2040000,"[6240.0, (380.0, 1020.0)]",9,0.09999910000958534,0.33727402489949015,400000,79.30007791519165
2050000,"[5840.0, (380.0, 1020.0)]",9,0.09999910000958534,0.3497302847025916,400000,78.76703786849976
2060000,"[6000.0, (200.0, 760.0)]",11,0.09999910000958534,0.36932998552396895,400000,79.14483308792114
2070000,"[5980.0, (380.0, 960.0)]",9,0.09999910000958534,0.38034783183243126,400000,78.80848407745361
2080000,"[6160.0, (320.0, 840.0)]",9,0.09999910000958534,0.3822855225492269,400000,79.10557413101196
2090000,"[5740.0, (300.0, 1120.0)]",9,0.09999910000958534,0.3821324421133846,400000,79.25007677078247
2100000,"[5560.0, (360.0, 1000.0)]",10,0.09999910000958534,0.3750277859926224,400000,79.28283596038818
2110000,"[6060.0, (340.0, 780.0)]",8,0.09999910000958534,0.38471502694636583,400000,78.77813601493835
2120000,"[5920.0, (460.0, 1100.0)]",9,0.09999910000958534,0.388018385306187,400000,79.11925888061523
2130000,"[6080.0, (280.0, 1140.0)]",8,0.09999910000958534,0.3928411134170368,400000,79.16414284706116
2140000,"[5840.0, (240.0, 1080.0)]",10,0.09999910000958534,0.423673628821969,400000,79.09543800354004
2150000,"[5160.0, (320.0, 860.0)]",9,0.09999910000958534,0.41170092543810605,400000,79.04173803329468
2160000,"[5320.0, (240.0, 900.0)]",8,0.09999910000958534,0.41396244435478,400000,79.12229609489441
2170000,"[5940.0, (240.0, 980.0)]",9,0.09999910000958534,0.42608700283505024,400000,78.55625891685486
2180000,"[5700.0, (340.0, 760.0)]",9,0.09999910000958534,0.44024941551573576,400000,79.17582106590271
2190000,"[6160.0, (420.0, 1000.0)]",9,0.09999910000958534,0.44364316531196235,400000,79.12596917152405
2200000,"[5540.0, (220.0, 960.0)]",11,0.09999910000958534,0.4354942071493715,400000,79.31309509277344
2210000,"[5320.0, (420.0, 740.0)]",9,0.09999910000958534,0.4375309077968821,400000,79.09798908233643
2220000,"[5320.0, (420.0, 860.0)]",8,0.09999910000958534,0.41735343325734137,400000,79.19045805931091
2230000,"[5660.0, (440.0, 800.0)]",9,0.09999910000958534,0.442842206084542,400000,79.04969787597656
2240000,"[6400.0, (480.0, 960.0)]",8,0.09999910000958534,0.47297488543614746,400000,79.20388698577881
2250000,"[6240.0, (300.0, 1100.0)]",8,0.09999910000958534,0.41350551111772654,400000,79.12359499931335
2260000,"[5940.0, (360.0, 920.0)]",10,0.09999910000958534,0.46504229384381324,400000,79.23224902153015
2270000,"[5940.0, (480.0, 840.0)]",9,0.09999910000958534,0.39793724099621175,400000,79.10035395622253
2280000,"[6000.0, (400.0, 1300.0)]",7,0.09999910000958534,0.4257850364252925,400000,79.21926093101501
2290000,"[5400.0, (280.0, 760.0)]",10,0.09999910000958534,0.41081370426751673,400000,78.87920498847961
2300000,"[5120.0, (300.0, 940.0)]",9,0.09999910000958534,0.498176390427351,400000,79.07159805297852
2310000,"[5580.0, (440.0, 780.0)]",9,0.09999910000958534,0.43482465495727957,400000,78.90363717079163
2320000,"[5580.0, (380.0, 1480.0)]",9,0.09999910000958534,0.4535062841584906,400000,79.15977191925049
2330000,"[6220.0, (320.0, 1020.0)]",7,0.09999910000958534,0.45163260620869694,400000,79.12978792190552
2340000,"[6200.0, (500.0, 920.0)]",9,0.09999910000958534,0.4446193361140788,400000,78.84889698028564
2350000,"[5540.0, (340.0, 940.0)]",9,0.09999910000958534,0.4536196107868105,400000,79.3040668964386
2360000,"[6500.0, (260.0, 1320.0)]",9,0.09999910000958534,0.4357597876075655,400000,79.14636015892029
2370000,"[6380.0, (400.0, 1600.0)]",8,0.09999910000958534,0.4360929632522166,400000,79.19425702095032
2380000,"[6380.0, (440.0, 960.0)]",8,0.09999910000958534,0.5038594975631684,400000,79.35167002677917
2390000,"[6260.0, (380.0, 1260.0)]",9,0.09999910000958534,0.4620448440220207,400000,79.38568902015686
2400000,"[6120.0, (380.0, 1020.0)]",8,0.09999910000958534,0.4896007467987016,400000,79.25995802879333
2410000,"[6300.0, (440.0, 840.0)]",9,0.09999910000958534,0.43625552567094567,400000,78.81479907035828
2420000,"[6320.0, (660.0, 1000.0)]",7,0.09999910000958534,0.471050606857799,400000,78.59962391853333
2430000,"[6950.0, (320.0, 2150.0)]",10,0.09999910000958534,0.42789412295110524,400000,79.13183188438416
2440000,"[6400.0, (400.0, 1320.0)]",8,0.09999910000958534,0.42003278361614793,400000,79.26616883277893
2450000,"[5260.0, (260.0, 1040.0)]",11,0.09999910000958534,0.42720163052864374,400000,79.15775799751282
2460000,"[5920.0, (340.0, 1220.0)]",8,0.09999910000958534,0.4359225137008354,400000,79.15977716445923
2470000,"[6540.0, (480.0, 1140.0)]",10,0.09999910000958534,0.43212158276941626,400000,79.18528199195862
2480000,"[5800.0, (440.0, 1080.0)]",9,0.09999910000958534,0.43036407759860157,400000,79.06907391548157
2490000,"[5960.0, (500.0, 1380.0)]",6,0.09999910000958534,0.45980736706480385,400000,79.15872502326965
2500000,"[6660.0, (600.0, 1300.0)]",8,0.09999910000958534,0.4455615628693253,400000,79.00611591339111
2510000,"[6500.0, (360.0, 1280.0)]",8,0.09999910000958534,0.45550601768046617,400000,78.74286985397339
2520000,"[7440.0, (260.0, 2340.0)]",8,0.09999910000958534,0.5134726378172636,400000,79.21654987335205
2530000,"[5720.0, (280.0, 900.0)]",10,0.09999910000958534,0.5125153665391728,400000,79.23243999481201
2540000,"[5980.0, (560.0, 980.0)]",8,0.09999910000958534,0.508086874140799,400000,79.16255378723145
2550000,"[6420.0, (540.0, 920.0)]",9,0.09999910000958534,0.49356624329388143,400000,79.2568871974945
2560000,"[5940.0, (320.0, 980.0)]",9,0.09999910000958534,0.4953497600387782,400000,79.3299400806427
2570000,"[5920.0, (460.0, 1060.0)]",9,0.09999910000958534,0.5225885766342282,400000,79.22516584396362
2580000,"[6600.0, (340.0, 1360.0)]",7,0.09999910000958534,0.6108514035601169,400000,79.24438309669495
2590000,"[6060.0, (560.0, 1320.0)]",8,0.09999910000958534,0.5178874284677207,400000,79.16391491889954
2600000,"[6640.0, (460.0, 1460.0)]",7,0.09999910000958534,0.5572793368369341,400000,79.0681700706482
2610000,"[6660.0, (460.0, 1240.0)]",8,0.09999910000958534,0.5456587664118037,400000,79.1376850605011
2620000,"[6460.0, (520.0, 1300.0)]",8,0.09999910000958534,0.5322380891390145,400000,79.14309096336365
2630000,"[6460.0, (540.0, 1540.0)]",7,0.09999910000958534,0.5009418939691037,400000,79.17170691490173
2640000,"[6360.0, (640.0, 1060.0)]",7,0.09999910000958534,0.5283295888472348,400000,79.11617493629456
2650000,"[6240.0, (240.0, 1080.0)]",8,0.09999910000958534,0.4990212181039155,400000,78.83332204818726
2660000,"[6420.0, (640.0, 1120.0)]",8,0.09999910000958534,0.5211499247532337,400000,78.86881899833679
2670000,"[6460.0, (320.0, 980.0)]",10,0.09999910000958534,0.5058750140767545,400000,78.74120092391968
2680000,"[6220.0, (500.0, 1280.0)]",8,0.09999910000958534,0.5197243720974773,400000,78.91125392913818
2690000,"[6660.0, (600.0, 920.0)]",9,0.09999910000958534,0.5611120540827512,400000,79.01377010345459
2700000,"[6220.0, (540.0, 1200.0)]",8,0.09999910000958534,0.5587559114869683,400000,78.87110590934753
2710000,"[6440.0, (460.0, 920.0)]",9,0.09999910000958534,0.504014571583271,400000,79.11136102676392
2720000,"[6860.0, (660.0, 1240.0)]",6,0.09999910000958534,0.48643878390677275,400000,79.23869705200195
2730000,"[6560.0, (720.0, 1260.0)]",7,0.09999910000958534,0.483638994410634,400000,79.17631721496582
2740000,"[7160.0, (720.0, 1360.0)]",7,0.09999910000958534,0.4740551347706467,400000,79.1527509689331
2750000,"[7180.0, (640.0, 1100.0)]",8,0.09999910000958534,0.5044150675300508,400000,79.31344199180603
2760000,"[7080.0, (600.0, 1140.0)]",8,0.09999910000958534,0.4972407247621566,400000,79.419193983078
2770000,"[7000.0, (460.0, 1260.0)]",8,0.09999910000958534,0.4852538287691772,400000,79.27164602279663
2780000,"[7020.0, (320.0, 1280.0)]",8,0.09999910000958534,0.4902019534174353,400000,79.15032410621643
2790000,"[6740.0, (500.0, 1120.0)]",8,0.09999910000958534,0.46130228404141965,400000,79.09044003486633
2800000,"[6580.0, (420.0, 1300.0)]",8,0.09999910000958534,0.4832681443683803,400000,79.02817296981812
2810000,"[6800.0, (340.0, 1080.0)]",10,0.09999910000958534,0.45929947020225226,400000,79.0135018825531
2820000,"[7570.0, (360.0, 1670.0)]",7,0.09999910000958534,0.5061629961721599,400000,79.2289228439331
2830000,"[7060.0, (300.0, 1280.0)]",8,0.09999910000958534,0.46850692524537446,400000,79.17179083824158
2840000,"[7040.0, (480.0, 1440.0)]",9,0.09999910000958534,0.4818576095327735,400000,79.26729893684387
2850000,"[7800.0, (580.0, 1980.0)]",8,0.09999910000958534,0.4754151602298021,400000,79.02450609207153
2860000,"[7120.0, (700.0, 1340.0)]",7,0.09999910000958534,0.4592114365898073,400000,79.27183198928833
2870000,"[7260.0, (380.0, 1020.0)]",8,0.09999910000958534,0.4792034454129636,400000,79.01653599739075
2880000,"[7260.0, (500.0, 1200.0)]",9,0.09999910000958534,0.45526749209538103,400000,79.30759811401367
2890000,"[6640.0, (380.0, 1260.0)]",8,0.09999910000958534,0.43809684916883707,400000,79.1391088962555
2900000,"[6480.0, (360.0, 1560.0)]",8,0.09999910000958534,0.4687101781394333,400000,78.99134397506714
2910000,"[7200.0, (420.0, 1260.0)]",8,0.09999910000958534,0.4475589861985296,400000,79.33442282676697
2920000,"[7180.0, (560.0, 1120.0)]",8,0.09999910000958534,0.44846037973836067,400000,79.10061192512512
2930000,"[7440.0, (460.0, 1340.0)]",8,0.09999910000958534,0.47811174358390274,400000,79.21409487724304
2940000,"[7260.0, (500.0, 1260.0)]",7,0.09999910000958534,0.4877661828026176,400000,78.92890310287476
2950000,"[6800.0, (380.0, 1320.0)]",10,0.09999910000958534,0.46823673121668397,400000,79.12864518165588
2960000,"[7180.0, (460.0, 1340.0)]",9,0.09999910000958534,0.4698512213137001,400000,79.01870107650757
2970000,"[7520.0, (640.0, 1440.0)]",7,0.09999910000958534,0.45228231444731354,400000,79.20674705505371
2980000,"[8060.0, (700.0, 1340.0)]",8,0.09999910000958534,0.4771656333770603,400000,79.16211199760437
2990000,"[7620.0, (740.0, 1300.0)]",7,0.09999910000958534,0.4597186032000929,400000,79.2032561302185
3000000,"[7180.0, (480.0, 1240.0)]",8,0.09999910000958534,0.4524150673199445,400000,79.06640291213989
