All frames,Reward,Episodes,Epsilon,Avg. loss,Memory size,Time
10000,"[1380.0, (0.0, 180.0)]",19,1.0,0.0,10000,7.369881868362427
20000,"[1460.0, (0.0, 180.0)]",19,1.0,0.0,20000,7.397758960723877
30000,"[1380.0, (0.0, 220.0)]",19,1.0,0.0,30000,7.699512958526611
40000,"[1460.0, (20.0, 200.0)]",20,1.0,0.0,40000,7.3982720375061035
50000,"[1280.0, (0.0, 160.0)]",21,1.0,0.0,50000,7.491314888000488
60000,"[1240.0, (20.0, 220.0)]",19,0.9910000000002963,0.04155712005476343,60000,41.941580057144165
70000,"[1760.0, (0.0, 380.0)]",17,0.9820000000005926,0.038246525156253486,70000,40.442087173461914
80000,"[1700.0, (0.0, 200.0)]",18,0.9730000000008889,0.039107270434399835,80000,40.651785135269165
90000,"[1680.0, (0.0, 220.0)]",18,0.9640000000011852,0.04060406571250642,90000,40.86916399002075
100000,"[1920.0, (0.0, 320.0)]",15,0.9550000000014816,0.04298331162328832,100000,41.15934205055237
110000,"[1760.0, (0.0, 320.0)]",17,0.9460000000017779,0.045159676921507345,110000,41.33088517189026
120000,"[1880.0, (20.0, 360.0)]",16,0.9370000000020742,0.04552421089899726,120000,41.50747203826904
130000,"[2020.0, (20.0, 260.0)]",18,0.9280000000023705,0.0514580925994087,130000,41.73336482048035
140000,"[2000.0, (0.0, 240.0)]",17,0.9190000000026668,0.052862689234502616,140000,41.84303689002991
150000,"[2160.0, (20.0, 320.0)]",16,0.9100000000029631,0.056037382334005084,150000,41.90701699256897
160000,"[2240.0, (40.0, 260.0)]",14,0.9010000000032594,0.05758156987447292,160000,42.09524989128113
170000,"[2360.0, (20.0, 320.0)]",16,0.8920000000035557,0.061054655385110526,170000,42.18042993545532
180000,"[2460.0, (40.0, 520.0)]",12,0.883000000003852,0.06634853685442359,180000,42.282410860061646
190000,"[2260.0, (60.0, 280.0)]",14,0.8740000000041483,0.06915216146390885,190000,42.52893900871277
200000,"[2260.0, (80.0, 300.0)]",14,0.8650000000044447,0.07808894139826297,200000,42.640270948410034
210000,"[2640.0, (80.0, 340.0)]",13,0.856000000004741,0.08252761359252035,210000,42.989272117614746
220000,"[2300.0, (40.0, 320.0)]",15,0.8470000000050373,0.08993550731912256,220000,43.02010202407837
230000,"[2260.0, (20.0, 200.0)]",16,0.8380000000053336,0.09196102201957256,230000,43.203965187072754
240000,"[2340.0, (80.0, 280.0)]",14,0.8290000000056299,0.10005830608271063,240000,43.323771953582764
250000,"[2480.0, (100.0, 320.0)]",13,0.8200000000059262,0.10253263507783413,250000,43.32153797149658
260000,"[2480.0, (80.0, 380.0)]",11,0.8110000000062225,0.1076866925176233,260000,43.3671441078186
270000,"[2720.0, (100.0, 280.0)]",14,0.8020000000065188,0.11377604354806245,270000,43.56702899932861
280000,"[2780.0, (160.0, 380.0)]",11,0.7930000000068151,0.12538298880308865,280000,43.95820689201355
290000,"[2380.0, (60.0, 380.0)]",14,0.7840000000071115,0.13270953835621477,290000,43.75235080718994
300000,"[2500.0, (80.0, 380.0)]",13,0.7750000000074078,0.1348577918820083,300000,44.00397086143494
310000,"[2520.0, (60.0, 360.0)]",15,0.7660000000077041,0.12899544529244303,310000,44.19193482398987
320000,"[2680.0, (100.0, 380.0)]",13,0.7570000000080004,0.13456591966599227,320000,44.359795808792114
330000,"[2740.0, (60.0, 360.0)]",13,0.7480000000082967,0.13710614249035716,330000,44.54482388496399
340000,"[2560.0, (20.0, 300.0)]",14,0.739000000008593,0.15645129608660938,340000,44.60898685455322
350000,"[2780.0, (100.0, 500.0)]",12,0.7300000000088893,0.14483138548657298,350000,44.761114835739136
360000,"[2660.0, (80.0, 240.0)]",15,0.7210000000091856,0.15106708128377797,360000,45.121901988983154
370000,"[2980.0, (120.0, 520.0)]",13,0.7120000000094819,0.14400281081497668,370000,45.34523797035217
380000,"[2800.0, (120.0, 320.0)]",13,0.7030000000097782,0.15118900361545384,380000,45.51270914077759
390000,"[2600.0, (60.0, 280.0)]",14,0.6940000000100746,0.1535585862979293,390000,45.59313702583313
400000,"[2560.0, (0.0, 420.0)]",12,0.6850000000103709,0.16167684860751033,400000,45.72013592720032
410000,"[2620.0, (80.0, 340.0)]",14,0.6760000000106672,0.16044446904808282,400000,45.7459659576416
420000,"[2660.0, (80.0, 400.0)]",14,0.6670000000109635,0.15496763538718222,400000,45.77566313743591
430000,"[2700.0, (60.0, 340.0)]",13,0.6580000000112598,0.15804941200986505,400000,46.04812216758728
440000,"[2500.0, (80.0, 520.0)]",13,0.6490000000115561,0.16583842105045915,400000,46.05686902999878
450000,"[2760.0, (80.0, 360.0)]",12,0.6400000000118524,0.1680150139786303,400000,46.159425020217896
460000,"[2940.0, (60.0, 440.0)]",13,0.6310000000121487,0.1668974828325212,400000,46.30436611175537
470000,"[2900.0, (120.0, 300.0)]",13,0.622000000012445,0.18670113300830127,400000,46.3326051235199
480000,"[2540.0, (80.0, 400.0)]",13,0.6130000000127414,0.1898954389423132,400000,46.106842041015625
490000,"[2940.0, (120.0, 440.0)]",14,0.6040000000130377,0.18264031878188253,400000,45.88584589958191
500000,"[2800.0, (160.0, 460.0)]",11,0.595000000013334,0.17960588837079705,400000,45.92437696456909
510000,"[2760.0, (60.0, 320.0)]",12,0.5860000000136303,0.19416185778453945,400000,46.15344190597534
520000,"[2960.0, (100.0, 480.0)]",13,0.5770000000139266,0.18930889155119657,400000,46.386504888534546
530000,"[2860.0, (140.0, 460.0)]",11,0.5680000000142229,0.1755824955753982,400000,46.41351509094238
540000,"[2880.0, (100.0, 420.0)]",11,0.5590000000145192,0.17615649823918939,400000,46.60688900947571
550000,"[2680.0, (140.0, 360.0)]",11,0.5500000000148155,0.1752705492630601,400000,46.435203075408936
560000,"[3020.0, (140.0, 480.0)]",10,0.5410000000151118,0.19648501530215143,400000,46.82602000236511
570000,"[2940.0, (180.0, 460.0)]",11,0.5320000000154081,0.18462359679937362,400000,46.72910785675049
580000,"[2660.0, (60.0, 400.0)]",12,0.5230000000157045,0.16697731231227517,400000,47.0322380065918
590000,"[2640.0, (60.0, 520.0)]",11,0.5140000000160008,0.16556410678252578,400000,46.93316197395325
600000,"[2560.0, (120.0, 360.0)]",13,0.5050000000162971,0.15621997498646378,400000,47.21893095970154
610000,"[2800.0, (40.0, 500.0)]",11,0.49600000001634664,0.1617147293291986,400000,47.007328033447266
620000,"[2760.0, (100.0, 340.0)]",12,0.48700000001608784,0.14560588466823102,400000,47.464991092681885
630000,"[3060.0, (180.0, 480.0)]",10,0.47800000001582904,0.1538196347169578,400000,46.93705892562866
640000,"[3060.0, (140.0, 480.0)]",10,0.46900000001557024,0.15393739851340651,400000,47.336812019348145
650000,"[3200.0, (180.0, 540.0)]",9,0.46000000001531144,0.1466508972890675,400000,47.489750146865845
660000,"[2860.0, (160.0, 440.0)]",9,0.45100000001505264,0.1481156625278294,400000,47.42437219619751
670000,"[2920.0, (280.0, 560.0)]",7,0.44200000001479384,0.14039404494278132,400000,47.85275101661682
680000,"[2780.0, (160.0, 400.0)]",9,0.43300000001453504,0.13657736557275058,400000,47.72351908683777
690000,"[2900.0, (160.0, 560.0)]",8,0.42400000001427623,0.14344795085154474,400000,47.825238943099976
700000,"[2980.0, (200.0, 560.0)]",8,0.41500000001401743,0.13033681021779775,400000,48.359018087387085
710000,"[3100.0, (160.0, 480.0)]",9,0.40600000001375863,0.13576014546453952,400000,48.37821006774902
720000,"[3140.0, (200.0, 720.0)]",8,0.39700000001349983,0.14125014619007706,400000,48.41017484664917
730000,"[2800.0, (100.0, 640.0)]",10,0.38800000001324103,0.1537183641411364,400000,48.041642904281616
740000,"[2720.0, (140.0, 380.0)]",10,0.37900000001298223,0.14878855018280446,400000,48.470032930374146
750000,"[2620.0, (100.0, 480.0)]",10,0.37000000001272343,0.15223168778568505,400000,48.30639600753784
760000,"[2980.0, (180.0, 620.0)]",9,0.36100000001246463,0.14722187649272384,400000,48.662864208221436
770000,"[2820.0, (220.0, 580.0)]",8,0.3520000000122058,0.14581717094704508,400000,48.596441984176636
780000,"[2860.0, (140.0, 500.0)]",8,0.343000000011947,0.13899999897256493,400000,49.13951802253723
790000,"[3140.0, (240.0, 680.0)]",7,0.3340000000116882,0.13474117518253625,400000,48.47099208831787
800000,"[3080.0, (220.0, 460.0)]",9,0.3250000000114294,0.13330587384440004,400000,48.83241581916809
810000,"[3280.0, (300.0, 600.0)]",7,0.3160000000111706,0.13700983746126294,400000,49.02744102478027
820000,"[3360.0, (240.0, 520.0)]",9,0.3070000000109118,0.11761917344927787,400000,49.12218189239502
830000,"[3380.0, (260.0, 640.0)]",7,0.298000000010653,0.12569829944893718,400000,49.24401021003723
840000,"[3220.0, (220.0, 500.0)]",8,0.2890000000103942,0.11579340095967054,400000,49.52108383178711
850000,"[3200.0, (260.0, 460.0)]",9,0.2800000000101354,0.11647570226825774,400000,49.52045917510986
860000,"[3320.0, (180.0, 520.0)]",8,0.2710000000098766,0.11389805638082326,400000,49.75586915016174
870000,"[3460.0, (280.0, 580.0)]",8,0.2620000000096178,0.11695626607947052,400000,49.73361420631409
880000,"[3480.0, (220.0, 600.0)]",8,0.253000000009359,0.1181134871084243,400000,49.48166608810425
890000,"[3440.0, (300.0, 540.0)]",8,0.24400000000928526,0.1192718636892736,400000,48.99015712738037
900000,"[3740.0, (180.0, 580.0)]",9,0.23500000000930402,0.1188440327629447,400000,49.91039681434631
910000,"[3620.0, (240.0, 640.0)]",9,0.22600000000932277,0.12376281772144139,400000,49.98209500312805
920000,"[3680.0, (180.0, 640.0)]",8,0.21700000000934153,0.10936351062431932,400000,50.3317129611969
930000,"[3320.0, (160.0, 560.0)]",9,0.20800000000936028,0.11797961692288518,400000,50.435120820999146
940000,"[3420.0, (260.0, 660.0)]",8,0.19900000000937904,0.10902192490100861,400000,50.461658000946045
950000,"[3100.0, (140.0, 520.0)]",9,0.1900000000093978,0.11204768069684505,400000,50.042176961898804
960000,"[3440.0, (300.0, 480.0)]",9,0.18100000000941655,0.11148258400745689,400000,50.384660959243774
970000,"[3460.0, (320.0, 640.0)]",8,0.1720000000094353,0.11046827625185252,400000,50.78628993034363
980000,"[3680.0, (220.0, 720.0)]",7,0.16300000000945405,0.1035437059059739,400000,50.75652098655701
990000,"[3860.0, (280.0, 680.0)]",8,0.1540000000094728,0.10896396606415511,400000,51.09624695777893
1000000,"[4000.0, (460.0, 740.0)]",7,0.14500000000949156,0.10633549685813487,400000,51.2113311290741
1010000,"[3800.0, (180.0, 480.0)]",9,0.13600000000951032,0.11429485942609609,400000,51.49297904968262
1020000,"[3600.0, (120.0, 580.0)]",10,0.12700000000952907,0.11274399587102234,400000,51.58729910850525
1030000,"[4040.0, (240.0, 740.0)]",8,0.11800000000954783,0.11205857495367527,400000,51.19301915168762
1040000,"[4060.0, (320.0, 760.0)]",7,0.10900000000956658,0.10579734259992837,400000,51.67324900627136
1050000,"[3500.0, (240.0, 780.0)]",8,0.10000000000958534,0.1092775544013828,400000,51.66162395477295
1060000,"[3500.0, (180.0, 620.0)]",9,0.09999910000958534,0.10702305496409535,400000,51.716103076934814
1070000,"[3780.0, (220.0, 700.0)]",8,0.09999910000958534,0.10435326343029737,400000,51.65828013420105
1080000,"[3760.0, (280.0, 640.0)]",8,0.09999910000958534,0.10763929105773568,400000,51.56938600540161
1090000,"[3840.0, (380.0, 780.0)]",7,0.09999910000958534,0.10351460242047907,400000,51.47135400772095
1100000,"[4060.0, (320.0, 800.0)]",7,0.09999910000958534,0.1023047205235809,400000,51.716707944869995
1110000,"[4000.0, (360.0, 640.0)]",8,0.09999910000958534,0.10479774184636771,400000,51.78608703613281
1120000,"[3760.0, (240.0, 740.0)]",9,0.09999910000958534,0.10291902563981711,400000,51.549885988235474
1130000,"[3800.0, (220.0, 540.0)]",9,0.09999910000958534,0.10040383826121688,400000,51.77074193954468
1140000,"[4060.0, (180.0, 840.0)]",8,0.09999910000958534,0.09725845406278968,400000,51.707884073257446
1150000,"[3980.0, (200.0, 760.0)]",9,0.09999910000958534,0.09904893925599755,400000,51.5450701713562
1160000,"[4000.0, (260.0, 640.0)]",9,0.09999910000958534,0.09841816151663661,400000,51.85393309593201
1170000,"[4740.0, (260.0, 1060.0)]",8,0.09999910000958534,0.10209542719386518,400000,51.4809308052063
1180000,"[4340.0, (320.0, 700.0)]",7,0.09999910000958534,0.09719417393617331,400000,51.84119892120361
1190000,"[4680.0, (260.0, 1020.0)]",8,0.09999910000958534,0.10102757828086614,400000,51.6027569770813
1200000,"[5360.0, (440.0, 1060.0)]",7,0.09999910000958534,0.1027564676720649,400000,51.70645093917847
1210000,"[4940.0, (320.0, 940.0)]",7,0.09999910000958534,0.10423199002481998,400000,52.07648301124573
1220000,"[4720.0, (200.0, 1020.0)]",8,0.09999910000958534,0.10134486992284655,400000,51.88451099395752
1230000,"[4940.0, (300.0, 1060.0)]",7,0.09999910000958534,0.09907431839369238,400000,51.705719232559204
1240000,"[5260.0, (560.0, 1200.0)]",6,0.09999910000958534,0.10215555529408157,400000,51.22692608833313
1250000,"[5480.0, (480.0, 1260.0)]",7,0.09999910000958534,0.1033980552367866,400000,51.49937200546265
1260000,"[5480.0, (480.0, 1120.0)]",7,0.09999910000958534,0.10245638179443776,400000,51.52847599983215
1270000,"[4740.0, (280.0, 880.0)]",9,0.09999910000958534,0.10490858534388244,400000,51.19124698638916
1280000,"[4920.0, (380.0, 780.0)]",8,0.09999910000958534,0.10155410530269146,400000,51.655832052230835
1290000,"[5060.0, (440.0, 1040.0)]",7,0.09999910000958534,0.10549532292634249,400000,51.39846205711365
1300000,"[4820.0, (240.0, 860.0)]",8,0.09999910000958534,0.10326581285372377,400000,51.709851026535034
1310000,"[4740.0, (340.0, 840.0)]",7,0.09999910000958534,0.1039628438346088,400000,51.40598511695862
1320000,"[5360.0, (260.0, 920.0)]",9,0.09999910000958534,0.10779892506338656,400000,51.339438915252686
1330000,"[5160.0, (400.0, 1060.0)]",7,0.09999910000958534,0.10831391407214105,400000,51.392987966537476
1340000,"[5320.0, (300.0, 1120.0)]",7,0.09999910000958534,0.10509710238240659,400000,51.460453033447266
1350000,"[5580.0, (400.0, 1140.0)]",8,0.09999910000958534,0.11080442829802632,400000,51.369683027267456
1360000,"[5180.0, (460.0, 980.0)]",8,0.09999910000958534,0.10981770419105888,400000,51.401461124420166
1370000,"[5620.0, (380.0, 1200.0)]",7,0.09999910000958534,0.11175168804191053,400000,51.44030404090881
1380000,"[6260.0, (920.0, 1260.0)]",6,0.09999910000958534,0.10940182001069187,400000,51.531188011169434
1390000,"[5840.0, (380.0, 1340.0)]",7,0.09999910000958534,0.11279137084037065,400000,51.451493978500366
1400000,"[5760.0, (480.0, 980.0)]",7,0.09999910000958534,0.11462778410948812,400000,51.44352412223816
1410000,"[5680.0, (460.0, 1180.0)]",8,0.09999910000958534,0.10808561248667538,400000,51.56601595878601
1420000,"[6380.0, (540.0, 1140.0)]",7,0.09999910000958534,0.1107729718670249,400000,51.502975940704346
1430000,"[5940.0, (760.0, 1320.0)]",6,0.09999910000958534,0.11766553557291627,400000,51.04944896697998
1440000,"[6040.0, (440.0, 1100.0)]",7,0.09999910000958534,0.11273143837079405,400000,51.367039918899536
1450000,"[6320.0, (920.0, 1340.0)]",6,0.09999910000958534,0.11551353783756495,400000,51.441620111465454
1460000,"[6700.0, (660.0, 1240.0)]",7,0.09999910000958534,0.11657107871919871,400000,51.21703600883484
1470000,"[6080.0, (520.0, 1160.0)]",6,0.09999910000958534,0.11956667115539313,400000,51.34622001647949
1480000,"[6440.0, (500.0, 1640.0)]",7,0.09999910000958534,0.11172440681867302,400000,51.446390867233276
1490000,"[6480.0, (820.0, 1300.0)]",7,0.09999910000958534,0.11054705036878586,400000,51.276373863220215
1500000,"[6700.0, (660.0, 1520.0)]",6,0.09999910000958534,0.11500187931507826,400000,51.600032806396484
1510000,"[6100.0, (460.0, 1220.0)]",7,0.09999910000958534,0.11649463255926967,400000,50.94974088668823
1520000,"[6180.0, (480.0, 1420.0)]",8,0.09999910000958534,0.11241826311312617,400000,51.3973970413208
1530000,"[6000.0, (700.0, 1140.0)]",6,0.09999910000958534,0.11097386547699571,400000,51.21790409088135
1540000,"[6040.0, (420.0, 1340.0)]",7,0.09999910000958534,0.10911672177910804,400000,51.44642090797424
1550000,"[5920.0, (580.0, 1200.0)]",7,0.09999910000958534,0.11190172064304352,400000,51.298264026641846
1560000,"[5820.0, (700.0, 1220.0)]",6,0.09999910000958534,0.11150106851011515,400000,51.285171031951904
1570000,"[6060.0, (520.0, 1200.0)]",7,0.09999910000958534,0.10883979509957134,400000,51.25191879272461
1580000,"[5980.0, (460.0, 1180.0)]",7,0.09999910000958534,0.10999659256264567,400000,51.219627141952515
1590000,"[6280.0, (380.0, 1380.0)]",7,0.09999910000958534,0.10915177326202392,400000,51.51362705230713
1600000,"[7020.0, (660.0, 1540.0)]",7,0.09999910000958534,0.10792010811828077,400000,51.33963108062744
1610000,"[6840.0, (860.0, 1460.0)]",6,0.09999910000958534,0.11041665181517601,400000,51.334758043289185
1620000,"[6700.0, (460.0, 1460.0)]",7,0.09999910000958534,0.10756870148256421,400000,51.189554929733276
1630000,"[6820.0, (680.0, 1620.0)]",6,0.09999910000958534,0.11202951685264706,400000,51.508041858673096
1640000,"[6440.0, (720.0, 1180.0)]",7,0.09999910000958534,0.11127139495760202,400000,51.13274002075195
1650000,"[6600.0, (340.0, 1560.0)]",7,0.09999910000958534,0.1143943238466978,400000,51.24859809875488
1660000,"[6960.0, (880.0, 1660.0)]",7,0.09999910000958534,0.11196522735059261,400000,51.294081926345825
1670000,"[6860.0, (600.0, 1020.0)]",8,0.09999910000958534,0.1097205948188901,400000,51.457645893096924
1680000,"[6560.0, (580.0, 1280.0)]",8,0.09999910000958534,0.10486658801808953,400000,51.13811111450195
1690000,"[7140.0, (420.0, 1400.0)]",7,0.09999910000958534,0.10715058839842677,400000,50.91667604446411
1700000,"[6520.0, (440.0, 1240.0)]",7,0.09999910000958534,0.10707198035269976,400000,51.00704288482666
1710000,"[7280.0, (520.0, 1780.0)]",8,0.09999910000958534,0.11539379670768976,400000,51.184890031814575
1720000,"[6940.0, (420.0, 1420.0)]",7,0.09999910000958534,0.10784132701829076,400000,51.03024888038635
1730000,"[7500.0, (1100.0, 1660.0)]",5,0.09999910000958534,0.11111322865635156,400000,51.07943296432495
1740000,"[7080.0, (200.0, 1600.0)]",8,0.09999910000958534,0.11116102661341429,400000,51.1254448890686
1750000,"[7280.0, (800.0, 1500.0)]",7,0.09999910000958534,0.11561452772840858,400000,50.95013499259949
1760000,"[7140.0, (600.0, 1480.0)]",7,0.09999910000958534,0.11165885495245456,400000,51.12534308433533
1770000,"[7460.0, (840.0, 1420.0)]",6,0.09999910000958534,0.10986315900832415,400000,51.14542198181152
1780000,"[7360.0, (640.0, 1520.0)]",7,0.09999910000958534,0.10876520319208503,400000,50.90203094482422
1790000,"[7820.0, (240.0, 1780.0)]",6,0.09999910000958534,0.10925724447518587,400000,51.162147998809814
1800000,"[7780.0, (860.0, 1600.0)]",6,0.09999910000958534,0.11371797003149986,400000,50.8619818687439
1810000,"[7820.0, (860.0, 1620.0)]",6,0.09999910000958534,0.11310741068795323,400000,51.067867040634155
1820000,"[8180.0, (920.0, 1860.0)]",6,0.09999910000958534,0.1081966607682407,400000,51.0008499622345
1830000,"[8420.0, (1200.0, 1460.0)]",6,0.09999910000958534,0.1147176243327558,400000,51.2454628944397
1840000,"[9200.0, (1080.0, 3520.0)]",5,0.09999910000958534,0.11568450118526816,400000,51.02589201927185
1850000,"[8240.0, (780.0, 2140.0)]",6,0.09999910000958534,0.11738967555984854,400000,50.849080085754395
1860000,"[8800.0, (1020.0, 1920.0)]",5,0.09999910000958534,0.11504095732569694,400000,51.17354393005371
1870000,"[8210.0, (660.0, 2320.0)]",8,0.09999910000958534,0.11713621829673648,400000,50.99426984786987
1880000,"[8320.0, (700.0, 2060.0)]",6,0.09999910000958534,0.11663293594196439,400000,51.086971044540405
1890000,"[8350.0, (480.0, 1930.0)]",6,0.09999910000958534,0.12255554621890187,400000,51.25587797164917
1900000,"[9310.0, (1480.0, 1720.0)]",5,0.09999910000958534,0.11646110295057296,400000,50.56854200363159
1910000,"[9100.0, (820.0, 3010.0)]",6,0.09999910000958534,0.1285999136097729,400000,50.865203857421875
1920000,"[7760.0, (1200.0, 1520.0)]",6,0.09999910000958534,0.11898348474353553,400000,51.040974140167236
1930000,"[8140.0, (920.0, 1660.0)]",6,0.09999910000958534,0.11683090691119433,400000,51.0598509311676
1940000,"[7860.0, (720.0, 1720.0)]",6,0.09999910000958534,0.12768185518160463,400000,51.00643992424011
1950000,"[8300.0, (740.0, 1960.0)]",6,0.09999910000958534,0.12708060937002302,400000,50.90601992607117
1960000,"[9050.0, (1100.0, 1990.0)]",6,0.09999910000958534,0.1230294400446117,400000,50.93940806388855
1970000,"[7700.0, (820.0, 1600.0)]",6,0.09999910000958534,0.1267112197652459,400000,50.743956089019775
1980000,"[8970.0, (1200.0, 2170.0)]",6,0.09999910000958534,0.1267975411824882,400000,50.70737314224243
1990000,"[8020.0, (620.0, 1720.0)]",6,0.09999910000958534,0.13566597246602177,400000,50.71775007247925
2000000,"[7840.0, (1000.0, 2040.0)]",6,0.09999910000958534,0.13665193017572164,400000,51.08468699455261
2010000,"[8620.0, (1260.0, 1680.0)]",5,0.09999910000958534,0.14246252867653966,400000,51.01798701286316
2020000,"[7600.0, (560.0, 1900.0)]",6,0.09999910000958534,0.148363346375525,400000,50.60532903671265
2030000,"[8020.0, (700.0, 1620.0)]",6,0.09999910000958534,0.12956780142113566,400000,50.945683002471924
2040000,"[9590.0, (1660.0, 3190.0)]",5,0.09999910000958534,0.1415107005931437,400000,51.03015208244324
2050000,"[9820.0, (940.0, 2020.0)]",5,0.09999910000958534,0.14530240427032112,400000,50.74591398239136
2060000,"[7460.0, (700.0, 4040.0)]",8,0.09999910000958534,0.14690826910361648,400000,50.805886030197144
2070000,"[8970.0, (1040.0, 2230.0)]",6,0.09999910000958534,0.14319309239387512,400000,50.88782787322998
2080000,"[8000.0, (260.0, 1720.0)]",6,0.09999910000958534,0.16000277561545373,400000,50.806896924972534
2090000,"[8160.0, (540.0, 2020.0)]",6,0.09999910000958534,0.14526814344003797,400000,50.91614603996277
2100000,"[8260.0, (680.0, 1940.0)]",6,0.09999910000958534,0.15393004059419035,400000,50.874963998794556
2110000,"[8970.0, (600.0, 2070.0)]",6,0.09999910000958534,0.1567551109969616,400000,50.90090608596802
2120000,"[8800.0, (780.0, 2420.0)]",6,0.09999910000958534,0.15938717980608344,400000,50.57198905944824
2130000,"[9780.0, (680.0, 4060.0)]",6,0.09999910000958534,0.15549443224444986,400000,50.64036011695862
2140000,"[11690.0, (1000.0, 4930.0)]",4,0.09999910000958534,0.15462013767287136,400000,50.71909689903259
2150000,"[8530.0, (620.0, 1700.0)]",7,0.09999910000958534,0.1697455798715353,400000,50.78134799003601
2160000,"[9660.0, (1040.0, 2910.0)]",6,0.09999910000958534,0.16565678040683268,400000,50.602283000946045
2170000,"[8700.0, (940.0, 2060.0)]",6,0.09999910000958534,0.14825051564499736,400000,50.976388931274414
2180000,"[9530.0, (840.0, 3230.0)]",6,0.09999910000958534,0.16385508797466755,400000,50.89903688430786
2190000,"[8620.0, (740.0, 2260.0)]",7,0.09999910000958534,0.16380342693403363,400000,50.899904012680054
2200000,"[8480.0, (1120.0, 1940.0)]",5,0.09999910000958534,0.17126090250462295,400000,50.9352970123291
2210000,"[8340.0, (900.0, 1680.0)]",6,0.09999910000958534,0.16886255672648548,400000,50.96484994888306
2220000,"[9620.0, (960.0, 2700.0)]",6,0.09999910000958534,0.1746602083221078,400000,51.02872681617737
2230000,"[9810.0, (740.0, 2810.0)]",6,0.09999910000958534,0.1827781023196876,400000,50.8479540348053
2240000,"[8940.0, (1160.0, 1920.0)]",6,0.09999910000958534,0.1946918692007661,400000,50.85776209831238
2250000,"[8380.0, (760.0, 2020.0)]",6,0.09999910000958534,0.19107702804505824,400000,50.857749938964844
2260000,"[8780.0, (640.0, 2260.0)]",6,0.09999910000958534,0.19436353779807686,400000,51.000773191452026
2270000,"[7900.0, (960.0, 1980.0)]",6,0.09999910000958534,0.1985363045461476,400000,50.80320596694946
2280000,"[10380.0, (960.0, 2430.0)]",6,0.09999910000958534,0.1996384575046599,400000,50.83533501625061
2290000,"[7700.0, (560.0, 1560.0)]",8,0.09999910000958534,0.2074251363642514,400000,50.81034207344055
2300000,"[8860.0, (1120.0, 2040.0)]",6,0.09999910000958534,0.20780749871581794,400000,50.905927896499634
2310000,"[8900.0, (800.0, 2760.0)]",6,0.09999910000958534,0.20701948752701282,400000,50.94395184516907
2320000,"[9260.0, (1320.0, 2220.0)]",5,0.09999910000958534,0.20116640125662089,400000,51.06983399391174
2330000,"[7400.0, (780.0, 1460.0)]",7,0.09999910000958534,0.20647207943499088,400000,50.9737229347229
2340000,"[8830.0, (680.0, 2570.0)]",6,0.09999910000958534,0.20151065093129875,400000,50.91160798072815
2350000,"[8380.0, (1160.0, 2060.0)]",5,0.09999910000958534,0.2119587399020791,400000,51.02167296409607
2360000,"[8640.0, (1120.0, 1960.0)]",6,0.09999910000958534,0.19800098234936594,400000,50.95651602745056
2370000,"[9870.0, (1140.0, 2660.0)]",5,0.09999910000958534,0.2043358104802668,400000,51.04196381568909
2380000,"[9280.0, (580.0, 3370.0)]",6,0.09999910000958534,0.2172728193640709,400000,50.886311054229736
2390000,"[10440.0, (1320.0, 4240.0)]",5,0.09999910000958534,0.2354401794910431,400000,50.68500208854675
2400000,"[8770.0, (980.0, 1780.0)]",6,0.09999910000958534,0.22755331361293793,400000,50.509230852127075
2410000,"[9950.0, (680.0, 3370.0)]",6,0.09999910000958534,0.25550914745628833,400000,50.92983293533325
2420000,"[9310.0, (1220.0, 3010.0)]",5,0.09999910000958534,0.24059963880479335,400000,50.82603096961975
2430000,"[9260.0, (1200.0, 2820.0)]",6,0.09999910000958534,0.25255631079375745,400000,50.88910102844238
2440000,"[8000.0, (840.0, 1920.0)]",6,0.09999910000958534,0.25493871946781876,400000,50.706302881240845
2450000,"[8640.0, (1340.0, 1800.0)]",5,0.09999910000958534,0.2653878330178559,400000,50.97728490829468
2460000,"[9260.0, (960.0, 3420.0)]",6,0.09999910000958534,0.27421491937935355,400000,50.85463905334473
2470000,"[10470.0, (1200.0, 3970.0)]",6,0.09999910000958534,0.27673852754831313,400000,50.71028399467468
2480000,"[8000.0, (860.0, 1460.0)]",6,0.09999910000958534,0.28369007284790276,400000,50.98241686820984
2490000,"[8640.0, (760.0, 2720.0)]",6,0.09999910000958534,0.26925545531660317,400000,50.83885598182678
2500000,"[7680.0, (640.0, 1800.0)]",7,0.09999910000958534,0.2981805102273822,400000,50.766356229782104
2510000,"[8780.0, (800.0, 2280.0)]",6,0.09999910000958534,0.30708058890849355,400000,50.76613211631775
2520000,"[7920.0, (1000.0, 1780.0)]",5,0.09999910000958534,0.27499235512465237,400000,51.01172995567322
2530000,"[11440.0, (1200.0, 3780.0)]",5,0.09999910000958534,0.30837586106210946,400000,50.783674001693726
2540000,"[9880.0, (720.0, 3780.0)]",6,0.09999910000958534,0.304792512011528,400000,51.09090995788574
2550000,"[7920.0, (980.0, 1420.0)]",6,0.09999910000958534,0.2741528396859765,400000,51.009418964385986
2560000,"[7600.0, (720.0, 1760.0)]",6,0.09999910000958534,0.29218314752429725,400000,51.00555205345154
2570000,"[6920.0, (820.0, 1860.0)]",5,0.09999910000958534,0.3059725325450301,400000,50.89411783218384
2580000,"[9110.0, (680.0, 3650.0)]",6,0.09999910000958534,0.3260397884324193,400000,50.76084303855896
2590000,"[8450.0, (340.0, 3130.0)]",7,0.09999910000958534,0.3139792291492224,400000,51.09245586395264
2600000,"[7680.0, (880.0, 2020.0)]",6,0.09999910000958534,0.3447415935814381,400000,50.89567685127258
2610000,"[6900.0, (220.0, 1140.0)]",8,0.09999910000958534,0.3740889773219824,400000,50.9504599571228
2620000,"[6960.0, (400.0, 2180.0)]",7,0.09999910000958534,0.37614231631159784,400000,50.77388906478882
2630000,"[5560.0, (440.0, 1200.0)]",8,0.09999910000958534,0.3874247482776642,400000,50.82398796081543
2640000,"[6700.0, (480.0, 1480.0)]",8,0.09999910000958534,0.41654175300747154,400000,50.873286962509155
2650000,"[6580.0, (340.0, 1340.0)]",7,0.09999910000958534,0.46092687774896623,400000,50.91413903236389
2660000,"[8680.0, (760.0, 3120.0)]",6,0.09999910000958534,0.5004752999350428,400000,50.99407720565796
2670000,"[6340.0, (700.0, 1240.0)]",7,0.09999910000958534,0.44899857627451417,400000,50.68707299232483
2680000,"[8980.0, (220.0, 4160.0)]",7,0.09999910000958534,0.46917493653297426,400000,50.85175585746765
2690000,"[6600.0, (820.0, 1520.0)]",6,0.09999910000958534,0.5521459395080804,400000,50.89499306678772
2700000,"[6360.0, (460.0, 1740.0)]",7,0.09999910000958534,0.6440752439841628,400000,50.99614596366882
2710000,"[6980.0, (500.0, 1720.0)]",6,0.09999910000958534,0.5240318522185087,400000,50.839728116989136
2720000,"[6300.0, (760.0, 1440.0)]",6,0.09999910000958534,0.595401780167222,400000,50.99454212188721
2730000,"[6200.0, (600.0, 1700.0)]",6,0.09999910000958534,0.6135962746202945,400000,50.771307945251465
2740000,"[6160.0, (580.0, 1440.0)]",6,0.09999910000958534,0.47903805594146254,400000,50.84762501716614
2750000,"[6480.0, (780.0, 1340.0)]",7,0.09999910000958534,0.516977283808589,400000,50.76462197303772
2760000,"[6480.0, (200.0, 1620.0)]",6,0.09999910000958534,0.6837218480348587,400000,50.213277101516724
2770000,"[6500.0, (520.0, 1360.0)]",8,0.09999910000958534,0.6061697542130947,400000,50.74027919769287
2780000,"[7370.0, (580.0, 3030.0)]",6,0.09999910000958534,0.6980420875087381,400000,50.956061124801636
2790000,"[5440.0, (360.0, 1300.0)]",7,0.09999910000958534,0.6862666205078364,400000,50.72480511665344
2800000,"[8460.0, (760.0, 2820.0)]",6,0.09999910000958534,0.6040879327535629,400000,50.846144914627075
2810000,"[6840.0, (640.0, 1580.0)]",6,0.09999910000958534,0.5750142939627171,400000,50.883458852767944
2820000,"[6100.0, (600.0, 1440.0)]",8,0.09999910000958534,0.5267612196400762,400000,50.90817594528198
2830000,"[6220.0, (840.0, 1680.0)]",5,0.09999910000958534,0.5519616748318076,400000,50.72961115837097
2840000,"[5720.0, (480.0, 1100.0)]",7,0.09999910000958534,0.6507111118763685,400000,50.5171160697937
2850000,"[5880.0, (600.0, 1160.0)]",7,0.09999910000958534,0.4995636888548732,400000,50.80250287055969
2860000,"[5820.0, (420.0, 1220.0)]",7,0.09999910000958534,0.6317594250977039,400000,50.7300021648407
2870000,"[5600.0, (400.0, 1180.0)]",7,0.09999910000958534,0.6883637347787619,400000,50.735530853271484
2880000,"[6000.0, (700.0, 1820.0)]",6,0.09999910000958534,0.6628860441848635,400000,50.681288957595825
2890000,"[6560.0, (540.0, 1460.0)]",7,0.09999910000958534,0.4828119638830423,400000,50.657768964767456
2900000,"[5620.0, (540.0, 1140.0)]",7,0.09999910000958534,0.6003385192677378,400000,50.75679683685303
2910000,"[6300.0, (560.0, 1180.0)]",7,0.09999910000958534,0.5777355557605625,400000,50.928908824920654
2920000,"[5940.0, (580.0, 1020.0)]",7,0.09999910000958534,0.5430387668818235,400000,50.83020901679993
2930000,"[5960.0, (520.0, 1120.0)]",7,0.09999910000958534,0.5470871126040816,400000,50.82740783691406
2940000,"[5720.0, (360.0, 1120.0)]",7,0.09999910000958534,0.616802112646401,400000,50.86416816711426
2950000,"[5720.0, (680.0, 1240.0)]",6,0.09999910000958534,0.48931598562151196,400000,50.83120894432068
2960000,"[6020.0, (420.0, 1200.0)]",7,0.09999910000958534,0.5139930065438152,400000,50.830732107162476
2970000,"[7220.0, (620.0, 2180.0)]",7,0.09999910000958534,0.6102936704471708,400000,50.76419806480408
2980000,"[6400.0, (20.0, 1420.0)]",8,0.09999910000958534,0.46183563079088924,400000,50.91851592063904
2990000,"[6480.0, (240.0, 1260.0)]",7,0.09999910000958534,0.5739322090744973,400000,50.81581687927246
3000000,"[7320.0, (820.0, 1880.0)]",6,0.09999910000958534,0.4293425378292799,400000,50.81810688972473
