All steps,Reward,Episodes,Epsilon,Avg. loss,Memory size,Time
10000,"[1600.0, (0.0, 220.0)]",18,1.0,0.0,10000,5.36440896987915
20000,"[1680.0, (0.0, 180.0)]",19,1.0,0.0,20000,5.313477039337158
30000,"[1420.0, (0.0, 180.0)]",19,1.0,0.0,30000,5.477589130401611
40000,"[1660.0, (20.0, 160.0)]",18,1.0,0.0,40000,5.3845250606536865
50000,"[1340.0, (0.0, 260.0)]",18,1.0,0.0,50000,5.405462980270386
60000,"[1740.0, (0.0, 260.0)]",19,0.9910000000002963,0.17039112082265784,60000,67.75627994537354
70000,"[1480.0, (0.0, 140.0)]",19,0.9820000000005926,0.16686882760551525,70000,67.46657991409302
80000,"[1880.0, (40.0, 240.0)]",16,0.9730000000008889,0.15647559855746804,80000,67.46847009658813
90000,"[1860.0, (0.0, 220.0)]",18,0.9640000000011852,0.15420929098732886,90000,68.02852296829224
100000,"[2040.0, (0.0, 240.0)]",16,0.9550000000014816,0.15756842088698178,100000,68.67227387428284
110000,"[1800.0, (0.0, 440.0)]",18,0.9460000000017779,0.15249784326839727,110000,68.83284902572632
120000,"[2160.0, (40.0, 240.0)]",16,0.9370000000020742,0.1470680086453096,120000,69.37962889671326
130000,"[2140.0, (20.0, 360.0)]",14,0.9280000000023705,0.14838481051708804,130000,69.69071292877197
140000,"[2100.0, (20.0, 280.0)]",16,0.9190000000026668,0.1465634088909952,140000,69.88847994804382
150000,"[2160.0, (20.0, 260.0)]",15,0.9100000000029631,0.14463622107729315,150000,70.48446202278137
160000,"[2040.0, (40.0, 340.0)]",17,0.9010000000032594,0.13886064362744802,160000,70.70806002616882
170000,"[2440.0, (40.0, 320.0)]",12,0.8920000000035557,0.13897399667408317,170000,71.08171606063843
180000,"[2240.0, (20.0, 300.0)]",15,0.883000000003852,0.14089265188814606,180000,71.76357889175415
190000,"[2260.0, (0.0, 360.0)]",16,0.8740000000041483,0.1422742156815948,190000,71.9335458278656
200000,"[2520.0, (20.0, 300.0)]",14,0.8650000000044447,0.14319663319992834,200000,72.54554796218872
210000,"[2540.0, (40.0, 280.0)]",16,0.856000000004741,0.1448328071825672,210000,72.77383208274841
220000,"[2400.0, (40.0, 360.0)]",14,0.8470000000050373,0.14563889793022536,220000,73.51277995109558
230000,"[2880.0, (120.0, 360.0)]",14,0.8380000000053336,0.15031946323704906,230000,73.80570912361145
240000,"[2740.0, (40.0, 460.0)]",12,0.8290000000056299,0.15028728212355635,240000,74.11366701126099
250000,"[2820.0, (140.0, 400.0)]",14,0.8200000000059262,0.15805697977468372,250000,74.70819401741028
260000,"[2800.0, (60.0, 420.0)]",13,0.8110000000062225,0.16646197589766235,260000,75.08966994285583
270000,"[2420.0, (20.0, 340.0)]",13,0.8020000000065188,0.16006804645718076,270000,75.86074590682983
280000,"[2900.0, (80.0, 460.0)]",12,0.7930000000068151,0.16880244350135326,280000,76.2101058959961
290000,"[2480.0, (80.0, 260.0)]",16,0.7840000000071115,0.16966662663370372,290000,76.86991882324219
300000,"[2940.0, (160.0, 500.0)]",10,0.7750000000074078,0.18310825504334644,300000,77.29831194877625
310000,"[2920.0, (120.0, 460.0)]",12,0.7660000000077041,0.1677410207807552,310000,77.7405309677124
320000,"[2660.0, (100.0, 300.0)]",13,0.7570000000080004,0.17110087109045125,320000,78.295166015625
330000,"[2500.0, (120.0, 300.0)]",13,0.7480000000082967,0.17450037764129228,330000,79.36842393875122
340000,"[2740.0, (120.0, 420.0)]",13,0.739000000008593,0.17219711619047448,340000,79.71543884277344
350000,"[3160.0, (140.0, 440.0)]",11,0.7300000000088893,0.17848580950126053,350000,80.02366089820862
360000,"[2840.0, (100.0, 420.0)]",12,0.7210000000091856,0.17186233305428178,360000,79.8141598701477
370000,"[2960.0, (100.0, 460.0)]",12,0.7120000000094819,0.17921765080932528,370000,81.26661586761475
380000,"[2920.0, (80.0, 420.0)]",12,0.7030000000097782,0.18624216490299442,380000,81.63301515579224
390000,"[2880.0, (80.0, 440.0)]",13,0.6940000000100746,0.18619286619890482,390000,82.27111506462097
400000,"[2620.0, (120.0, 340.0)]",13,0.6850000000103709,0.19175425916020758,400000,82.94679403305054
410000,"[2600.0, (100.0, 480.0)]",13,0.6760000000106672,0.1839638481469825,400000,82.95000004768372
420000,"[2560.0, (100.0, 340.0)]",13,0.6670000000109635,0.1891019991029054,400000,83.14657092094421
430000,"[2700.0, (100.0, 520.0)]",13,0.6580000000112598,0.1867864561161492,400000,83.93824005126953
440000,"[2840.0, (80.0, 380.0)]",11,0.6490000000115561,0.2091101662216708,400000,83.32811188697815
450000,"[2580.0, (120.0, 280.0)]",13,0.6400000000118524,0.18894021190386265,400000,82.95678305625916
460000,"[2940.0, (140.0, 360.0)]",13,0.6310000000121487,0.1899890007068403,400000,83.56762790679932
470000,"[3000.0, (80.0, 500.0)]",13,0.622000000012445,0.2084095051540062,400000,83.6253387928009
480000,"[2760.0, (80.0, 360.0)]",13,0.6130000000127414,0.19286016015382484,400000,82.9402871131897
490000,"[2580.0, (100.0, 240.0)]",14,0.6040000000130377,0.185869580047857,400000,83.63822388648987
500000,"[2500.0, (40.0, 380.0)]",13,0.595000000013334,0.1925773847340606,400000,83.603670835495
510000,"[2960.0, (100.0, 560.0)]",13,0.5860000000136303,0.18942058820356614,400000,83.67204308509827
520000,"[2800.0, (100.0, 300.0)]",13,0.5770000000139266,0.2007825567226857,400000,83.78902792930603
530000,"[2800.0, (120.0, 560.0)]",12,0.5680000000142229,0.19072724454533307,400000,84.04085493087769
540000,"[2580.0, (80.0, 360.0)]",14,0.5590000000145192,0.18700769901270978,400000,83.79501104354858
550000,"[2940.0, (40.0, 500.0)]",11,0.5500000000148155,0.19265203412184492,400000,84.14706110954285
560000,"[2760.0, (80.0, 380.0)]",15,0.5410000000151118,0.1874962378153112,400000,84.38530015945435
570000,"[2860.0, (100.0, 420.0)]",13,0.5320000000154081,0.19127305206242018,400000,84.18991208076477
580000,"[3100.0, (120.0, 560.0)]",13,0.5230000000157045,0.1989773911690805,400000,84.35438203811646
590000,"[2940.0, (100.0, 580.0)]",11,0.5140000000160008,0.18306828306964598,400000,84.02860903739929
600000,"[3140.0, (100.0, 480.0)]",12,0.5050000000162971,0.18086672139372675,400000,84.45784020423889
610000,"[3060.0, (80.0, 420.0)]",14,0.49600000001634664,0.18621975262900814,400000,84.42050409317017
620000,"[3040.0, (100.0, 320.0)]",13,0.48700000001608784,0.18250512050287798,400000,83.64854502677917
630000,"[3220.0, (140.0, 380.0)]",13,0.47800000001582904,0.18373245404777117,400000,84.74035406112671
640000,"[3060.0, (120.0, 500.0)]",11,0.46900000001557024,0.1850449243129231,400000,84.37590599060059
650000,"[3120.0, (80.0, 380.0)]",17,0.46000000001531144,0.17947305824328214,400000,83.92731308937073
660000,"[3140.0, (160.0, 380.0)]",13,0.45100000001505264,0.17236136916140093,400000,84.71693992614746
670000,"[2740.0, (40.0, 480.0)]",13,0.44200000001479384,0.1715121142776683,400000,84.61781311035156
680000,"[3340.0, (140.0, 580.0)]",13,0.43300000001453504,0.17610912675736473,400000,85.00586199760437
690000,"[3380.0, (100.0, 400.0)]",15,0.42400000001427623,0.16796282575731167,400000,85.1921489238739
700000,"[3300.0, (80.0, 400.0)]",14,0.41500000001401743,0.17665076533118262,400000,85.27812004089355
710000,"[3020.0, (120.0, 400.0)]",14,0.40600000001375863,0.1693709608240053,400000,84.46329498291016
720000,"[3280.0, (140.0, 380.0)]",15,0.39700000001349983,0.17959862912148236,400000,85.14012098312378
730000,"[3160.0, (100.0, 380.0)]",13,0.38800000001324103,0.1677285526489839,400000,85.27923512458801
740000,"[3340.0, (160.0, 460.0)]",14,0.37900000001298223,0.17970991658745333,400000,84.51616215705872
750000,"[3420.0, (120.0, 360.0)]",15,0.37000000001272343,0.17059878417439758,400000,83.35660696029663
760000,"[3540.0, (140.0, 500.0)]",13,0.36100000001246463,0.16936255613355897,400000,79.76925706863403
770000,"[3520.0, (140.0, 420.0)]",14,0.3520000000122058,0.16516186590068974,400000,76.69962477684021
780000,"[3300.0, (140.0, 420.0)]",12,0.343000000011947,0.16466571935089305,400000,76.51467800140381
790000,"[3160.0, (60.0, 400.0)]",16,0.3340000000116882,0.1669242731849663,400000,75.66821193695068
800000,"[3140.0, (80.0, 440.0)]",14,0.3250000000114294,0.16581132121281697,400000,76.65546298027039
810000,"[3260.0, (120.0, 360.0)]",15,0.3160000000111706,0.16047085401387884,400000,76.44475197792053
820000,"[3920.0, (60.0, 560.0)]",14,0.3070000000109118,0.1750965937622357,400000,76.35659289360046
830000,"[3380.0, (160.0, 360.0)]",14,0.298000000010653,0.17340702845547348,400000,76.8394980430603
840000,"[3480.0, (160.0, 440.0)]",14,0.2890000000103942,0.17259509423412384,400000,77.11377906799316
850000,"[3420.0, (140.0, 360.0)]",15,0.2800000000101354,0.1680817963797599,400000,77.09589409828186
860000,"[3440.0, (120.0, 380.0)]",16,0.2710000000098766,0.166221762472298,400000,76.84198904037476
870000,"[3380.0, (100.0, 360.0)]",15,0.2620000000096178,0.1657780093370937,400000,76.87537693977356
880000,"[3860.0, (100.0, 400.0)]",16,0.253000000009359,0.16336026916191912,400000,76.93157291412354
890000,"[3500.0, (140.0, 440.0)]",15,0.24400000000928526,0.16800112392995506,400000,76.86802101135254
900000,"[3200.0, (60.0, 460.0)]",16,0.23500000000930402,0.16728780768588186,400000,75.64332699775696
910000,"[3580.0, (120.0, 520.0)]",15,0.22600000000932277,0.16551362778390757,400000,76.8437089920044
920000,"[3420.0, (140.0, 440.0)]",16,0.21700000000934153,0.17164342271760105,400000,76.65491795539856
930000,"[3680.0, (160.0, 440.0)]",14,0.20800000000936028,0.16885731093385256,400000,77.4793848991394
940000,"[3600.0, (140.0, 420.0)]",14,0.19900000000937904,0.17238370348969476,400000,77.72332906723022
950000,"[3760.0, (100.0, 500.0)]",13,0.1900000000093978,0.16118496076487937,400000,77.23202514648438
960000,"[3660.0, (120.0, 420.0)]",15,0.18100000000941655,0.16527729063173757,400000,77.1803879737854
970000,"[3780.0, (80.0, 420.0)]",15,0.1720000000094353,0.16854036192982458,400000,77.48836898803711
980000,"[3480.0, (120.0, 340.0)]",16,0.16300000000945405,0.16656340827131644,400000,77.10889196395874
990000,"[3420.0, (100.0, 340.0)]",17,0.1540000000094728,0.17464241722691803,400000,77.52161312103271
1000000,"[3780.0, (80.0, 440.0)]",15,0.14500000000949156,0.1725963711493183,400000,77.56955885887146
1010000,"[4000.0, (140.0, 380.0)]",16,0.13600000000951032,0.17953596108257772,400000,77.84774899482727
1020000,"[3420.0, (100.0, 460.0)]",15,0.12700000000952907,0.17995597757631912,400000,77.86782193183899
1030000,"[3600.0, (100.0, 540.0)]",16,0.11800000000954783,0.17701490879491902,400000,77.94676494598389
1040000,"[3640.0, (60.0, 440.0)]",15,0.10900000000956658,0.18338720526690594,400000,77.34678196907043
1050000,"[3840.0, (120.0, 360.0)]",17,0.10000000000958534,0.18023271680204198,400000,78.09804201126099
1060000,"[3860.0, (120.0, 420.0)]",15,0.09999910000958534,0.1836178815783933,400000,77.47967195510864
1070000,"[3720.0, (120.0, 340.0)]",17,0.09999910000958534,0.18802795607401057,400000,77.92369198799133
1080000,"[3840.0, (140.0, 340.0)]",16,0.09999910000958534,0.17968819379154594,400000,76.71490812301636
1090000,"[4120.0, (160.0, 400.0)]",15,0.09999910000958534,0.1800609704834409,400000,77.77926683425903
1100000,"[4040.0, (160.0, 440.0)]",16,0.09999910000958534,0.18135673106545583,400000,78.0323839187622
1110000,"[3620.0, (160.0, 400.0)]",16,0.09999910000958534,0.18145834195110946,400000,78.06970000267029
1120000,"[4140.0, (180.0, 500.0)]",15,0.09999910000958534,0.17952584191006607,400000,78.04676103591919
1130000,"[3800.0, (140.0, 400.0)]",16,0.09999910000958534,0.17720850626989268,400000,78.13884401321411
1140000,"[3640.0, (100.0, 440.0)]",16,0.09999910000958534,0.18306406968333758,400000,77.94363021850586
1150000,"[4100.0, (160.0, 480.0)]",16,0.09999910000958534,0.1881740524151828,400000,77.85129809379578
1160000,"[4060.0, (160.0, 540.0)]",15,0.09999910000958534,0.18776391225676053,400000,78.13484811782837
1170000,"[4000.0, (140.0, 440.0)]",15,0.09999910000958534,0.1851635462384671,400000,78.15853905677795
1180000,"[4240.0, (140.0, 540.0)]",14,0.09999910000958534,0.19074470420146827,400000,78.14121103286743
1190000,"[4060.0, (180.0, 540.0)]",16,0.09999910000958534,0.19441191659225152,400000,78.033371925354
1200000,"[3940.0, (140.0, 460.0)]",15,0.09999910000958534,0.19945447550038808,400000,77.96807718276978
1210000,"[4360.0, (180.0, 460.0)]",15,0.09999910000958534,0.19785253900098615,400000,78.44432187080383
1220000,"[4500.0, (180.0, 620.0)]",12,0.09999910000958534,0.2038511756563559,400000,77.8021080493927
1230000,"[4180.0, (140.0, 480.0)]",15,0.09999910000958534,0.20151096938177943,400000,78.18723320960999
1240000,"[4660.0, (240.0, 460.0)]",13,0.09999910000958534,0.20163003731751813,400000,78.33684992790222
1250000,"[4280.0, (200.0, 420.0)]",16,0.09999910000958534,0.20120666820099578,400000,78.24011898040771
1260000,"[4340.0, (160.0, 480.0)]",15,0.09999910000958534,0.20108045191643759,400000,78.00666403770447
1270000,"[4220.0, (120.0, 460.0)]",15,0.09999910000958534,0.20828497674688698,400000,78.19444704055786
1280000,"[4200.0, (180.0, 380.0)]",17,0.09999910000958534,0.21637522472157142,400000,78.15088987350464
1290000,"[4540.0, (140.0, 460.0)]",15,0.09999910000958534,0.20967371196486057,400000,77.94045805931091
1300000,"[4460.0, (180.0, 580.0)]",15,0.09999910000958534,0.2102546461136546,400000,78.16208386421204
1310000,"[4680.0, (120.0, 620.0)]",17,0.09999910000958534,0.21103850811137817,400000,77.88708806037903
1320000,"[4740.0, (180.0, 560.0)]",15,0.09999910000958534,0.21631334672230296,400000,78.04377794265747
1330000,"[4640.0, (160.0, 500.0)]",14,0.09999910000958534,0.20557786626694724,400000,78.01751899719238
1340000,"[4380.0, (120.0, 400.0)]",17,0.09999910000958534,0.20816227281456814,400000,78.33122897148132
1350000,"[4400.0, (140.0, 540.0)]",15,0.09999910000958534,0.19890981442704797,400000,78.02400994300842
1360000,"[4500.0, (180.0, 560.0)]",15,0.09999910000958534,0.20665275904741137,400000,77.73383688926697
1370000,"[4580.0, (200.0, 560.0)]",13,0.09999910000958534,0.2053805211746134,400000,77.82790303230286
1380000,"[4560.0, (140.0, 560.0)]",14,0.09999910000958534,0.20925561730433256,400000,78.29641199111938
1390000,"[4480.0, (220.0, 440.0)]",15,0.09999910000958534,0.19913486229935662,400000,78.2694878578186
1400000,"[4560.0, (140.0, 480.0)]",14,0.09999910000958534,0.19765015086969362,400000,77.89979314804077
1410000,"[4820.0, (200.0, 660.0)]",13,0.09999910000958534,0.19741149278478698,400000,78.12636399269104
1420000,"[4280.0, (100.0, 480.0)]",14,0.09999910000958534,0.19894582557221874,400000,78.14489984512329
1430000,"[4020.0, (160.0, 380.0)]",16,0.09999910000958534,0.20234113208027557,400000,78.14790105819702
1440000,"[4600.0, (140.0, 580.0)]",13,0.09999910000958534,0.20615414546849206,400000,78.27304410934448
1450000,"[4940.0, (200.0, 480.0)]",12,0.09999910000958534,0.2003415819440037,400000,77.12445497512817
1460000,"[4560.0, (160.0, 780.0)]",12,0.09999910000958534,0.19895483952974902,400000,78.19474005699158
1470000,"[4640.0, (180.0, 460.0)]",15,0.09999910000958534,0.20050399797391147,400000,77.6954140663147
1480000,"[4680.0, (240.0, 660.0)]",12,0.09999910000958534,0.20101892262473703,400000,78.11483812332153
1490000,"[4840.0, (100.0, 640.0)]",13,0.09999910000958534,0.19816556234024466,400000,77.63458800315857
1500000,"[4760.0, (240.0, 800.0)]",12,0.09999910000958534,0.20751139279780909,400000,77.84615278244019
1510000,"[4840.0, (180.0, 800.0)]",12,0.09999910000958534,0.2121450776920654,400000,78.29436612129211
1520000,"[4560.0, (220.0, 700.0)]",13,0.09999910000958534,0.20905238536018877,400000,77.50172591209412
1530000,"[4580.0, (140.0, 540.0)]",14,0.09999910000958534,0.21162667183922604,400000,78.17040610313416
1540000,"[4480.0, (160.0, 600.0)]",14,0.09999910000958534,0.20909288048353047,400000,78.3015251159668
1550000,"[4600.0, (160.0, 540.0)]",15,0.09999910000958534,0.20482740371571853,400000,78.09566283226013
1560000,"[4740.0, (180.0, 680.0)]",13,0.09999910000958534,0.20527506718141958,400000,77.80069303512573
1570000,"[5260.0, (160.0, 660.0)]",13,0.09999910000958534,0.20716858055479825,400000,78.11992502212524
1580000,"[5000.0, (340.0, 740.0)]",11,0.09999910000958534,0.20498423331417143,400000,78.15247201919556
1590000,"[4860.0, (200.0, 680.0)]",11,0.09999910000958534,0.2083333984819241,400000,78.12191605567932
1600000,"[4320.0, (120.0, 500.0)]",13,0.09999910000958534,0.2018779819005169,400000,77.73152995109558
1610000,"[4600.0, (240.0, 600.0)]",12,0.09999910000958534,0.20672672144463286,400000,78.25960993766785
1620000,"[4940.0, (120.0, 840.0)]",10,0.09999910000958534,0.20340107249096037,400000,77.73287415504456
1630000,"[4500.0, (200.0, 680.0)]",10,0.09999910000958534,0.19906577132828535,400000,78.19503998756409
1640000,"[4760.0, (200.0, 640.0)]",11,0.09999910000958534,0.2025135768406093,400000,77.97859001159668
1650000,"[4540.0, (280.0, 620.0)]",12,0.09999910000958534,0.20315150809427723,400000,78.19882011413574
1660000,"[4820.0, (360.0, 900.0)]",9,0.09999910000958534,0.19946990258209407,400000,78.09559488296509
1670000,"[3980.0, (100.0, 700.0)]",14,0.09999910000958534,0.203172781277122,400000,77.73619198799133
1680000,"[4420.0, (180.0, 580.0)]",10,0.09999910000958534,0.19873408104339615,400000,78.00171899795532
1690000,"[5160.0, (180.0, 700.0)]",12,0.09999910000958534,0.18923557460689916,400000,77.96852803230286
1700000,"[4400.0, (180.0, 720.0)]",12,0.09999910000958534,0.19245255331182853,400000,78.1035749912262
1710000,"[4760.0, (280.0, 640.0)]",11,0.09999910000958534,0.1886570494887419,400000,78.22431993484497
1720000,"[5040.0, (300.0, 760.0)]",11,0.09999910000958534,0.17632235392332077,400000,78.33214497566223
1730000,"[4920.0, (340.0, 560.0)]",11,0.09999910000958534,0.1826343513972126,400000,78.1537709236145
1740000,"[5120.0, (180.0, 720.0)]",13,0.09999910000958534,0.1864096423062496,400000,78.09887719154358
1750000,"[5100.0, (180.0, 840.0)]",10,0.09999910000958534,0.18741494847135617,400000,77.83326506614685
1760000,"[5240.0, (360.0, 680.0)]",11,0.09999910000958534,0.19186814493183046,400000,78.13770890235901
1770000,"[5220.0, (320.0, 840.0)]",11,0.09999910000958534,0.18320929618077353,400000,78.18998003005981
1780000,"[5200.0, (320.0, 780.0)]",10,0.09999910000958534,0.18649058228963986,400000,78.37903904914856
1790000,"[5140.0, (280.0, 860.0)]",10,0.09999910000958534,0.1862219314669259,400000,78.21215796470642
1800000,"[5240.0, (380.0, 800.0)]",8,0.09999910000958534,0.18072009862242266,400000,77.80191087722778
1810000,"[5200.0, (320.0, 920.0)]",9,0.09999910000958534,0.20020739783011376,400000,78.02342104911804
1820000,"[4960.0, (380.0, 940.0)]",8,0.09999910000958534,0.19459106767997145,400000,78.24660181999207
1830000,"[5040.0, (200.0, 740.0)]",11,0.09999910000958534,0.1906508185612969,400000,77.80795788764954
1840000,"[5040.0, (180.0, 640.0)]",11,0.09999910000958534,0.18442285572476685,400000,78.16862297058105
1850000,"[5460.0, (240.0, 1020.0)]",9,0.09999910000958534,0.18139332704404368,400000,77.59216809272766
1860000,"[5840.0, (280.0, 1000.0)]",9,0.09999910000958534,0.18318915242496878,400000,78.07668495178223
1870000,"[5220.0, (220.0, 640.0)]",13,0.09999910000958534,0.17502668592967094,400000,78.19060802459717
1880000,"[5480.0, (320.0, 1000.0)]",10,0.09999910000958534,0.17423327182242646,400000,77.20761799812317
1890000,"[5760.0, (380.0, 900.0)]",9,0.09999910000958534,0.17792659576451406,400000,78.29454493522644
1900000,"[5540.0, (240.0, 980.0)]",9,0.09999910000958534,0.17821429987354204,400000,77.26256203651428
1910000,"[5500.0, (140.0, 1020.0)]",9,0.09999910000958534,0.16982764469264075,400000,78.13845801353455
1920000,"[5700.0, (260.0, 720.0)]",11,0.09999910000958534,0.17947824699068443,400000,78.07326006889343
1930000,"[5460.0, (220.0, 1120.0)]",11,0.09999910000958534,0.1754655329653062,400000,78.24615406990051
1940000,"[5560.0, (140.0, 1000.0)]",10,0.09999910000958534,0.18316628444204108,400000,78.23938393592834
1950000,"[6080.0, (280.0, 900.0)]",9,0.09999910000958534,0.18347685425486415,400000,78.30413007736206
1960000,"[5780.0, (280.0, 980.0)]",10,0.09999910000958534,0.1784499295277521,400000,78.27813410758972
1970000,"[5920.0, (300.0, 960.0)]",10,0.09999910000958534,0.1866865260901861,400000,78.27330183982849
1980000,"[5680.0, (320.0, 960.0)]",10,0.09999910000958534,0.18107946671294048,400000,78.21181988716125
1990000,"[5540.0, (240.0, 840.0)]",12,0.09999910000958534,0.18795830188766122,400000,78.30043482780457
2000000,"[5740.0, (240.0, 980.0)]",10,0.09999910000958534,0.18220785231450573,400000,78.24305891990662
2010000,"[5460.0, (240.0, 760.0)]",11,0.09999910000958534,0.18328647834407166,400000,77.94269585609436
2020000,"[5900.0, (360.0, 1100.0)]",10,0.09999910000958534,0.1916751131668687,400000,78.08024311065674
2030000,"[5920.0, (360.0, 1020.0)]",9,0.09999910000958534,0.19157715923236682,400000,78.27022814750671
2040000,"[5380.0, (240.0, 760.0)]",10,0.09999910000958534,0.18927822751803325,400000,78.23287606239319
2050000,"[5740.0, (320.0, 860.0)]",10,0.09999910000958534,0.19343450958542527,400000,78.1506781578064
2060000,"[5800.0, (280.0, 900.0)]",11,0.09999910000958534,0.19366390696391464,400000,78.2625298500061
2070000,"[5780.0, (300.0, 800.0)]",10,0.09999910000958534,0.18475193001348525,400000,78.23234105110168
2080000,"[5560.0, (540.0, 1060.0)]",8,0.09999910000958534,0.19643043001666666,400000,78.17451119422913
2090000,"[6080.0, (300.0, 980.0)]",9,0.09999910000958534,0.18668659259285778,400000,77.94140005111694
2100000,"[6420.0, (440.0, 1140.0)]",9,0.09999910000958534,0.190726260678377,400000,77.7183609008789
2110000,"[6100.0, (520.0, 860.0)]",9,0.09999910000958534,0.19920959158698096,400000,78.31575298309326
2120000,"[6020.0, (300.0, 900.0)]",9,0.09999910000958534,0.19381112466733902,400000,78.32165598869324
2130000,"[5840.0, (240.0, 1000.0)]",10,0.09999910000958534,0.19988210099805145,400000,78.32314491271973
2140000,"[5780.0, (500.0, 1040.0)]",7,0.09999910000958534,0.20172618229389191,400000,77.40258502960205
2150000,"[5460.0, (400.0, 1420.0)]",9,0.09999910000958534,0.2132313217374496,400000,77.92356705665588
2160000,"[5520.0, (320.0, 1020.0)]",9,0.09999910000958534,0.20318509081704542,400000,78.19830799102783
2170000,"[5560.0, (320.0, 940.0)]",10,0.09999910000958534,0.1968333943894133,400000,77.75791120529175
2180000,"[5940.0, (420.0, 1060.0)]",9,0.09999910000958534,0.20358949446044863,400000,77.69673895835876
2190000,"[5420.0, (460.0, 940.0)]",8,0.09999910000958534,0.19988806935818865,400000,78.07364797592163
2200000,"[5820.0, (500.0, 1240.0)]",7,0.09999910000958534,0.20358908261209727,400000,77.94093298912048
2210000,"[5600.0, (260.0, 960.0)]",9,0.09999910000958534,0.20834841134650633,400000,78.21147394180298
2220000,"[5960.0, (460.0, 1220.0)]",7,0.09999910000958534,0.2120866072396748,400000,77.91630911827087
2230000,"[6060.0, (800.0, 1200.0)]",6,0.09999910000958534,0.21767215347904711,400000,77.93306994438171
2240000,"[6160.0, (460.0, 1260.0)]",7,0.09999910000958534,0.21671217774413526,400000,77.7322142124176
2250000,"[6160.0, (460.0, 960.0)]",7,0.09999910000958534,0.21669301321059464,400000,76.69872879981995
2260000,"[6000.0, (660.0, 1240.0)]",7,0.09999910000958534,0.21080572116747498,400000,77.48936796188354
2270000,"[6020.0, (740.0, 1180.0)]",6,0.09999910000958534,0.21074364093206824,400000,78.31098294258118
2280000,"[5960.0, (860.0, 1080.0)]",6,0.09999910000958534,0.21223287661150098,400000,78.19394612312317
2290000,"[5940.0, (640.0, 1280.0)]",7,0.09999910000958534,0.21940601108465344,400000,78.37245392799377
2300000,"[5880.0, (280.0, 1180.0)]",8,0.09999910000958534,0.20920253684008494,400000,78.26037096977234
2310000,"[6000.0, (640.0, 1400.0)]",6,0.09999910000958534,0.21296488561425359,400000,78.11108207702637
2320000,"[6080.0, (380.0, 1200.0)]",7,0.09999910000958534,0.20457333055008203,400000,78.21769905090332
2330000,"[6120.0, (700.0, 1440.0)]",5,0.09999910000958534,0.19444014856433495,400000,78.3674578666687
2340000,"[6080.0, (820.0, 1200.0)]",6,0.09999910000958534,0.20174751250939443,400000,78.45336484909058
2350000,"[6340.0, (840.0, 1340.0)]",6,0.09999910000958534,0.20648098950972782,400000,78.3309919834137
2360000,"[6420.0, (640.0, 1440.0)]",7,0.09999910000958534,0.20248192668529227,400000,78.33120608329773
2370000,"[6340.0, (560.0, 1300.0)]",8,0.09999910000958534,0.1988085022485815,400000,78.34523487091064
2380000,"[6280.0, (500.0, 1120.0)]",8,0.09999910000958534,0.19482832857556642,400000,77.85809803009033
2390000,"[6700.0, (660.0, 1320.0)]",7,0.09999910000958534,0.19444868263797835,400000,78.03102493286133
2400000,"[6480.0, (600.0, 1420.0)]",6,0.09999910000958534,0.18520039608301594,400000,77.96841096878052
2410000,"[6360.0, (540.0, 1400.0)]",7,0.09999910000958534,0.19423657412761822,400000,77.98422312736511
2420000,"[6340.0, (780.0, 1480.0)]",6,0.09999910000958534,0.19088249697517604,400000,77.90139603614807
2430000,"[6100.0, (340.0, 1320.0)]",7,0.09999910000958534,0.19576395199354737,400000,77.87971806526184
2440000,"[6680.0, (640.0, 1480.0)]",6,0.09999910000958534,0.18343237566882745,400000,78.17767906188965
2450000,"[6120.0, (300.0, 1160.0)]",9,0.09999910000958534,0.19356656301021577,400000,78.15593385696411
2460000,"[6680.0, (980.0, 1240.0)]",5,0.09999910000958534,0.19884724002461882,400000,78.17749500274658
2470000,"[6780.0, (440.0, 1420.0)]",7,0.09999910000958534,0.19207925972044468,400000,78.41423010826111
2480000,"[6560.0, (500.0, 1340.0)]",7,0.09999910000958534,0.18698768373019994,400000,78.41984391212463
2490000,"[6360.0, (500.0, 1560.0)]",5,0.09999910000958534,0.19110091919088737,400000,78.3805890083313
2500000,"[6520.0, (460.0, 1460.0)]",7,0.09999910000958534,0.19429412823989986,400000,78.3079400062561
2510000,"[6480.0, (740.0, 1520.0)]",6,0.09999910000958534,0.18339783830847592,400000,78.090744972229
2520000,"[6140.0, (320.0, 1440.0)]",8,0.09999910000958534,0.19706705739004537,400000,77.92116212844849
2530000,"[6880.0, (780.0, 1100.0)]",6,0.09999910000958534,0.1835695387816988,400000,78.15376210212708
2540000,"[6580.0, (580.0, 1540.0)]",7,0.09999910000958534,0.20624772956380621,400000,77.87967801094055
2550000,"[6400.0, (540.0, 1300.0)]",7,0.09999910000958534,0.20408830559719354,400000,77.99621605873108
2560000,"[6340.0, (260.0, 1380.0)]",7,0.09999910000958534,0.18893587293419986,400000,78.12849998474121
2570000,"[6540.0, (660.0, 1180.0)]",8,0.09999910000958534,0.1878067373247817,400000,77.80711603164673
2580000,"[6640.0, (320.0, 1400.0)]",7,0.09999910000958534,0.18777540251109748,400000,78.24013900756836
2590000,"[6820.0, (900.0, 1580.0)]",6,0.09999910000958534,0.20766568334307522,400000,78.10401797294617
2600000,"[6460.0, (380.0, 1140.0)]",8,0.09999910000958534,0.19081399855948986,400000,78.22584581375122
2610000,"[6620.0, (400.0, 1400.0)]",8,0.09999910000958534,0.1971430129719898,400000,77.75732517242432
2620000,"[6780.0, (700.0, 1220.0)]",7,0.09999910000958534,0.18902528885435313,400000,77.5389289855957
2630000,"[6440.0, (600.0, 1200.0)]",7,0.09999910000958534,0.18101249480824919,400000,77.95895910263062
2640000,"[7020.0, (640.0, 1160.0)]",6,0.09999910000958534,0.17473265764079987,400000,78.3799500465393
2650000,"[6720.0, (360.0, 1620.0)]",7,0.09999910000958534,0.17237472823429853,400000,77.9141640663147
2660000,"[6760.0, (600.0, 1240.0)]",9,0.09999910000958534,0.1747645802166313,400000,78.2671148777008
2670000,"[6600.0, (640.0, 1000.0)]",8,0.09999910000958534,0.1813996846321039,400000,78.30035209655762
2680000,"[7160.0, (940.0, 1540.0)]",6,0.09999910000958534,0.18036402462236584,400000,77.37121915817261
2690000,"[6760.0, (940.0, 1240.0)]",6,0.09999910000958534,0.17892553257532418,400000,78.22739100456238
2700000,"[6980.0, (600.0, 1560.0)]",6,0.09999910000958534,0.17224952832460402,400000,78.39685106277466
2710000,"[6740.0, (560.0, 1280.0)]",7,0.09999910000958534,0.17045629293788225,400000,78.2604169845581
2720000,"[6460.0, (360.0, 1360.0)]",7,0.09999910000958534,0.1702297603079118,400000,78.19594883918762
2730000,"[6480.0, (540.0, 1180.0)]",8,0.09999910000958534,0.1748809723741375,400000,78.31701397895813
2740000,"[6520.0, (700.0, 1160.0)]",7,0.09999910000958534,0.18139462415594607,400000,78.30917501449585
2750000,"[6920.0, (480.0, 1300.0)]",7,0.09999910000958534,0.17952858150340617,400000,78.08978390693665
2760000,"[6560.0, (580.0, 1520.0)]",6,0.09999910000958534,0.1706827807638794,400000,77.83621907234192
2770000,"[6760.0, (660.0, 1620.0)]",6,0.09999910000958534,0.17622299314904957,400000,77.97712111473083
2780000,"[6680.0, (660.0, 1280.0)]",7,0.09999910000958534,0.16883723628157749,400000,78.00464510917664
2790000,"[6560.0, (240.0, 1620.0)]",6,0.09999910000958534,0.16383685370981693,400000,77.59839200973511
2800000,"[6640.0, (640.0, 1500.0)]",7,0.09999910000958534,0.16046379615208134,400000,78.246258020401
2810000,"[6860.0, (420.0, 1560.0)]",7,0.09999910000958534,0.17252435343367978,400000,78.22434401512146
2820000,"[6360.0, (560.0, 1180.0)]",7,0.09999910000958534,0.16479102306878193,400000,78.4358069896698
2830000,"[6860.0, (320.0, 1400.0)]",6,0.09999910000958534,0.1574726065061055,400000,78.05497097969055
2840000,"[7040.0, (980.0, 1600.0)]",6,0.09999910000958534,0.15876759383846073,400000,78.18005418777466
2850000,"[7120.0, (1180.0, 1480.0)]",5,0.09999910000958534,0.16162692332686857,400000,78.18334889411926
2860000,"[6840.0, (1040.0, 1360.0)]",6,0.09999910000958534,0.16102573178559543,400000,78.35970091819763
2870000,"[6660.0, (520.0, 1600.0)]",6,0.09999910000958534,0.1506575950615108,400000,78.3192629814148
2880000,"[7040.0, (1020.0, 1660.0)]",5,0.09999910000958534,0.15593659783210606,400000,78.31646490097046
2890000,"[7180.0, (1240.0, 1620.0)]",5,0.09999910000958534,0.15837568204291164,400000,78.02352285385132
2900000,"[7060.0, (620.0, 1660.0)]",6,0.09999910000958534,0.15611990799661726,400000,78.28684902191162
2910000,"[7260.0, (1140.0, 1640.0)]",5,0.09999910000958534,0.15283969781659543,400000,78.44359397888184
2920000,"[7120.0, (940.0, 1480.0)]",6,0.09999910000958534,0.16857804775573312,400000,78.13239598274231
2930000,"[6940.0, (640.0, 1560.0)]",7,0.09999910000958534,0.15507531845029443,400000,78.08362197875977
2940000,"[6780.0, (520.0, 1740.0)]",6,0.09999910000958534,0.15149797810995952,400000,77.94460201263428
2950000,"[7000.0, (140.0, 1620.0)]",6,0.09999910000958534,0.15492297994382678,400000,78.17681288719177
2960000,"[7280.0, (760.0, 1600.0)]",6,0.09999910000958534,0.1602148300223984,400000,78.27368879318237
2970000,"[7200.0, (760.0, 1440.0)]",7,0.09999910000958534,0.1498043511416763,400000,78.3297770023346
2980000,"[7000.0, (640.0, 1700.0)]",6,0.09999910000958534,0.15075764173995704,400000,78.30405116081238
2990000,"[6980.0, (620.0, 1040.0)]",7,0.09999910000958534,0.15852412064522506,400000,78.25998497009277
3000000,"[6800.0, (240.0, 1420.0)]",9,0.09999910000958534,0.15467851437926292,400000,78.13341403007507
