EPSILON_DELTA,9e-07
TRAIN_EVERY_N_STEPS,1
EPSILON,1.0
LEARNING_RATE,0.0001
ENVIRONMENT_NAME,Seaquest-ramDeterministic-v0
TESTING_SEED,9
INPUT_SHAPE,"(128,)"
BATCH_SIZE,32
TOTAL_TEST_EPISODES,100
VERSION,./Double_DQN_with_MLP.py
MEMORY_MAX_SIZE,400000
ITERATIONS,3000000
EPSILON_MIN,0.1
FILE_OUTPUT,True
MEMORY_MIN_SIZE,50000
SEED,4
REFRESH_TARGET_MODEL,10000
GAMMA,0.99
