VERSION,/usr/local/lib/python3.6/dist-packages/ipykernel_launcher.py
ENVIRONMENT_NAME,Seaquest-ramDeterministic-v0
MEMORY_MAX_SIZE,65536
MEMORY_MIN_SIZE,64
BATCH_SIZE,32
GAMMA,0.99
EPSILON,1.0
EPSILON_MIN,0.0
EPSILON_DELTA,0.998
LEARNING_RATE,0.0001
INPUT_SHAPE,"(128,)"
ITERATIONS,3000000
REFRESH_TARGET_MODEL,10000
TRAIN_EVERY_N_STEPS,1
TOTAL_TEST_EPISODES,100
FILE_OUTPUT,True
SEED,2
TESTING_SEED,7
