All steps,Reward,Episodes,Epsilon,Avg. loss,Memory size,Time
10000,"[1480.0, (0.0, 240.0)]",19,1.0,0.0,10000,7.194289922714233
20000,"[1400.0, (20.0, 240.0)]",20,1.0,0.0,20000,7.1966233253479
30000,"[1840.0, (0.0, 320.0)]",16,1.0,0.0,30000,7.1872735023498535
40000,"[1620.0, (20.0, 280.0)]",20,1.0,0.0,40000,7.151523590087891
50000,"[1300.0, (0.0, 300.0)]",19,1.0,0.0,50000,7.158880233764648
60000,"[1460.0, (20.0, 200.0)]",19,0.9910000000002963,3.8314092561888393,60000,77.86862993240356
70000,"[1680.0, (20.0, 240.0)]",17,0.9820000000005926,1.1014582195584661,70000,75.72485446929932
80000,"[1720.0, (0.0, 240.0)]",19,0.9730000000008889,0.9513220531916246,80000,76.03235292434692
90000,"[1620.0, (0.0, 280.0)]",19,0.9640000000011852,0.8649180453271605,90000,76.06578421592712
100000,"[1660.0, (0.0, 260.0)]",18,0.9550000000014816,0.9458584153499454,100000,77.23641419410706
110000,"[2080.0, (20.0, 300.0)]",16,0.9460000000017779,1.2208057100396603,110000,77.0784740447998
120000,"[2120.0, (20.0, 340.0)]",16,0.9370000000020742,1.5533792741158978,120000,77.44844698905945
130000,"[2040.0, (40.0, 320.0)]",17,0.9280000000023705,2.5891812164865433,130000,77.55825209617615
140000,"[1800.0, (20.0, 340.0)]",18,0.9190000000026668,1.9735393363995477,140000,78.37800669670105
150000,"[1920.0, (40.0, 220.0)]",18,0.9100000000029631,3.1599303664218636,150000,77.90307974815369
160000,"[2180.0, (40.0, 420.0)]",15,0.9010000000032594,3.720549857851118,160000,78.36570143699646
170000,"[2280.0, (0.0, 340.0)]",14,0.8920000000035557,4.045303063990921,170000,78.56219220161438
180000,"[2320.0, (40.0, 360.0)]",14,0.883000000003852,5.566104559003562,180000,79.66060972213745
190000,"[2800.0, (60.0, 480.0)]",13,0.8740000000041483,6.670611137918383,190000,79.3508632183075
200000,"[2780.0, (40.0, 420.0)]",13,0.8650000000044447,9.482284305159748,200000,79.73263192176819
210000,"[2520.0, (60.0, 520.0)]",11,0.856000000004741,13.397100118900836,210000,80.01346826553345
220000,"[2560.0, (0.0, 440.0)]",14,0.8470000000050373,18.963747299990057,220000,81.02455806732178
230000,"[2900.0, (40.0, 620.0)]",11,0.8380000000053336,29.543972970220448,230000,80.65382742881775
240000,"[2400.0, (40.0, 320.0)]",16,0.8290000000056299,37.418430892008544,240000,81.36679005622864
250000,"[2580.0, (80.0, 400.0)]",15,0.8200000000059262,46.84003111396432,250000,81.15540313720703
260000,"[2720.0, (20.0, 380.0)]",14,0.8110000000062225,68.96798744673728,260000,82.37249612808228
270000,"[2800.0, (80.0, 480.0)]",12,0.8020000000065188,97.44664982250929,270000,82.29602098464966
280000,"[2920.0, (80.0, 640.0)]",12,0.7930000000068151,126.7331084997654,280000,83.53601050376892
290000,"[2740.0, (80.0, 400.0)]",13,0.7840000000071115,158.58936860361098,290000,83.54060173034668
300000,"[2620.0, (40.0, 440.0)]",13,0.7750000000074078,182.596351894927,300000,84.33207106590271
310000,"[2780.0, (60.0, 540.0)]",13,0.7660000000077041,197.18465254187583,310000,83.44040179252625
320000,"[2820.0, (60.0, 460.0)]",11,0.7570000000080004,201.35457940778733,320000,83.49631261825562
330000,"[3000.0, (140.0, 460.0)]",10,0.7480000000082967,198.12554738998412,330000,84.12689733505249
340000,"[2980.0, (140.0, 440.0)]",11,0.739000000008593,181.36079977269173,340000,85.05966687202454
350000,"[2840.0, (120.0, 540.0)]",11,0.7300000000088893,142.85255108203887,350000,85.4423177242279
360000,"[2840.0, (80.0, 320.0)]",13,0.7210000000091856,104.45355409784317,360000,85.3667540550232
370000,"[3000.0, (180.0, 500.0)]",9,0.7120000000094819,71.5798783485055,370000,86.05790662765503
380000,"[2920.0, (100.0, 420.0)]",12,0.7030000000097782,50.48045870698095,380000,85.94506335258484
390000,"[3000.0, (120.0, 700.0)]",9,0.6940000000100746,28.202890430241823,390000,86.98555541038513
400000,"[3140.0, (180.0, 500.0)]",10,0.6850000000103709,10.27516177573055,400000,87.60759329795837
410000,"[3020.0, (100.0, 560.0)]",10,0.6760000000106672,8.23072145473212,400000,89.0493266582489
420000,"[2920.0, (180.0, 420.0)]",8,0.6670000000109635,4.554446452822536,400000,88.87977600097656
430000,"[3080.0, (220.0, 480.0)]",9,0.6580000000112598,2.615098970872909,400000,88.66070628166199
440000,"[2960.0, (140.0, 460.0)]",11,0.6490000000115561,2.1387295901808887,400000,88.86083722114563
450000,"[2760.0, (80.0, 360.0)]",12,0.6400000000118524,1.8855752784602344,400000,88.27845001220703
460000,"[3140.0, (80.0, 500.0)]",10,0.6310000000121487,1.4788185854833573,400000,88.885671377182
470000,"[2880.0, (80.0, 580.0)]",10,0.622000000012445,1.1645691363299266,400000,88.79390525817871
480000,"[2900.0, (180.0, 440.0)]",9,0.6130000000127414,0.996709412193112,400000,89.72227907180786
490000,"[3200.0, (200.0, 520.0)]",8,0.6040000000130377,0.9247686212477274,400000,89.41116166114807
500000,"[3120.0, (200.0, 600.0)]",9,0.595000000013334,0.8374334768619388,400000,89.09834146499634
510000,"[3100.0, (200.0, 560.0)]",8,0.5860000000136303,0.7836180233925581,400000,90.29527449607849
520000,"[3120.0, (240.0, 520.0)]",9,0.5770000000139266,0.6373580501975492,400000,90.04032850265503
530000,"[3080.0, (80.0, 480.0)]",9,0.5680000000142229,0.5481620089588687,400000,89.48723006248474
540000,"[3080.0, (240.0, 420.0)]",10,0.5590000000145192,0.5125037438073196,400000,90.00927948951721
550000,"[2820.0, (200.0, 360.0)]",10,0.5500000000148155,0.4592429142223671,400000,90.91290664672852
560000,"[2940.0, (100.0, 500.0)]",11,0.5410000000151118,0.4374361901444383,400000,90.51018857955933
570000,"[2940.0, (120.0, 380.0)]",9,0.5320000000154081,0.4090624981895089,400000,90.14628601074219
580000,"[2900.0, (100.0, 400.0)]",12,0.5230000000157045,0.43918142205979677,400000,90.95383024215698
590000,"[3200.0, (180.0, 520.0)]",8,0.5140000000160008,0.40387426637578755,400000,88.7871081829071
600000,"[2800.0, (200.0, 400.0)]",11,0.5050000000162971,0.38299368363218383,400000,89.12188053131104
610000,"[2780.0, (120.0, 660.0)]",11,0.49600000001634664,0.37529589629620314,400000,90.25182795524597
620000,"[3000.0, (140.0, 540.0)]",8,0.48700000001608784,0.3634679805279709,400000,91.28074359893799
630000,"[3140.0, (180.0, 440.0)]",10,0.47800000001582904,0.3482845355536789,400000,90.79385423660278
640000,"[2880.0, (160.0, 460.0)]",10,0.46900000001557024,0.3455782158740796,400000,89.97640585899353
650000,"[2840.0, (220.0, 460.0)]",9,0.46000000001531144,0.32860234278375283,400000,90.32409405708313
660000,"[2920.0, (120.0, 420.0)]",10,0.45100000001505264,0.34193271983778106,400000,90.6211290359497
670000,"[3040.0, (120.0, 480.0)]",10,0.44200000001479384,0.3222954310357105,400000,90.3437008857727
680000,"[2740.0, (140.0, 420.0)]",11,0.43300000001453504,0.30881857655262573,400000,91.40701913833618
690000,"[2900.0, (140.0, 480.0)]",9,0.42400000001427623,0.2915421658837702,400000,90.53546905517578
700000,"[2780.0, (140.0, 420.0)]",10,0.41500000001401743,0.3019668780349195,400000,90.43129372596741
710000,"[2740.0, (160.0, 380.0)]",11,0.40600000001375863,0.29401489726528524,400000,91.0086784362793
720000,"[3080.0, (220.0, 400.0)]",10,0.39700000001349983,0.28195750828534366,400000,90.63111352920532
730000,"[2980.0, (120.0, 440.0)]",10,0.38800000001324103,0.2790322266303003,400000,90.9669361114502
740000,"[2780.0, (140.0, 700.0)]",11,0.37900000001298223,0.279566539981775,400000,90.14269232749939
750000,"[2560.0, (120.0, 360.0)]",11,0.37000000001272343,0.26729554196898825,400000,90.53272223472595
760000,"[2680.0, (100.0, 300.0)]",13,0.36100000001246463,0.26986574645489453,400000,90.84603643417358
770000,"[2920.0, (160.0, 480.0)]",9,0.3520000000122058,0.2622991545178462,400000,90.57060527801514
780000,"[3100.0, (120.0, 600.0)]",10,0.343000000011947,0.2719831850900315,400000,90.73664045333862
790000,"[2760.0, (120.0, 360.0)]",10,0.3340000000116882,0.26253914020680824,400000,91.91598796844482
800000,"[2860.0, (160.0, 440.0)]",12,0.3250000000114294,0.24785012477980928,400000,92.0027105808258
810000,"[2780.0, (100.0, 580.0)]",11,0.3160000000111706,0.2573537863372825,400000,92.34410643577576
820000,"[2640.0, (140.0, 320.0)]",12,0.3070000000109118,0.23726304078483954,400000,93.08373951911926
830000,"[2740.0, (80.0, 420.0)]",12,0.298000000010653,0.25577196600614116,400000,93.10425972938538
840000,"[2720.0, (160.0, 340.0)]",11,0.2890000000103942,0.22667369827046058,400000,92.79604911804199
850000,"[2780.0, (100.0, 420.0)]",12,0.2800000000101354,0.2476207210117951,400000,93.58014059066772
860000,"[2760.0, (120.0, 420.0)]",12,0.2710000000098766,0.23735539807472378,400000,93.41611576080322
870000,"[2760.0, (140.0, 340.0)]",11,0.2620000000096178,0.22187356601734645,400000,92.81083989143372
880000,"[2600.0, (120.0, 400.0)]",13,0.253000000009359,0.21660457287589088,400000,92.79932832717896
890000,"[2840.0, (120.0, 380.0)]",12,0.24400000000928526,0.2234722284592688,400000,93.93786549568176
900000,"[2580.0, (80.0, 360.0)]",14,0.23500000000930402,0.2092277322140988,400000,93.043527841568
910000,"[2700.0, (120.0, 420.0)]",12,0.22600000000932277,0.21348219657242298,400000,93.16075277328491
920000,"[2800.0, (80.0, 360.0)]",14,0.21700000000934153,0.21122190706250257,400000,93.94988179206848
930000,"[2840.0, (100.0, 420.0)]",11,0.20800000000936028,0.2029059936634265,400000,93.76853108406067
940000,"[2640.0, (100.0, 340.0)]",13,0.19900000000937904,0.20881035454161465,400000,93.41561722755432
950000,"[2720.0, (120.0, 380.0)]",12,0.1900000000093978,0.20673885438735598,400000,94.17549347877502
960000,"[2660.0, (100.0, 380.0)]",13,0.18100000000941655,0.19121321669253522,400000,94.13434481620789
970000,"[2840.0, (100.0, 380.0)]",13,0.1720000000094353,0.18998608810999432,400000,93.66847276687622
980000,"[3060.0, (140.0, 340.0)]",13,0.16300000000945405,0.2091077302224934,400000,93.73866391181946
990000,"[2780.0, (100.0, 420.0)]",11,0.1540000000094728,0.19500833348874003,400000,94.95599150657654
1000000,"[2640.0, (120.0, 360.0)]",12,0.14500000000949156,0.19585486612627281,400000,93.73351001739502
1010000,"[2760.0, (60.0, 360.0)]",14,0.13600000000951032,0.18901623280490748,400000,93.74889826774597
1020000,"[2800.0, (100.0, 520.0)]",13,0.12700000000952907,0.20206336954906584,400000,95.12826108932495
1030000,"[2700.0, (80.0, 340.0)]",12,0.11800000000954783,0.19140984809203074,400000,94.21680188179016
1040000,"[2720.0, (120.0, 360.0)]",12,0.10900000000956658,0.1881823763450142,400000,94.47477841377258
1050000,"[2840.0, (140.0, 360.0)]",13,0.10000000000958534,0.18691277581825852,400000,94.72970795631409
1060000,"[2940.0, (60.0, 420.0)]",12,0.09999910000958534,0.20987506307587028,400000,94.8261194229126
1070000,"[2840.0, (100.0, 380.0)]",13,0.09999910000958534,0.18757211463453713,400000,94.14321398735046
1080000,"[3080.0, (140.0, 320.0)]",13,0.09999910000958534,0.17948340001734905,400000,94.75114440917969
1090000,"[2700.0, (140.0, 340.0)]",12,0.09999910000958534,0.18591455774386415,400000,95.63147521018982
1100000,"[2760.0, (140.0, 300.0)]",14,0.09999910000958534,0.18840363869289867,400000,94.44922232627869
1110000,"[2940.0, (120.0, 380.0)]",11,0.09999910000958534,0.18385553442810196,400000,94.4572925567627
1120000,"[2500.0, (100.0, 340.0)]",13,0.09999910000958534,0.18697009173356927,400000,95.71288275718689
1130000,"[2620.0, (100.0, 280.0)]",14,0.09999910000958534,0.17353442462026142,400000,94.4682776927948
1140000,"[2860.0, (100.0, 380.0)]",13,0.09999910000958534,0.17931697747395373,400000,94.25196051597595
1150000,"[2900.0, (80.0, 380.0)]",14,0.09999910000958534,0.17148596011754125,400000,95.66747784614563
1160000,"[3140.0, (160.0, 480.0)]",11,0.09999910000958534,0.1791132013317663,400000,94.50230884552002
1170000,"[3020.0, (120.0, 400.0)]",13,0.09999910000958534,0.18264879411626608,400000,94.5417537689209
1180000,"[3060.0, (120.0, 420.0)]",13,0.09999910000958534,0.17004901808153372,400000,95.49083590507507
1190000,"[3220.0, (120.0, 580.0)]",12,0.09999910000958534,0.17794811408133246,400000,94.4921088218689
1200000,"[3080.0, (120.0, 460.0)]",12,0.09999910000958534,0.18100316120292992,400000,94.36363744735718
1210000,"[3280.0, (140.0, 480.0)]",12,0.09999910000958534,0.17652677096645347,400000,94.43898391723633
1220000,"[3200.0, (140.0, 420.0)]",12,0.09999910000958534,0.16787413396053016,400000,95.50660872459412
1230000,"[3260.0, (160.0, 420.0)]",11,0.09999910000958534,0.17446065357031768,400000,94.68473553657532
1240000,"[2940.0, (80.0, 380.0)]",13,0.09999910000958534,0.18241268367413432,400000,94.58453297615051
1250000,"[2940.0, (160.0, 460.0)]",12,0.09999910000958534,0.18191337409527042,400000,95.75253033638
1260000,"[3440.0, (120.0, 520.0)]",11,0.09999910000958534,0.17156033752192743,400000,94.5962142944336
1270000,"[3220.0, (140.0, 420.0)]",13,0.09999910000958534,0.18530490581998602,400000,94.31212067604065
1280000,"[2920.0, (120.0, 320.0)]",14,0.09999910000958534,0.1743216083610896,400000,95.20163059234619
1290000,"[3100.0, (140.0, 420.0)]",12,0.09999910000958534,0.1800532323521795,400000,94.3151741027832
1300000,"[3480.0, (200.0, 420.0)]",11,0.09999910000958534,0.17641419246492443,400000,94.15083456039429
1310000,"[3220.0, (140.0, 480.0)]",11,0.09999910000958534,0.18162735614702105,400000,94.23575353622437
1320000,"[3160.0, (160.0, 380.0)]",12,0.09999910000958534,0.18330448620570824,400000,93.80716919898987
1330000,"[3580.0, (220.0, 460.0)]",11,0.09999910000958534,0.18542241707919166,400000,93.44079375267029
1340000,"[3360.0, (80.0, 480.0)]",13,0.09999910000958534,0.17720348498192615,400000,93.70238447189331
1350000,"[3260.0, (100.0, 380.0)]",14,0.09999910000958534,0.1783159771930892,400000,94.66545295715332
1360000,"[3320.0, (160.0, 400.0)]",14,0.09999910000958534,0.17267885163279717,400000,93.94947385787964
1370000,"[3460.0, (180.0, 420.0)]",11,0.09999910000958534,0.17649269598629325,400000,93.70161056518555
1380000,"[3380.0, (180.0, 420.0)]",11,0.09999910000958534,0.17394083387572318,400000,95.36507678031921
1390000,"[3580.0, (160.0, 440.0)]",12,0.09999910000958534,0.17811710147350096,400000,94.08048486709595
1400000,"[3380.0, (120.0, 540.0)]",13,0.09999910000958534,0.18121381539516151,400000,93.88410949707031
1410000,"[3420.0, (120.0, 420.0)]",12,0.09999910000958534,0.18199868894622195,400000,94.66115260124207
1420000,"[3400.0, (100.0, 420.0)]",11,0.09999910000958534,0.1786651506987866,400000,93.65414786338806
1430000,"[3240.0, (120.0, 480.0)]",12,0.09999910000958534,0.1783392621025676,400000,93.70883059501648
1440000,"[3540.0, (140.0, 640.0)]",12,0.09999910000958534,0.18286712035017555,400000,94.22561407089233
1450000,"[3280.0, (140.0, 500.0)]",12,0.09999910000958534,0.19010210123197174,400000,94.89435029029846
1460000,"[3480.0, (220.0, 440.0)]",12,0.09999910000958534,0.19391146118137986,400000,94.05960416793823
1470000,"[3280.0, (160.0, 460.0)]",12,0.09999910000958534,0.17984668269352988,400000,93.91820645332336
1480000,"[3340.0, (180.0, 420.0)]",12,0.09999910000958534,0.17539902573982255,400000,95.01556849479675
1490000,"[3320.0, (120.0, 320.0)]",13,0.09999910000958534,0.17709795663678088,400000,93.9460461139679
1500000,"[3320.0, (120.0, 380.0)]",14,0.09999910000958534,0.17848598700230942,400000,94.06132531166077
1510000,"[3360.0, (160.0, 460.0)]",13,0.09999910000958534,0.16683208743305877,400000,94.84550309181213
1520000,"[3380.0, (140.0, 360.0)]",12,0.09999910000958534,0.18144501160704532,400000,93.6223840713501
1530000,"[3180.0, (160.0, 420.0)]",13,0.09999910000958534,0.17890603449484332,400000,94.03062391281128
1540000,"[3600.0, (180.0, 460.0)]",10,0.09999910000958534,0.17970197106394917,400000,94.1255373954773
1550000,"[3240.0, (160.0, 560.0)]",11,0.09999910000958534,0.18477704807929696,400000,94.83708620071411
1560000,"[3280.0, (140.0, 420.0)]",13,0.09999910000958534,0.18325940600335597,400000,93.9878876209259
1570000,"[3560.0, (180.0, 480.0)]",11,0.09999910000958534,0.18094486214001662,400000,94.32850456237793
1580000,"[3340.0, (140.0, 400.0)]",13,0.09999910000958534,0.17388530652639456,400000,94.69607424736023
1590000,"[3400.0, (140.0, 580.0)]",11,0.09999910000958534,0.17947665292285384,400000,94.00569295883179
1600000,"[3140.0, (160.0, 500.0)]",11,0.09999910000958534,0.17586009739893488,400000,93.26696419715881
1610000,"[3060.0, (120.0, 360.0)]",13,0.09999910000958534,0.19028406374827028,400000,95.52631163597107
1620000,"[3480.0, (140.0, 480.0)]",13,0.09999910000958534,0.1858959963202011,400000,93.70691800117493
1630000,"[3500.0, (100.0, 460.0)]",11,0.09999910000958534,0.17834652067031712,400000,93.43207693099976
1640000,"[3440.0, (120.0, 680.0)]",12,0.09999910000958534,0.18407738028070889,400000,94.6715919971466
1650000,"[3340.0, (140.0, 400.0)]",12,0.09999910000958534,0.1825842511067167,400000,94.53595852851868
1660000,"[3400.0, (120.0, 380.0)]",13,0.09999910000958534,0.1850406121224165,400000,94.45401096343994
1670000,"[3360.0, (140.0, 500.0)]",11,0.09999910000958534,0.1733861911384156,400000,94.40344047546387
1680000,"[3400.0, (180.0, 560.0)]",11,0.09999910000958534,0.17889686006628908,400000,95.02895855903625
1690000,"[3480.0, (160.0, 460.0)]",13,0.09999910000958534,0.17612061201464385,400000,94.04176831245422
1700000,"[3360.0, (140.0, 580.0)]",11,0.09999910000958534,0.18438151987991297,400000,94.55954504013062
1710000,"[3380.0, (160.0, 480.0)]",10,0.09999910000958534,0.17786723818592728,400000,95.02792763710022
1720000,"[3420.0, (260.0, 580.0)]",8,0.09999910000958534,0.1852201989284018,400000,93.73312830924988
1730000,"[3520.0, (140.0, 560.0)]",10,0.09999910000958534,0.17606860496182927,400000,93.98097491264343
1740000,"[3340.0, (160.0, 460.0)]",10,0.09999910000958534,0.18979801863180473,400000,94.60444235801697
1750000,"[3440.0, (140.0, 540.0)]",9,0.09999910000958534,0.18658788066999987,400000,93.53173661231995
1760000,"[3520.0, (140.0, 600.0)]",10,0.09999910000958534,0.19139445541603492,400000,93.47587561607361
1770000,"[3420.0, (180.0, 480.0)]",10,0.09999910000958534,0.18679704369795508,400000,94.18302059173584
1780000,"[3260.0, (140.0, 500.0)]",11,0.09999910000958534,0.18376808272805065,400000,94.45898032188416
1790000,"[3640.0, (200.0, 680.0)]",11,0.09999910000958534,0.18597949145575984,400000,94.11328387260437
1800000,"[3800.0, (260.0, 580.0)]",8,0.09999910000958534,0.17722616195739246,400000,93.97492909431458
1810000,"[3420.0, (260.0, 420.0)]",10,0.09999910000958534,0.185938941983087,400000,94.57060837745667
1820000,"[3420.0, (240.0, 500.0)]",10,0.09999910000958534,0.18543061640278902,400000,94.05646824836731
1830000,"[3520.0, (100.0, 540.0)]",9,0.09999910000958534,0.1779151029159315,400000,94.79545736312866
1840000,"[3580.0, (160.0, 520.0)]",12,0.09999910000958534,0.18162998441322706,400000,94.86388158798218
1850000,"[3640.0, (180.0, 660.0)]",9,0.09999910000958534,0.18897995636244305,400000,94.10971689224243
1860000,"[3700.0, (260.0, 500.0)]",10,0.09999910000958534,0.1783354405678343,400000,94.01543402671814
1870000,"[3680.0, (260.0, 680.0)]",9,0.09999910000958534,0.17768491871841252,400000,93.57701802253723
1880000,"[3400.0, (280.0, 440.0)]",10,0.09999910000958534,0.1742476134785451,400000,94.54091906547546
1890000,"[3640.0, (240.0, 580.0)]",10,0.09999910000958534,0.17484451375519858,400000,93.9999692440033
1900000,"[3500.0, (120.0, 540.0)]",11,0.09999910000958534,0.17561665743696503,400000,94.51745319366455
1910000,"[3700.0, (220.0, 560.0)]",9,0.09999910000958534,0.18171966789667496,400000,94.49401831626892
1920000,"[3660.0, (220.0, 500.0)]",11,0.09999910000958534,0.1725225762893446,400000,93.33733057975769
1930000,"[3640.0, (240.0, 520.0)]",9,0.09999910000958534,0.16951607648003847,400000,94.0559778213501
1940000,"[3660.0, (320.0, 540.0)]",9,0.09999910000958534,0.16031285966574216,400000,94.83525681495667
1950000,"[3540.0, (160.0, 520.0)]",10,0.09999910000958534,0.17712421813816764,400000,94.35737299919128
1960000,"[4000.0, (160.0, 900.0)]",9,0.09999910000958534,0.165031468810793,400000,94.44954824447632
1970000,"[3640.0, (260.0, 660.0)]",9,0.09999910000958534,0.16813555279164574,400000,94.71380805969238
1980000,"[3600.0, (280.0, 500.0)]",9,0.09999910000958534,0.16834862551453988,400000,94.20486354827881
1990000,"[4080.0, (260.0, 600.0)]",10,0.09999910000958534,0.1574584744966589,400000,94.51072645187378
2000000,"[3780.0, (200.0, 680.0)]",10,0.09999910000958534,0.1674070536238607,400000,94.17277693748474
2010000,"[3800.0, (220.0, 580.0)]",9,0.09999910000958534,0.16124335548835805,400000,94.52872800827026
2020000,"[3800.0, (180.0, 640.0)]",10,0.09999910000958534,0.15698322248053737,400000,93.79009485244751
2030000,"[3800.0, (240.0, 680.0)]",9,0.09999910000958534,0.16578630420938134,400000,94.3138222694397
2040000,"[3800.0, (280.0, 720.0)]",9,0.09999910000958534,0.1618888042531442,400000,95.00466632843018
2050000,"[3980.0, (300.0, 500.0)]",9,0.09999910000958534,0.15693058032426052,400000,93.60638499259949
2060000,"[3900.0, (220.0, 600.0)]",9,0.09999910000958534,0.16583217314868234,400000,94.15066289901733
2070000,"[3760.0, (300.0, 540.0)]",9,0.09999910000958534,0.16158073976258747,400000,94.54598641395569
2080000,"[3800.0, (220.0, 620.0)]",10,0.09999910000958534,0.16382622494166718,400000,94.11847162246704
2090000,"[3760.0, (320.0, 700.0)]",9,0.09999910000958534,0.1503316277283244,400000,94.47508001327515
2100000,"[4000.0, (380.0, 600.0)]",8,0.09999910000958534,0.15523568012551406,400000,94.3690574169159
2110000,"[3560.0, (160.0, 620.0)]",10,0.09999910000958534,0.14194245182117446,400000,95.14174580574036
2120000,"[3660.0, (140.0, 600.0)]",10,0.09999910000958534,0.14611175890862943,400000,94.94099402427673
2130000,"[4000.0, (360.0, 600.0)]",8,0.09999910000958534,0.14444037225227804,400000,94.35392141342163
2140000,"[4080.0, (340.0, 620.0)]",9,0.09999910000958534,0.15112473408048974,400000,95.11956572532654
2150000,"[4120.0, (180.0, 780.0)]",9,0.09999910000958534,0.14693046991545708,400000,93.87943434715271
2160000,"[4280.0, (300.0, 620.0)]",9,0.09999910000958534,0.14646059754118324,400000,94.03691506385803
2170000,"[4020.0, (240.0, 660.0)]",9,0.09999910000958534,0.16552354823150672,400000,94.18913769721985
2180000,"[4120.0, (360.0, 600.0)]",8,0.09999910000958534,0.15697357974988407,400000,93.48577380180359
2190000,"[3700.0, (120.0, 520.0)]",11,0.09999910000958534,0.1608515552127734,400000,94.24360394477844
2200000,"[3620.0, (200.0, 520.0)]",10,0.09999910000958534,0.14803070761435666,400000,93.70227408409119
2210000,"[3860.0, (200.0, 780.0)]",10,0.09999910000958534,0.14612400169284082,400000,94.0726478099823
2220000,"[4280.0, (200.0, 680.0)]",9,0.09999910000958534,0.16383894810248167,400000,94.07072019577026
2230000,"[4240.0, (160.0, 840.0)]",9,0.09999910000958534,0.15735210012667813,400000,93.95650243759155
2240000,"[3980.0, (260.0, 460.0)]",11,0.09999910000958534,0.14793042307589202,400000,94.39287972450256
2250000,"[4000.0, (380.0, 580.0)]",9,0.09999910000958534,0.15108751798286102,400000,94.70427393913269
2260000,"[4140.0, (180.0, 680.0)]",10,0.09999910000958534,0.1601143544241786,400000,94.8178699016571
2270000,"[4020.0, (200.0, 620.0)]",10,0.09999910000958534,0.14983591941995547,400000,95.84152936935425
2280000,"[3880.0, (200.0, 540.0)]",10,0.09999910000958534,0.1503842510967981,400000,95.09511637687683
2290000,"[4140.0, (380.0, 760.0)]",8,0.09999910000958534,0.14341817339924165,400000,95.47145557403564
2300000,"[3980.0, (340.0, 680.0)]",8,0.09999910000958534,0.15870571756619029,400000,96.02373242378235
2310000,"[3800.0, (220.0, 500.0)]",11,0.09999910000958534,0.1554595684572123,400000,95.09020042419434
2320000,"[4200.0, (240.0, 660.0)]",10,0.09999910000958534,0.15518058100198395,400000,95.47029066085815
2330000,"[4280.0, (200.0, 720.0)]",9,0.09999910000958534,0.15543921923269519,400000,95.05771899223328
2340000,"[3960.0, (240.0, 600.0)]",9,0.09999910000958534,0.14769000708647073,400000,95.67935585975647
2350000,"[3880.0, (220.0, 800.0)]",9,0.09999910000958534,0.16227642682422883,400000,95.40600824356079
2360000,"[4040.0, (360.0, 580.0)]",9,0.09999910000958534,0.1521966076594312,400000,95.25314688682556
2370000,"[3940.0, (240.0, 620.0)]",8,0.09999910000958534,0.1568177416513674,400000,96.05224609375
2380000,"[4020.0, (280.0, 660.0)]",8,0.09999910000958534,0.15665514263096267,400000,95.6793122291565
2390000,"[4160.0, (260.0, 680.0)]",9,0.09999910000958534,0.15443342688875272,400000,95.26095175743103
2400000,"[4020.0, (240.0, 740.0)]",9,0.09999910000958534,0.16869445569631644,400000,96.11850762367249
2410000,"[4020.0, (140.0, 600.0)]",9,0.09999910000958534,0.1618060048909858,400000,95.48281407356262
2420000,"[4140.0, (280.0, 640.0)]",9,0.09999910000958534,0.16119222114575096,400000,95.24137735366821
2430000,"[4140.0, (400.0, 600.0)]",9,0.09999910000958534,0.16353509725064505,400000,95.99153327941895
2440000,"[4360.0, (340.0, 760.0)]",9,0.09999910000958534,0.15237411816923413,400000,95.19337582588196
2450000,"[4060.0, (200.0, 620.0)]",10,0.09999910000958534,0.16238974908757955,400000,95.6816623210907
2460000,"[3900.0, (220.0, 560.0)]",10,0.09999910000958534,0.15935191343137994,400000,95.16530299186707
2470000,"[4120.0, (280.0, 780.0)]",8,0.09999910000958534,0.16538650740343147,400000,95.6833176612854
2480000,"[4100.0, (240.0, 720.0)]",10,0.09999910000958534,0.1566273421333637,400000,95.37900018692017
2490000,"[4060.0, (100.0, 780.0)]",11,0.09999910000958534,0.1715371272484772,400000,95.07472705841064
2500000,"[4220.0, (140.0, 560.0)]",9,0.09999910000958534,0.1725929638986476,400000,96.02191948890686
2510000,"[4400.0, (200.0, 680.0)]",10,0.09999910000958534,0.16371140052294358,400000,95.44972014427185
2520000,"[3980.0, (260.0, 700.0)]",9,0.09999910000958534,0.15341098817689344,400000,95.20268774032593
2530000,"[4180.0, (220.0, 620.0)]",9,0.09999910000958534,0.1599887446764391,400000,95.71162366867065
2540000,"[4100.0, (160.0, 720.0)]",9,0.09999910000958534,0.1657685596090043,400000,95.26340985298157
2550000,"[4380.0, (400.0, 640.0)]",8,0.09999910000958534,0.15934258521411102,400000,95.11739087104797
2560000,"[4260.0, (280.0, 720.0)]",9,0.09999910000958534,0.18247313086814246,400000,96.04797029495239
2570000,"[4020.0, (280.0, 540.0)]",10,0.09999910000958534,0.17439264710051938,400000,95.49598979949951
2580000,"[4140.0, (320.0, 860.0)]",9,0.09999910000958534,0.17185175135210157,400000,94.82825899124146
2590000,"[4660.0, (160.0, 880.0)]",8,0.09999910000958534,0.18147352537079714,400000,94.83869457244873
2600000,"[4280.0, (180.0, 740.0)]",9,0.09999910000958534,0.1733105846571736,400000,95.70160961151123
2610000,"[4200.0, (220.0, 660.0)]",9,0.09999910000958534,0.16832951603732071,400000,95.33709192276001
2620000,"[4400.0, (260.0, 840.0)]",9,0.09999910000958534,0.16521698719076813,400000,95.26370763778687
2630000,"[4280.0, (300.0, 800.0)]",8,0.09999910000958534,0.17804240592918358,400000,95.84963345527649
2640000,"[4080.0, (220.0, 600.0)]",11,0.09999910000958534,0.16943842645268886,400000,95.44101548194885
2650000,"[4040.0, (220.0, 600.0)]",9,0.09999910000958534,0.17081935117766262,400000,94.97482466697693
2660000,"[4220.0, (260.0, 580.0)]",10,0.09999910000958534,0.17453526857518592,400000,95.69126105308533
2670000,"[4380.0, (360.0, 680.0)]",10,0.09999910000958534,0.17549570687771776,400000,95.61463642120361
2680000,"[4480.0, (200.0, 840.0)]",9,0.09999910000958534,0.16866611585407518,400000,95.2204954624176
2690000,"[4560.0, (260.0, 780.0)]",8,0.09999910000958534,0.17841809545620343,400000,96.11671352386475
2700000,"[4160.0, (320.0, 740.0)]",8,0.09999910000958534,0.17906089324518107,400000,95.68001627922058
2710000,"[4580.0, (340.0, 920.0)]",8,0.09999910000958534,0.1874743315914413,400000,95.18240427970886
2720000,"[4760.0, (340.0, 900.0)]",8,0.09999910000958534,0.18170957914176397,400000,95.06109929084778
2730000,"[4200.0, (300.0, 600.0)]",10,0.09999910000958534,0.18024813971542752,400000,96.23001527786255
2740000,"[4560.0, (340.0, 760.0)]",8,0.09999910000958534,0.17955185481333175,400000,95.25720047950745
2750000,"[4480.0, (320.0, 660.0)]",8,0.09999910000958534,0.18899215632430277,400000,95.24975442886353
2760000,"[4320.0, (160.0, 720.0)]",10,0.09999910000958534,0.1880459381610155,400000,96.07041907310486
2770000,"[4540.0, (400.0, 720.0)]",8,0.09999910000958534,0.17899257194958626,400000,95.56344103813171
2780000,"[4700.0, (260.0, 720.0)]",9,0.09999910000958534,0.19088357809209264,400000,95.32607674598694
2790000,"[4700.0, (280.0, 900.0)]",9,0.09999910000958534,0.18865303023555316,400000,95.39603805541992
2800000,"[4500.0, (220.0, 980.0)]",8,0.09999910000958534,0.18051271897843107,400000,95.22584891319275
2810000,"[4460.0, (240.0, 780.0)]",10,0.09999910000958534,0.18863866539411248,400000,95.21674513816833
2820000,"[4180.0, (260.0, 740.0)]",9,0.09999910000958534,0.1854395219652448,400000,95.96251034736633
2830000,"[4280.0, (180.0, 680.0)]",9,0.09999910000958534,0.18570570296165534,400000,95.68987393379211
2840000,"[4500.0, (260.0, 680.0)]",10,0.09999910000958534,0.1924003143164795,400000,95.15467977523804
2850000,"[4240.0, (120.0, 620.0)]",10,0.09999910000958534,0.19818047846104017,400000,95.11981582641602
2860000,"[4480.0, (260.0, 700.0)]",9,0.09999910000958534,0.19050647607923019,400000,96.48547720909119
2870000,"[4480.0, (260.0, 820.0)]",9,0.09999910000958534,0.18954311390751974,400000,95.29007530212402
2880000,"[4220.0, (240.0, 660.0)]",10,0.09999910000958534,0.19432376138870605,400000,95.48410511016846
2890000,"[4180.0, (280.0, 740.0)]",8,0.09999910000958534,0.18693432527491824,400000,96.4565794467926
2900000,"[4440.0, (340.0, 740.0)]",8,0.09999910000958534,0.1872957549221348,400000,95.33271312713623
2910000,"[4460.0, (160.0, 860.0)]",10,0.09999910000958534,0.19479360562595538,400000,95.20368337631226
2920000,"[4460.0, (380.0, 700.0)]",10,0.09999910000958534,0.19902521683834493,400000,95.69424700737
2930000,"[4360.0, (200.0, 860.0)]",9,0.09999910000958534,0.20116622399874032,400000,95.25186419487
2940000,"[4680.0, (360.0, 720.0)]",8,0.09999910000958534,0.2049758200194221,400000,94.8864905834198
2950000,"[4720.0, (340.0, 740.0)]",9,0.09999910000958534,0.18868521929676643,400000,95.23460030555725
2960000,"[4980.0, (380.0, 840.0)]",8,0.09999910000958534,0.19806274373456836,400000,94.7300386428833
2970000,"[4620.0, (340.0, 1060.0)]",8,0.09999910000958534,0.20607592017771675,400000,94.25223875045776
2980000,"[4560.0, (280.0, 900.0)]",10,0.09999910000958534,0.198084336091578,400000,94.41726064682007
2990000,"[4720.0, (400.0, 820.0)]",8,0.09999910000958534,0.2014918111405801,400000,95.78659749031067
3000000,"[4500.0, (140.0, 740.0)]",8,0.09999910000958534,0.1978979532115627,400000,94.70057964324951
