All steps,Reward,Episodes,Epsilon,Avg. loss,Memory size,Time
10000,"[-232.0, (-21.0, 0.0)]",12,2.2964565422604096e-09,0.0025235376602355244,10000,85.3204927444458
20000,"[-214.0, (-21.0, -19.0)]",11,4.6394992091658115e-18,0.002037771924734625,20000,83.94394969940186
30000,"[-215.0, (-21.0, -18.0)]",10,9.373115717950056e-27,0.001785605225513791,30000,84.01490616798401
40000,"[-210.0, (-21.0, -18.0)]",11,1.8936375307170005e-35,0.001872420479781249,40000,85.04684329032898
50000,"[-188.0, (-21.0, -18.0)]",9,3.825689563261054e-44,0.0017506885194623464,50000,85.3375883102417
60000,"[-214.0, (-21.0, -17.0)]",11,7.728987410226831e-53,0.001727627786967605,60000,84.5883457660675
70000,"[-196.0, (-21.0, -19.0)]",10,1.5614765756509386e-61,0.00171391182023508,65536,85.10706424713135
80000,"[-185.0, (-21.0, -18.0)]",9,3.154629406020763e-70,0.0016855138487486328,65536,86.35781621932983
90000,"[-147.0, (-21.0, -17.0)]",8,6.373253908840939e-79,0.001511744696534697,65536,85.1641571521759
100000,"[-130.0, (-20.0, -16.0)]",7,1.287579622158922e-87,0.001549371911613889,65536,85.5678174495697
110000,"[-126.0, (-21.0, -15.0)]",7,2.6012792007221774e-96,0.001565859968861514,65536,85.87074255943298
120000,"[-118.0, (-19.0, -15.0)]",7,5.2553281860456615e-105,0.0015558845783662037,65536,85.9756224155426
130000,"[-132.0, (-21.0, -16.0)]",7,1.0617266433906134e-113,0.0017343944709358767,65536,84.54939866065979
140000,"[-104.0, (-18.0, -13.0)]",7,2.1449915692776258e-122,0.001633844895162838,65536,85.64259314537048
150000,"[-106.0, (-18.0, -16.0)]",6,4.333496631090312e-131,0.0017845831025122606,65536,84.99043011665344
160000,"[-92.0, (-18.0, -14.0)]",5,8.754902965887028e-140,0.0017423113770215423,65536,85.6249930858612
170000,"[-93.0, (-20.0, -13.0)]",6,1.7687408683369013e-148,0.0017217594875288342,65536,85.00808024406433
180000,"[-90.0, (-17.0, -15.0)]",6,3.573362573537328e-157,0.0017652361121672584,65536,86.04695105552673
190000,"[-56.0, (-17.0, -3.0)]",4,7.219214702696175e-166,0.0017224925288512167,65536,86.57033514976501
200000,"[-96.0, (-21.0, -14.0)]",6,1.4584879046301986e-174,0.0017200099039539054,65536,85.8911805152893
210000,"[-82.0, (-18.0, -13.0)]",5,2.9465628265054198e-183,0.001765015342379047,65536,85.15401411056519
220000,"[-68.0, (-18.0, -13.0)]",5,5.952899892402634e-192,0.00170040947916641,65536,84.92244744300842
230000,"[-88.0, (-18.0, -14.0)]",5,1.2026560849203057e-200,0.0017353755299882323,65536,85.21386122703552
240000,"[-79.0, (-20.0, -11.0)]",6,2.4297093597051304e-209,0.0016460775107183508,65536,84.21716547012329
250000,"[-58.0, (-15.0, -11.0)]",4,4.908708022734441e-218,0.0017077574700542755,65536,84.52049207687378
260000,"[-69.0, (-17.0, -9.0)]",5,9.916994539372422e-227,0.0015803657975073293,65536,83.97261118888855
270000,"[-60.0, (-16.0, -10.0)]",4,2.0035166124865005e-235,0.0015384808904833334,65536,84.96937322616577
280000,"[-58.0, (-16.0, -10.0)]",5,4.047676743768172e-244,0.0015059066904974316,65536,83.6514322757721
290000,"[-64.0, (-18.0, -9.0)]",4,8.177465023216565e-253,0.0015746022891718894,65536,84.82578682899475
300000,"[-77.0, (-18.0, -9.0)]",5,1.6520818839815935e-261,0.001530701527534984,65536,86.10015559196472
310000,"[-45.0, (-18.0, -9.0)]",5,3.3376780501429566e-270,0.0014930521014619445,65536,85.52173161506653
320000,"[-43.0, (-15.0, -4.0)]",4,6.743064538398038e-279,0.0015074792824034376,65536,85.39541745185852
330000,"[-59.0, (-15.0, -10.0)]",4,1.362291949250582e-287,0.0014448624481525258,65536,84.3528687953949
340000,"[-34.0, (-13.0, -8.0)]",4,2.7522194759147883e-296,0.0015107936577678628,65536,85.9488582611084
350000,"[-46.0, (-16.0, -9.0)]",4,5.560270724474093e-305,0.0016374697706018197,65536,85.28765988349915
360000,"[-56.0, (-14.0, -9.0)]",4,1.12333375985e-313,0.0017245524551341078,65536,86.35137343406677
370000,"[-58.0, (-17.0, -11.0)]",4,1.23e-321,0.001645781635176172,65536,85.60069012641907
380000,"[-54.0, (-16.0, -12.0)]",5,1.23e-321,0.001574399245578752,65536,86.48582744598389
390000,"[-42.0, (-13.0, -8.0)]",4,1.23e-321,0.0015183761125183081,65536,85.67643451690674
400000,"[-75.0, (-18.0, -13.0)]",5,1.23e-321,0.0017739148011347424,65536,85.41885900497437
410000,"[-214.0, (-21.0, -17.0)]",10,1.23e-321,0.0038296215120375565,65536,85.46286511421204
420000,"[-162.0, (-20.0, -18.0)]",9,1.23e-321,0.0020186811589315767,65536,84.90247321128845
430000,"[-98.0, (-19.0, -15.0)]",5,1.23e-321,0.00173264537282339,65536,85.69191718101501
440000,"[-78.0, (-18.0, -14.0)]",5,1.23e-321,0.0015743982963140298,65536,85.42956018447876
450000,"[-82.0, (-19.0, -14.0)]",6,1.23e-321,0.001462930103051258,65536,86.07455492019653
460000,"[-65.0, (-19.0, -14.0)]",4,1.23e-321,0.0014337610207203397,65536,85.24672937393188
470000,"[-59.0, (-19.0, -4.0)]",4,1.23e-321,0.0012726671938315122,65536,86.90309762954712
480000,"[-61.0, (-17.0, -16.0)]",4,1.23e-321,0.0012679837339845108,65536,87.22390055656433
490000,"[-124.0, (-20.0, -16.0)]",6,1.23e-321,0.0020829542035544365,65536,87.04959440231323
500000,"[-67.0, (-18.0, -13.0)]",5,1.23e-321,0.0014170349380194238,65536,86.73779034614563
510000,"[-66.0, (-16.0, -15.0)]",4,1.23e-321,0.00126588099758701,65536,83.8563871383667
520000,"[-48.0, (-16.0, -10.0)]",4,1.23e-321,0.0013123115713815424,65536,85.49199604988098
530000,"[-52.0, (-16.0, -6.0)]",3,1.23e-321,0.0013559456344162755,65536,87.51780891418457
540000,"[-48.0, (-19.0, -9.0)]",4,1.23e-321,0.0012485326664062085,65536,88.81189393997192
550000,"[-46.0, (-17.0, -9.0)]",4,1.23e-321,0.001337272751949422,65536,87.98435163497925
560000,"[-44.0, (-14.0, -4.0)]",4,1.23e-321,0.0013321606374014664,65536,88.4610345363617
570000,"[-43.0, (-13.0, -11.0)]",3,1.23e-321,0.0012939740907371743,65536,88.0950825214386
580000,"[-44.0, (-15.0, -10.0)]",4,1.23e-321,0.0012329319764776301,65536,87.17864298820496
590000,"[-137.0, (-21.0, -14.0)]",7,1.23e-321,0.0021262337740598014,65536,87.47219610214233
600000,"[-75.0, (-18.0, -13.0)]",5,1.23e-321,0.0014307168180639565,65536,86.35764026641846
610000,"[-61.0, (-19.0, -14.0)]",4,1.23e-321,0.00129916683891297,65536,86.55988717079163
620000,"[-67.0, (-18.0, -13.0)]",4,1.23e-321,0.0012647217065554286,65536,86.61611747741699
630000,"[-36.0, (-14.0, -7.0)]",4,1.23e-321,0.0011988916040376353,65536,87.89287090301514
640000,"[-57.0, (-17.0, -10.0)]",4,1.23e-321,0.0011763116148395057,65536,87.59748864173889
650000,"[-33.0, (-14.0, -9.0)]",3,1.23e-321,0.001164717660041788,65536,86.89558219909668
660000,"[-37.0, (-13.0, -10.0)]",3,1.23e-321,0.0011526414634729007,65536,87.99130201339722
670000,"[-36.0, (-14.0, -11.0)]",3,1.23e-321,0.0010795285396008694,65536,87.8489077091217
680000,"[-39.0, (-12.0, -10.0)]",3,1.23e-321,0.0010511720266420525,65536,87.84883618354797
690000,"[-33.0, (-17.0, -6.0)]",3,1.23e-321,0.0011813819339095062,65536,87.42238235473633
700000,"[-28.0, (-12.0, -11.0)]",3,1.23e-321,0.0010941640456043388,65536,88.41183972358704
710000,"[-74.0, (-18.0, -12.0)]",4,1.23e-321,0.0016668249590005872,65536,88.66952252388
720000,"[-38.0, (-16.0, -12.0)]",3,1.23e-321,0.001197900442543687,65536,87.46509885787964
730000,"[-135.0, (-21.0, -9.0)]",8,1.23e-321,0.1921941348479362,65536,88.55203580856323
740000,"[-246.0, (-21.0, -20.0)]",12,1.23e-321,0.004480450537223078,65536,86.7852303981781
750000,"[-243.0, (-21.0, -20.0)]",11,1.23e-321,0.002430531864619843,65536,86.97118830680847
760000,"[-170.0, (-21.0, -16.0)]",9,1.23e-321,0.002093627721206212,65536,86.36903929710388
770000,"[-145.0, (-20.0, -17.0)]",8,1.23e-321,0.0017313942575747205,65536,87.39760661125183
780000,"[-120.0, (-20.0, -13.0)]",7,1.23e-321,0.00163262252703571,65536,88.19906783103943
790000,"[-94.0, (-19.0, -11.0)]",6,1.23e-321,0.001280438199718992,65536,87.26141595840454
800000,"[-107.0, (-19.0, -16.0)]",6,1.23e-321,0.0011405960022679209,65536,88.90938758850098
810000,"[-97.0, (-21.0, -14.0)]",5,1.23e-321,0.0011314281042014045,65536,87.54724192619324
820000,"[-78.0, (-19.0, -16.0)]",5,1.23e-321,0.0011900621507971664,65536,87.80139303207397
830000,"[-66.0, (-20.0, -13.0)]",4,1.23e-321,0.0011842362767572922,65536,87.34088444709778
840000,"[-91.0, (-21.0, -18.0)]",5,1.23e-321,0.0011821859652813146,65536,89.20101833343506
850000,"[-90.0, (-21.0, -14.0)]",5,1.23e-321,0.0011171449296958598,65536,88.73385500907898
860000,"[-66.0, (-18.0, -14.0)]",4,1.23e-321,0.0010609999356358457,65536,87.49334001541138
870000,"[-64.0, (-19.0, -10.0)]",4,1.23e-321,0.001063114208288971,65536,87.99550151824951
880000,"[-104.0, (-20.0, -14.0)]",6,1.23e-321,0.0035027887730304428,65536,88.40704393386841
890000,"[-175.0, (-21.0, -18.0)]",9,1.23e-321,0.0016799207988824492,65536,86.80724215507507
900000,"[-112.0, (-21.0, -16.0)]",6,1.23e-321,0.0013335956229668228,65536,86.43417716026306
910000,"[-80.0, (-19.0, -14.0)]",5,1.23e-321,0.0013533815643917478,65536,86.8007493019104
920000,"[-68.0, (-20.0, -11.0)]",4,1.23e-321,0.0012635588435648969,65536,84.4199845790863
930000,"[-70.0, (-18.0, -14.0)]",4,1.23e-321,0.0011749334030828323,65536,85.86600613594055
940000,"[-87.0, (-19.0, -14.0)]",5,1.23e-321,0.0024136103665668997,65536,87.56922936439514
950000,"[-94.0, (-21.0, -13.0)]",6,1.23e-321,0.0011832166913605762,65536,89.29852056503296
960000,"[-78.0, (-17.0, -12.0)]",5,1.23e-321,0.0011204875875315337,65536,87.82119131088257
970000,"[-81.0, (-19.0, -13.0)]",5,1.23e-321,0.0011799388294821255,65536,87.52478408813477
980000,"[-53.0, (-17.0, -7.0)]",4,1.23e-321,0.0011450605852427543,65536,89.42478370666504
990000,"[-58.0, (-19.0, -14.0)]",4,1.23e-321,0.001241907363473365,65536,88.2435872554779
1000000,"[-61.0, (-16.0, -8.0)]",5,1.23e-321,0.0012762697215152002,65536,87.78593730926514
1010000,"[-43.0, (-16.0, -12.0)]",3,1.23e-321,0.001309016948815406,65536,87.75453329086304
1020000,"[-52.0, (-14.0, -9.0)]",4,1.23e-321,0.0014353733512289181,65536,89.85241198539734
1030000,"[-58.0, (-17.0, -11.0)]",4,1.23e-321,0.0013276076591251696,65536,87.5909469127655
1040000,"[-64.0, (-20.0, -7.0)]",5,1.23e-321,0.0012668428050888905,65536,87.83056998252869
1050000,"[-33.0, (-13.0, -6.0)]",3,1.23e-321,0.001223352724599681,65536,87.81260514259338
1060000,"[-60.0, (-19.0, -6.0)]",4,1.23e-321,0.001212870474105148,65536,87.05026197433472
1070000,"[-42.0, (-14.0, -10.0)]",4,1.23e-321,0.0011875548407202586,65536,86.16064357757568
1080000,"[-38.0, (-13.0, -5.0)]",3,1.23e-321,0.001185955442733757,65536,85.99526953697205
1090000,"[-70.0, (-21.0, -10.0)]",5,1.23e-321,0.0012432063948635914,65536,88.8509886264801
1100000,"[-50.0, (-15.0, -12.0)]",4,1.23e-321,0.001187600212877078,65536,87.2759439945221
1110000,"[-36.0, (-11.0, -10.0)]",3,1.23e-321,0.0012146148754483875,65536,87.6875274181366
1120000,"[-31.0, (-13.0, -10.0)]",3,1.23e-321,0.0012026041431905468,65536,88.30413866043091
1130000,"[-33.0, (-12.0, -4.0)]",3,1.23e-321,0.0012291974929048593,65536,87.9667899608612
1140000,"[-55.0, (-17.0, -12.0)]",4,1.23e-321,0.0011718645673805441,65536,87.16295838356018
1150000,"[-53.0, (-16.0, -13.0)]",4,1.23e-321,0.0011897960937818424,65536,87.87936305999756
1160000,"[-48.0, (-15.0, -12.0)]",3,1.23e-321,0.0011359581282562431,65536,89.5367066860199
1170000,"[-49.0, (-15.0, -12.0)]",4,1.23e-321,0.001171574058978149,65536,87.43821024894714
1180000,"[-41.0, (-12.0, -8.0)]",3,1.23e-321,0.0010948637176632474,65536,87.18673372268677
1190000,"[-29.0, (-14.0, -11.0)]",3,1.23e-321,0.0011290833413615474,65536,87.89165997505188
1200000,"[-41.0, (-15.0, -4.0)]",4,1.23e-321,0.0010845682277040396,65536,87.53058671951294
1210000,"[-21.0, (-9.0, -3.0)]",2,1.23e-321,0.0011176940739413112,65536,86.06897616386414
1220000,"[-30.0, (-10.0, -9.0)]",3,1.23e-321,0.0011054593374286925,65536,85.5749683380127
1230000,"[-36.0, (-15.0, -11.0)]",3,1.23e-321,0.0011086017366915258,65536,87.12352776527405
1240000,"[-59.0, (-20.0, -9.0)]",4,1.23e-321,0.0011131152956004372,65536,86.15935897827148
1250000,"[-52.0, (-15.0, -11.0)]",4,1.23e-321,0.0010545940338957734,65536,86.59686231613159
1260000,"[-27.0, (-15.0, -9.0)]",3,1.23e-321,0.001054523004344628,65536,86.68747901916504
1270000,"[-40.0, (-15.0, -7.0)]",3,1.23e-321,0.0010799733465162718,65536,88.41469120979309
1280000,"[-46.0, (-14.0, -12.0)]",3,1.23e-321,0.0011154309685345652,65536,86.4920060634613
1290000,"[-43.0, (-15.0, -9.0)]",4,1.23e-321,0.001165671823102457,65536,86.66363334655762
1300000,"[-29.0, (-14.0, -7.0)]",3,1.23e-321,0.0011354820146996644,65536,88.2203266620636
1310000,"[-44.0, (-13.0, -11.0)]",3,1.23e-321,0.001124810768224961,65536,86.92024087905884
1320000,"[-46.0, (-16.0, -11.0)]",4,1.23e-321,0.001115943872547905,65536,85.50846695899963
1330000,"[-23.0, (-10.0, -9.0)]",2,1.23e-321,0.0011214549590706155,65536,84.2265100479126
1340000,"[-72.0, (-17.0, -6.0)]",5,1.23e-321,0.0011844292696747288,65536,88.00875854492188
1350000,"[-76.0, (-20.0, -9.0)]",5,1.23e-321,0.001138274844650732,65536,84.02152872085571
1360000,"[-75.0, (-19.0, -16.0)]",4,1.23e-321,0.0011981077025277045,65536,83.87224531173706
1370000,"[-69.0, (-17.0, -10.0)]",5,1.23e-321,0.0012227923072841804,65536,84.6816668510437
1380000,"[-39.0, (-12.0, -9.0)]",4,1.23e-321,0.0012486472743081323,65536,84.55752277374268
1390000,"[-26.0, (-11.0, -7.0)]",3,1.23e-321,0.0012366621350478454,65536,83.7704107761383
1400000,"[-34.0, (-15.0, -2.0)]",4,1.23e-321,0.0013323020192103285,65536,84.31590962409973
1410000,"[-68.0, (-16.0, -10.0)]",5,1.23e-321,0.001397617156727756,65536,85.7404203414917
1420000,"[-30.0, (-11.0, -7.0)]",3,1.23e-321,0.0014065595661408225,65536,84.1727237701416
1430000,"[-48.0, (-15.0, -5.0)]",4,1.23e-321,0.0014041752934565012,65536,85.4625129699707
1440000,"[-31.0, (-18.0, 5.0)]",4,1.23e-321,0.0013797884620737023,65536,86.08783912658691
1450000,"[-23.0, (-15.0, 3.0)]",4,1.23e-321,0.0014061846216731283,65536,88.36411619186401
1460000,"[-36.0, (-16.0, -5.0)]",5,1.23e-321,0.001407442816641378,65536,88.8905737400055
1470000,"[-29.0, (-10.0, 4.0)]",3,1.23e-321,0.0014666318404593767,65536,87.00476694107056
1480000,"[-66.0, (-16.0, -11.0)]",5,1.23e-321,0.0015060058198905608,65536,86.07022213935852
1490000,"[-40.0, (-16.0, -3.0)]",5,1.23e-321,0.0015201727827865398,65536,86.27735996246338
1500000,"[-19.0, (-14.0, -1.0)]",3,1.23e-321,0.0014765083131333086,65536,86.12249684333801
1510000,"[-65.0, (-17.0, -5.0)]",5,1.23e-321,0.0016201379018501029,65536,86.00635743141174
1520000,"[-43.0, (-15.0, -2.0)]",4,1.23e-321,0.0016386394267283323,65536,86.36876726150513
1530000,"[-18.0, (-14.0, 4.0)]",4,1.23e-321,0.0016199549442078934,65536,84.55229711532593
1540000,"[-41.0, (-13.0, -7.0)]",4,1.23e-321,0.001564547319517078,65536,84.2068874835968
1550000,"[-52.0, (-20.0, 11.0)]",5,1.23e-321,0.0017803556624388876,65536,84.70061016082764
1560000,"[-66.0, (-14.0, -12.0)]",5,1.23e-321,0.0017359642967647233,65536,85.1321153640747
1570000,"[-32.0, (-12.0, -4.0)]",4,1.23e-321,0.0016854724755208735,65536,84.74835920333862
1580000,"[-60.0, (-13.0, -12.0)]",5,1.23e-321,0.0016435855551822896,65536,84.84057521820068
1590000,"[-65.0, (-21.0, -5.0)]",5,1.23e-321,0.0015281108928702452,65536,86.55014300346375
1600000,"[-39.0, (-14.0, -6.0)]",4,1.23e-321,0.001531676812621299,65536,84.6092963218689
1610000,"[-18.0, (-15.0, 3.0)]",4,1.23e-321,0.0014932846338280798,65536,84.29871439933777
1620000,"[-56.0, (-16.0, -4.0)]",4,1.23e-321,0.0014284688949474003,65536,84.41547894477844
1630000,"[-39.0, (-16.0, 3.0)]",5,1.23e-321,0.0015087984653157037,65536,86.16401243209839
1640000,"[-21.0, (-13.0, 4.0)]",4,1.23e-321,0.0015503008996263815,65536,84.33751273155212
1650000,"[-126.0, (-21.0, -9.0)]",7,1.23e-321,0.03942073091202656,65536,84.40499877929688
1660000,"[-232.0, (-21.0, -19.0)]",11,1.23e-321,0.005687241020859801,65536,85.29235243797302
1670000,"[-154.0, (-20.0, -16.0)]",9,1.23e-321,0.002484867504697104,65536,84.59812474250793
1680000,"[-100.0, (-19.0, -11.0)]",6,1.23e-321,0.0020764423928158067,65536,84.10235381126404
1690000,"[-40.0, (-14.0, 7.0)]",5,1.23e-321,0.001911347335121536,65536,83.48398351669312
1700000,"[-77.0, (-19.0, -12.0)]",6,1.23e-321,0.0018884680552506325,65536,84.86644625663757
1710000,"[-82.0, (-18.0, -6.0)]",6,1.23e-321,0.00181126816059259,65536,83.54862809181213
1720000,"[-59.0, (-17.0, -8.0)]",5,1.23e-321,0.0018431551760011643,65536,84.31152296066284
1730000,"[-97.0, (-18.0, -12.0)]",7,1.23e-321,0.0018864245395332545,65536,85.11179614067078
1740000,"[-79.0, (-19.0, -4.0)]",6,1.23e-321,0.0020458367481758616,65536,85.309641122818
1750000,"[-97.0, (-20.0, -10.0)]",6,1.23e-321,0.001954445735871559,65536,84.34898519515991
1760000,"[-47.0, (-18.0, -7.0)]",5,1.23e-321,0.0018868522686712821,65536,84.31497359275818
1770000,"[-32.0, (-11.0, 4.0)]",4,1.23e-321,0.0018924061185171012,65536,84.78148198127747
1780000,"[-41.0, (-17.0, 2.0)]",5,1.23e-321,0.0019088247469724593,65536,84.83341240882874
1790000,"[-53.0, (-17.0, -7.0)]",4,1.23e-321,0.0019176245577680676,65536,84.3355348110199
1800000,"[-23.0, (-11.0, -6.0)]",4,1.23e-321,0.001802754469757565,65536,85.55330467224121
1810000,"[-53.0, (-18.0, -1.0)]",5,1.23e-321,0.001921441276720725,65536,86.22769856452942
1820000,"[-58.0, (-14.0, -5.0)]",5,1.23e-321,0.001919037260627374,65536,85.05451726913452
1830000,"[-75.0, (-19.0, -4.0)]",5,1.23e-321,0.0019109626252524323,65536,85.62446641921997
1840000,"[-72.0, (-17.0, -9.0)]",6,1.23e-321,0.0018573695245890122,65536,85.32157754898071
1850000,"[-62.0, (-15.0, -8.0)]",5,1.23e-321,0.0018882308922631636,65536,84.86855578422546
1860000,"[-77.0, (-17.0, -9.0)]",5,1.23e-321,0.0020649376719571594,65536,83.95763945579529
1870000,"[-49.0, (-17.0, -10.0)]",5,1.23e-321,0.0018614295108065563,65536,84.59750866889954
1880000,"[-54.0, (-17.0, -2.0)]",5,1.23e-321,0.001800566830250864,65536,86.23589754104614
1890000,"[-41.0, (-16.0, -8.0)]",4,1.23e-321,0.0016960256067508454,65536,88.05279493331909
1900000,"[-36.0, (-12.0, -4.0)]",5,1.23e-321,0.0019711176516091656,65536,87.46748399734497
1910000,"[-59.0, (-17.0, 2.0)]",5,1.23e-321,0.001850808475611484,65536,88.29652214050293
1920000,"[-84.0, (-20.0, 1.0)]",6,1.23e-321,0.0022127695675360883,65536,89.11677742004395
1930000,"[-12.0, (-10.0, 5.0)]",4,1.23e-321,0.001860130803740867,65536,88.97462224960327
1940000,"[-45.0, (-20.0, -5.0)]",5,1.23e-321,0.0018743860588285315,65536,90.7918713092804
1950000,"[-64.0, (-19.0, 2.0)]",5,1.23e-321,0.0018973126289589346,65536,96.82988619804382
1960000,"[-67.0, (-18.0, -8.0)]",5,1.23e-321,0.0019169892934540259,65536,95.71718263626099
1970000,"[-92.0, (-19.0, -12.0)]",6,1.23e-321,0.0018338804015245842,65536,95.78171515464783
1980000,"[-26.0, (-14.0, 14.0)]",4,1.23e-321,0.0018600908611337218,65536,89.36941599845886
1990000,"[-51.0, (-20.0, -5.0)]",5,1.23e-321,0.001843768868823463,65536,86.11796545982361
2000000,"[-76.0, (-17.0, -11.0)]",5,1.23e-321,0.0017812748085798376,65536,84.72499775886536
2010000,"[-66.0, (-18.0, -11.0)]",5,1.23e-321,0.001785678129776352,65536,84.08881902694702
2020000,"[-45.0, (-18.0, 6.0)]",5,1.23e-321,0.0018950106766526006,65536,85.17570114135742
2030000,"[-72.0, (-15.0, -9.0)]",6,1.23e-321,0.047468089914119264,65536,83.85285711288452
2040000,"[-249.0, (-21.0, -19.0)]",12,1.23e-321,0.0866010583009338,65536,85.497567653656
2050000,"[-228.0, (-21.0, -19.0)]",11,1.23e-321,0.007650516277970746,65536,85.71745204925537
2060000,"[-153.0, (-21.0, -8.0)]",9,1.23e-321,0.0028856708933177287,65536,86.17445087432861
2070000,"[-80.0, (-19.0, -10.0)]",6,1.23e-321,0.0020930992506553595,65536,85.79158926010132
2080000,"[-66.0, (-18.0, -11.0)]",5,1.23e-321,0.001695160204203421,65536,85.31882524490356
2090000,"[-99.0, (-19.0, -6.0)]",6,1.23e-321,0.001373764069801109,65536,87.23675584793091
2100000,"[-84.0, (-19.0, -8.0)]",6,1.23e-321,0.0013380619143299555,65536,86.59169316291809
2110000,"[-95.0, (-18.0, -13.0)]",6,1.23e-321,0.0013959784345359367,65536,85.3914258480072
2120000,"[-145.0, (-21.0, -12.0)]",8,1.23e-321,0.02548110128183689,65536,85.57103633880615
2130000,"[-268.0, (-21.0, -20.0)]",13,1.23e-321,0.01804852296681638,65536,85.66214156150818
2140000,"[-204.0, (-21.0, -17.0)]",10,1.23e-321,0.0024474339575761405,65536,84.80923318862915
2150000,"[-108.0, (-18.0, -15.0)]",7,1.23e-321,0.0016731282022483356,65536,85.43813300132751
2160000,"[-85.0, (-18.0, -12.0)]",6,1.23e-321,0.0012795403406591504,65536,85.95608615875244
2170000,"[-61.0, (-16.0, -7.0)]",5,1.23e-321,0.0012429194187105167,65536,86.01498603820801
2180000,"[-72.0, (-16.0, -11.0)]",5,1.23e-321,0.0011590478141890344,65536,86.92453837394714
2190000,"[-84.0, (-18.0, -13.0)]",5,1.23e-321,0.001168818346156695,65536,85.69661808013916
2200000,"[-79.0, (-18.0, -9.0)]",6,1.23e-321,0.0012947887191565315,65536,84.76999473571777
2210000,"[-89.0, (-21.0, -9.0)]",6,1.23e-321,0.00141305253778919,65536,86.01217842102051
2220000,"[-67.0, (-15.0, -8.0)]",4,1.23e-321,0.001500198346612524,65536,85.032949924469
2230000,"[-78.0, (-19.0, -13.0)]",6,1.23e-321,0.0015249207885342912,65536,85.22803211212158
2240000,"[-94.0, (-21.0, -16.0)]",5,1.23e-321,0.0015380575810344454,65536,86.89603853225708
2250000,"[-88.0, (-20.0, -13.0)]",6,1.23e-321,0.0015066944590176718,65536,86.41844081878662
2260000,"[-114.0, (-21.0, -15.0)]",6,1.23e-321,0.0017765933973998471,65536,86.56799340248108
2270000,"[-79.0, (-19.0, -13.0)]",5,1.23e-321,0.0015009384973356647,65536,85.5748999118805
2280000,"[-55.0, (-17.0, -8.0)]",5,1.23e-321,0.0014359135268652609,65536,86.18721079826355
2290000,"[-66.0, (-19.0, -8.0)]",4,1.23e-321,0.0014403594582654477,65536,86.52215337753296
2300000,"[-34.0, (-11.0, -6.0)]",4,1.23e-321,0.0015274646529775055,65536,86.79436111450195
2310000,"[-56.0, (-16.0, -11.0)]",4,1.23e-321,0.001554428168879167,65536,87.35964798927307
2320000,"[-57.0, (-18.0, -10.0)]",5,1.23e-321,0.001535304841754987,65536,86.02268648147583
2330000,"[-38.0, (-12.0, -7.0)]",3,1.23e-321,0.001479498485793738,65536,84.26205611228943
2340000,"[-50.0, (-14.0, -9.0)]",5,1.23e-321,0.001764699176299473,65536,85.66969847679138
2350000,"[-39.0, (-13.0, -9.0)]",3,1.23e-321,0.0015658307701763988,65536,85.86610960960388
2360000,"[-37.0, (-18.0, -3.0)]",4,1.23e-321,0.0015397546483989573,65536,85.20245099067688
2370000,"[-36.0, (-16.0, -2.0)]",4,1.23e-321,0.0015058493225958956,65536,85.9197928905487
2380000,"[-45.0, (-14.0, -9.0)]",4,1.23e-321,0.001553740607432701,65536,85.38095450401306
2390000,"[-59.0, (-16.0, -10.0)]",5,1.23e-321,0.0015786761126953934,65536,88.90213322639465
2400000,"[-83.0, (-18.0, -12.0)]",5,1.23e-321,0.0014945155812820304,65536,92.17483401298523
2410000,"[-69.0, (-18.0, -12.0)]",5,1.23e-321,0.001511315781004305,65536,93.9274513721466
2420000,"[-62.0, (-17.0, -11.0)]",5,1.23e-321,0.0015146399386994744,65536,93.95418429374695
2430000,"[-60.0, (-17.0, -5.0)]",4,1.23e-321,0.0014747097938674414,65536,92.89696097373962
2440000,"[-66.0, (-15.0, -13.0)]",5,1.23e-321,0.0014522716470852174,65536,92.27019238471985
2450000,"[-66.0, (-18.0, -12.0)]",5,1.23e-321,0.001381207211261426,65536,91.60663652420044
2460000,"[-48.0, (-18.0, -4.0)]",4,1.23e-321,0.0014150093456592003,65536,85.422443151474
2470000,"[-25.0, (-11.0, -6.0)]",4,1.23e-321,0.0014019665264517244,65536,85.43549799919128
2480000,"[-47.0, (-16.0, -3.0)]",4,1.23e-321,0.0014320390658805991,65536,84.70263981819153
2490000,"[-63.0, (-16.0, -7.0)]",5,1.23e-321,0.0015212435969911894,65536,85.0341968536377
2500000,"[-61.0, (-18.0, -13.0)]",4,1.23e-321,0.0014791948351765313,65536,83.97061824798584
2510000,"[-32.0, (-12.0, -2.0)]",4,1.23e-321,0.0014573692284353455,65536,84.16765141487122
2520000,"[-41.0, (-17.0, -7.0)]",4,1.23e-321,0.0016491744012342678,65536,84.51494479179382
2530000,"[-99.0, (-20.0, -5.0)]",7,1.23e-321,0.0015818951158436904,65536,87.00713467597961
2540000,"[-55.0, (-16.0, -8.0)]",4,1.23e-321,0.0014384600546403818,65536,84.7914969921112
2550000,"[-51.0, (-17.0, -5.0)]",5,1.23e-321,0.0015322142639379308,65536,88.25225353240967
2560000,"[-33.0, (-9.0, -6.0)]",4,1.23e-321,0.001577553992924004,65536,87.23409652709961
2570000,"[-86.0, (-20.0, -9.0)]",5,1.23e-321,0.001600347905343915,65536,85.94522166252136
2580000,"[-38.0, (-14.0, -10.0)]",4,1.23e-321,0.0015251727521819703,65536,85.47334051132202
2590000,"[-58.0, (-15.0, -1.0)]",5,1.23e-321,0.0015671849066557116,65536,85.51681470870972
2600000,"[-50.0, (-16.0, -7.0)]",4,1.23e-321,0.0015375043434443796,65536,86.93068385124207
2610000,"[-64.0, (-17.0, -10.0)]",4,1.23e-321,0.0013979486959764472,65536,86.0833580493927
2620000,"[-22.0, (-14.0, -4.0)]",4,1.23e-321,0.0015796113298256387,65536,86.64374828338623
2630000,"[-57.0, (-14.0, -8.0)]",4,1.23e-321,0.0015118896273441352,65536,85.99654388427734
2640000,"[-43.0, (-16.0, -7.0)]",4,1.23e-321,0.0015058775348839844,65536,84.45917534828186
2650000,"[-42.0, (-14.0, -4.0)]",4,1.23e-321,0.0015368173886063231,65536,84.27105808258057
2660000,"[-61.0, (-16.0, -11.0)]",4,1.23e-321,0.0014894887324793673,65536,83.99274468421936
2670000,"[-59.0, (-16.0, -13.0)]",5,1.23e-321,0.0015782390850921728,65536,84.80766201019287
2680000,"[-66.0, (-18.0, -10.0)]",5,1.23e-321,0.0015284632938786671,65536,84.73498177528381
2690000,"[-47.0, (-13.0, -9.0)]",4,1.23e-321,0.0015443573413778723,65536,86.45648884773254
2700000,"[-66.0, (-17.0, -13.0)]",4,1.23e-321,0.0015340551790090104,65536,85.86394453048706
2710000,"[-47.0, (-15.0, -8.0)]",5,1.23e-321,0.001443413563676404,65536,86.74752974510193
2720000,"[-39.0, (-15.0, -10.0)]",3,1.23e-321,0.001472097272218889,65536,87.17123866081238
2730000,"[-45.0, (-16.0, -4.0)]",5,1.23e-321,0.0014971286181411415,65536,87.81335496902466
2740000,"[-48.0, (-17.0, -7.0)]",4,1.23e-321,0.0015861254575645944,65536,87.87723803520203
2750000,"[-62.0, (-18.0, -11.0)]",4,1.23e-321,0.0015837243708814639,65536,87.1019778251648
2760000,"[-33.0, (-13.0, -3.0)]",4,1.23e-321,0.0016297472641677814,65536,89.35737895965576
2770000,"[-69.0, (-16.0, -13.0)]",4,1.23e-321,0.0015919335464139295,65536,88.61085605621338
2780000,"[-75.0, (-20.0, -7.0)]",5,1.23e-321,0.0015857394786249642,65536,88.31333589553833
2790000,"[-54.0, (-15.0, -9.0)]",5,1.23e-321,0.0017664546191652334,65536,85.30134415626526
2800000,"[-66.0, (-17.0, -11.0)]",5,1.23e-321,0.0016460017466552017,65536,84.67833471298218
2810000,"[-56.0, (-17.0, -9.0)]",4,1.23e-321,0.0016191319441542873,65536,85.2188777923584
2820000,"[-51.0, (-16.0, -8.0)]",4,1.23e-321,0.0015376871776890766,65536,85.54691696166992
2830000,"[-53.0, (-17.0, -10.0)]",5,1.23e-321,0.0015507788159684424,65536,85.74529838562012
2840000,"[-71.0, (-18.0, -11.0)]",4,1.23e-321,0.001561628223883781,65536,84.87386751174927
2850000,"[-34.0, (-15.0, 1.0)]",4,1.23e-321,0.0015930399229506292,65536,87.90670967102051
2860000,"[-52.0, (-13.0, -5.0)]",4,1.23e-321,0.00155843163292011,65536,86.83130192756653
2870000,"[-25.0, (-14.0, 7.0)]",5,1.23e-321,0.001486741247952341,65536,86.01026391983032
2880000,"[-39.0, (-16.0, -1.0)]",4,1.23e-321,0.0015625999916363072,65536,86.25185823440552
2890000,"[-202.0, (-21.0, -10.0)]",10,1.23e-321,0.23472838520626793,65536,87.50256848335266
2900000,"[-230.0, (-21.0, -19.0)]",11,1.23e-321,0.007664284919359488,65536,86.77366209030151
2910000,"[-146.0, (-21.0, -18.0)]",8,1.23e-321,0.0027089996761424117,65536,86.6586639881134
2920000,"[-198.0, (-21.0, -11.0)]",10,1.23e-321,0.2986668926935723,65536,87.5400595664978
2930000,"[-247.0, (-21.0, -19.0)]",12,1.23e-321,0.03995818929167581,65536,87.28367137908936
2940000,"[-231.0, (-21.0, -19.0)]",11,1.23e-321,0.00541351504980048,65536,87.17337703704834
2950000,"[-227.0, (-21.0, -19.0)]",11,1.23e-321,0.0026527027146395995,65536,87.7119209766388
2960000,"[-220.0, (-21.0, -18.0)]",11,1.23e-321,0.002246702597089825,65536,86.13579607009888
2970000,"[-229.0, (-21.0, -19.0)]",11,1.23e-321,0.0018486324799248904,65536,84.44736576080322
2980000,"[-220.0, (-21.0, -19.0)]",11,1.23e-321,0.0016063644836023742,65536,83.48239803314209
2990000,"[-226.0, (-21.0, -20.0)]",12,1.23e-321,0.0014339250630257083,65536,84.6693983078003
3000000,"[-193.0, (-21.0, -18.0)]",9,1.23e-321,0.001468901016899872,65536,85.77225804328918
